^C:\USERS\CHRISTOPHER\DOWNLOADS\APEXSDK-1.2.1-BUILD22-CL13879708-PHYSX_3.2.1-WIN-VC10-BIN\SAMPLES\COMPILER\VC10WIN32-PHYSX_3.2\WIN32\OAUTOMATE\CHECKED\OPENAUTOMATE.OBJ
C:\PROGRAMDATA\NVIDIA CORPORATION\DRS\NVDRSDB1.BIN
C:\WINDOWS\SYSTEM32\TZRES.DLL
C:\USERS\CHRISTOPHER\DOWNLOADS\APEXSDK-1.2.1-BUILD22-CL13879708-PHYSX_3.2.1-WIN-VC10-BIN\SAMPLES\COMPILER\VC10WIN32-PHYSX_3.2\WIN32\OAUTOMATE\CHECKED\OPENAUTOMATE.OBJ
^F:\CS522\NVIDIA_PHYSX_FALL2012\CORE\DEPENDENCIES\APEXSDK-1.2.1-BUILD22-CL13879708-PHYSX_3.2.1-WIN-VC10-BIN\SAMPLES\COMPILER\VC10WIN32-PHYSX_3.2\WIN32\OAUTOMATE\CHECKED\OPENAUTOMATE.OBJ
C:\PROGRAMDATA\NVIDIA CORPORATION\DRS\NVDRSDB0.BIN
C:\WINDOWS\SYSTEM32\TZRES.DLL
F:\CS522\NVIDIA_PHYSX_FALL2012\CORE\DEPENDENCIES\APEXSDK-1.2.1-BUILD22-CL13879708-PHYSX_3.2.1-WIN-VC10-BIN\SAMPLES\COMPILER\VC10WIN32-PHYSX_3.2\WIN32\OAUTOMATE\CHECKED\OPENAUTOMATE.OBJ
