^C:\PROGRAM FILES (X86)\INTEL\MEDIA SDK 2012\SAMPLES\SAMPLE_DECODE\SRC\DECODE_RENDER.CPP
/c /Iinclude /I..\..\include /I..\sample_common\include /I..\..\igfx_s3dcontrol\include /nologo /W3 /WX /O2 /Oy- /D WIN32 /D NDEBUG /D _CONSOLE /D SAVE_RECON /D _VC80_UPGRADE=0x0710 /D _UNICODE /D UNICODE /Gm- /EHsc /MT /GS /Gy /fp:precise /Zc:wchar_t /Zc:forScope /Fo"..\_build\Win32\Release\obj\sample_decode\\" /Fd"..\_build\Win32\Release\obj\sample_decode\vc100.pdb" /Gd /TP /analyze- /errorReport:prompt C:\PROGRAM FILES (X86)\INTEL\MEDIA SDK 2012\SAMPLES\SAMPLE_DECODE\SRC\DECODE_RENDER.CPP
^C:\PROGRAM FILES (X86)\INTEL\MEDIA SDK 2012\SAMPLES\SAMPLE_DECODE\SRC\PIPELINE_DECODE.CPP
/c /Iinclude /I..\..\include /I..\sample_common\include /I..\..\igfx_s3dcontrol\include /nologo /W3 /WX /O2 /Oy- /D WIN32 /D NDEBUG /D _CONSOLE /D SAVE_RECON /D _VC80_UPGRADE=0x0710 /D _UNICODE /D UNICODE /Gm- /EHsc /MT /GS /Gy /fp:precise /Zc:wchar_t /Zc:forScope /Fo"..\_build\Win32\Release\obj\sample_decode\\" /Fd"..\_build\Win32\Release\obj\sample_decode\vc100.pdb" /Gd /TP /analyze- /errorReport:prompt C:\PROGRAM FILES (X86)\INTEL\MEDIA SDK 2012\SAMPLES\SAMPLE_DECODE\SRC\PIPELINE_DECODE.CPP
^C:\PROGRAM FILES (X86)\INTEL\MEDIA SDK 2012\SAMPLES\SAMPLE_DECODE\SRC\SAMPLE_DECODE.CPP
/c /Iinclude /I..\..\include /I..\sample_common\include /I..\..\igfx_s3dcontrol\include /nologo /W3 /WX /O2 /Oy- /D WIN32 /D NDEBUG /D _CONSOLE /D SAVE_RECON /D _VC80_UPGRADE=0x0710 /D _UNICODE /D UNICODE /Gm- /EHsc /MT /GS /Gy /fp:precise /Zc:wchar_t /Zc:forScope /Fo"..\_build\Win32\Release\obj\sample_decode\\" /Fd"..\_build\Win32\Release\obj\sample_decode\vc100.pdb" /Gd /TP /analyze- /errorReport:prompt C:\PROGRAM FILES (X86)\INTEL\MEDIA SDK 2012\SAMPLES\SAMPLE_DECODE\SRC\SAMPLE_DECODE.CPP
^I:\GGE\ENGINE\CORE\DEPENDENCIES\MEDIA SDK 2012\SAMPLES\SAMPLE_DECODE\SRC\DECODE_RENDER.CPP
/c /Iinclude /I..\..\include /I..\sample_common\include /I..\..\igfx_s3dcontrol\include /nologo /W3 /WX /O2 /Oy- /D WIN32 /D NDEBUG /D _CONSOLE /D SAVE_RECON /D _VC80_UPGRADE=0x0710 /D _UNICODE /D UNICODE /Gm- /EHsc /MT /GS /Gy /fp:precise /Zc:wchar_t /Zc:forScope /Fo"..\_build\Win32\Release\obj\sample_decode\\" /Fd"..\_build\Win32\Release\obj\sample_decode\vc100.pdb" /Gd /TP /analyze- /errorReport:prompt I:\GGE\ENGINE\CORE\DEPENDENCIES\MEDIA SDK 2012\SAMPLES\SAMPLE_DECODE\SRC\DECODE_RENDER.CPP
^I:\GGE\ENGINE\CORE\DEPENDENCIES\MEDIA SDK 2012\SAMPLES\SAMPLE_DECODE\SRC\PIPELINE_DECODE.CPP
/c /Iinclude /I..\..\include /I..\sample_common\include /I..\..\igfx_s3dcontrol\include /nologo /W3 /WX /O2 /Oy- /D WIN32 /D NDEBUG /D _CONSOLE /D SAVE_RECON /D _VC80_UPGRADE=0x0710 /D _UNICODE /D UNICODE /Gm- /EHsc /MT /GS /Gy /fp:precise /Zc:wchar_t /Zc:forScope /Fo"..\_build\Win32\Release\obj\sample_decode\\" /Fd"..\_build\Win32\Release\obj\sample_decode\vc100.pdb" /Gd /TP /analyze- /errorReport:prompt I:\GGE\ENGINE\CORE\DEPENDENCIES\MEDIA SDK 2012\SAMPLES\SAMPLE_DECODE\SRC\PIPELINE_DECODE.CPP
