^C:\PROGRAM FILES (X86)\INTEL\MEDIA SDK 2012\SAMPLES\SAMPLE_DECODE\SRC\DECODE_RENDER.CPP|C:\PROGRAM FILES (X86)\INTEL\MEDIA SDK 2012\SAMPLES\SAMPLE_DECODE\SRC\PIPELINE_DECODE.CPP|C:\PROGRAM FILES (X86)\INTEL\MEDIA SDK 2012\SAMPLES\SAMPLE_DECODE\SRC\SAMPLE_DECODE.CPP
C:\PROGRAM FILES (X86)\INTEL\MEDIA SDK 2012\SAMPLES\_BUILD\WIN32\RELEASE\OBJ\SAMPLE_DECODE\SAMPLE_DECODE.OBJ
C:\PROGRAM FILES (X86)\INTEL\MEDIA SDK 2012\SAMPLES\_BUILD\WIN32\RELEASE\OBJ\SAMPLE_DECODE\PIPELINE_DECODE.OBJ
C:\PROGRAM FILES (X86)\INTEL\MEDIA SDK 2012\SAMPLES\_BUILD\WIN32\RELEASE\OBJ\SAMPLE_DECODE\DECODE_RENDER.OBJ
^I:\GGE\ENGINE\CORE\DEPENDENCIES\MEDIA SDK 2012\SAMPLES\SAMPLE_DECODE\SRC\DECODE_RENDER.CPP|I:\GGE\ENGINE\CORE\DEPENDENCIES\MEDIA SDK 2012\SAMPLES\SAMPLE_DECODE\SRC\PIPELINE_DECODE.CPP|I:\GGE\ENGINE\CORE\DEPENDENCIES\MEDIA SDK 2012\SAMPLES\SAMPLE_DECODE\SRC\SAMPLE_DECODE.CPP
I:\GGE\ENGINE\CORE\DEPENDENCIES\MEDIA SDK 2012\SAMPLES\_BUILD\WIN32\RELEASE\OBJ\SAMPLE_DECODE\PIPELINE_DECODE.OBJ
I:\GGE\ENGINE\CORE\DEPENDENCIES\MEDIA SDK 2012\SAMPLES\_BUILD\WIN32\RELEASE\OBJ\SAMPLE_DECODE\DECODE_RENDER.OBJ
^I:\GGE\ENGINE\CORE\DEPENDENCIES\MEDIA SDK 2012\SAMPLES\SAMPLE_DECODE\SRC\DECODE_RENDER.CPP
I:\GGE\ENGINE\CORE\DEPENDENCIES\MEDIA SDK 2012\SAMPLES\_BUILD\WIN32\RELEASE\OBJ\SAMPLE_DECODE\DECODE_RENDER.OBJ
^I:\GGE\ENGINE\CORE\DEPENDENCIES\MEDIA SDK 2012\SAMPLES\SAMPLE_DECODE\SRC\PIPELINE_DECODE.CPP
I:\GGE\ENGINE\CORE\DEPENDENCIES\MEDIA SDK 2012\SAMPLES\_BUILD\WIN32\RELEASE\OBJ\SAMPLE_DECODE\PIPELINE_DECODE.OBJ
