^C:\PROGRAM FILES (X86)\INTEL\MEDIA SDK 2012\SAMPLES\_BUILD\WIN32\RELEASE\LIB\SAMPLE_COMMON.LIB|C:\PROGRAM FILES (X86)\INTEL\MEDIA SDK 2012\SAMPLES\_BUILD\WIN32\RELEASE\OBJ\SAMPLE_DECODE\DECODE_RENDER.OBJ|C:\PROGRAM FILES (X86)\INTEL\MEDIA SDK 2012\SAMPLES\_BUILD\WIN32\RELEASE\OBJ\SAMPLE_DECODE\PIPELINE_DECODE.OBJ|C:\PROGRAM FILES (X86)\INTEL\MEDIA SDK 2012\SAMPLES\_BUILD\WIN32\RELEASE\OBJ\SAMPLE_DECODE\SAMPLE_DECODE.OBJ
/ERRORREPORT:PROMPT /OUT:"..\_build\Win32\Release\sample_decode.exe" /INCREMENTAL:NO /NOLOGO /LIBPATH:..\..\lib\Win32 /LIBPATH:..\..\igfx_s3dcontrol\lib\Win32 libmfx.lib dxva2.lib d3d9.lib dwmapi.lib igfx_s3dcontrol.lib comsuppw.lib kernel32.lib user32.lib gdi32.lib winspool.lib comdlg32.lib advapi32.lib shell32.lib ole32.lib oleaut32.lib uuid.lib odbc32.lib odbccp32.lib Delayimp.lib /NODEFAULTLIB:msvcrt.lib /NODEFAULTLIB:msvcrtd.lib /DELAYLOAD:dwmapi.dll /MANIFEST /ManifestFile:"..\_build\Win32\Release\obj\sample_decode\sample_decode.exe.intermediate.manifest" /MANIFESTUAC:"level='asInvoker' uiAccess='false'" /PDB:"C:\Program Files (x86)\Intel\Media SDK 2012\samples\_build\Win32\Release\sample_decode.pdb" /MAP /SUBSYSTEM:CONSOLE /OPT:REF /OPT:ICF /TLBID:1 /DYNAMICBASE /NXCOMPAT /IMPLIB:"..\_build\Win32\Release\sample_decode.lib" /MACHINE:X86 ..\_build\Win32\Release\obj\sample_decode\decode_render.obj
..\_build\Win32\Release\obj\sample_decode\pipeline_decode.obj
..\_build\Win32\Release\obj\sample_decode\sample_decode.obj
"C:\Program Files (x86)\Intel\Media SDK 2012\samples\_build\Win32\Release\lib\sample_common.lib"
