material burnSurface
{
	receive_shadows on
	technique
	{
		pass
		{
                        lighting off
			ambient 1 1 1
			diffuse 0.9 0.9 0.9 
			specular 0.8 0.8 0.8 1.0
			
			texture_unit 
			{	
				texture stony_path_2710.jpg
				filtering bilinear
				tex_coord_set 0
				colour_op modulate
				scale 0.1 0.1
				scroll 0 0
				rotate 0
			}
		}
	}
}