material trooperBlack
{
	technique
	{
		pass
		{
			shading phong
			ambient 0 0 0 1
			diffuse 0 0 0 1
			specular 1 1 1 327.68
			emissive 0 0 0
		}
	}
}
material trooperWhite
{
	technique
	{
		pass
		{
			shading phong
			ambient 0 0 0 1
			diffuse 1 0.988235 0.976471 1
			specular 1 1 1 327.68
			emissive 0 0 0
		}
	}
}
material blasterProp_baster_prop_gunmetal
{
	technique
	{
		pass
		{
			shading phong
			ambient 0 0 0 1
			diffuse 1 1 1 1
			specular 0.19834 0.19834 0.19834 7.96672
			emissive 0 0 0

			texture_unit
			{
				texture blastermetal.png
				tex_coord_set 0
				colour_op modulate
				scale 1 1
				scroll 0 0
				rotate 0
			}
		}
	}
}
