material the_ramp/phong1
{
	technique
	{
		pass
		{
			ambient 0 0 0 1
			diffuse 1 1 1 1
			specular 0.5 0.5 0.5 20
			emissive 0 0 0

			texture_unit
			{
				texture blue.jpg
				tex_coord_set 0
				colour_op modulate
				scale 1 1
				scroll 0 0
				rotate 0
			}
		}
	}
}
