material console/background
{
	technique
	{
		pass
		{
			scene_blend alpha_blend
			diffuse 0 0 1 0.5
			texture_unit
			{
			  colour_op_ex source1 src_manual src_current 0.05 0.05 0.05
			}
		}
	}
}