
material CopChickless
{
	technique
	{
		pass
		{
			ambient 0 0 0 1

			texture_unit
			{
				texture Cop_Chickliss.jpg
			}
		}

	}

}



material NoMaterial
{
	technique
	{
		pass
		{
		}

	}

}


