material SoldierMaterial
{
	technique
	{
		pass
		{
			ambient 0.647059 0.101499 0.101499 1
			diffuse 0.588235 0.0922722 0.0922722 1
			specular 0 0 0 1
			emissive 0.666667 0.156863 0.156863
		}
	}
}
