material MySkyBox
{
	technique
	{
		pass
		{
			lighting off
			depth_write off
			depth_check off

			texture_unit
			{
				cubic_texture skybox.bmp separateUV
				tex_address_mode clamp
			}
		}
	}
}