material woman_generic1
{
	technique
	{
		pass
		{
			diffuse 1 1 1 1
			specular 0 0 0 1
			emissive 0 0 0

			texture_unit
			{
				texture woman_generic_texture1.jpg
				tex_coord_set 0
				colour_op modulate
				scale 1 1
				scroll 0 0
				rotate 0
			}
		}
	}
}

material woman_generic2
{
	technique
	{
		pass
		{
			diffuse 1 1 1 1
			specular 0 0 0 1
			emissive 0 0 0

			texture_unit
			{
				texture woman_generic_texture2.jpg
				tex_coord_set 0
				colour_op modulate
				scale 1 1
				scroll 0 0
				rotate 0
			}
		}
	}
}
material woman_generic3
{
	technique
	{
		pass
		{
			diffuse 1 1 1 1
			specular 0 0 0 1
			emissive 0 0 0

			texture_unit
			{
				texture woman_generic_texture3.jpg
				tex_coord_set 0
				colour_op modulate
				scale 1 1
				scroll 0 0
				rotate 0
			}
		}
	}
}

material woman_generic_shader
{
	technique
	{
		pass
		{
			diffuse 1 1 1 1
			specular 0 0 0 1
			emissive 0 0 0

			texture_unit
			{
				texture woman_generic_texture1.jpg
				tex_coord_set 0
				colour_op modulate
				scale 1 1
				scroll 0 0
				rotate 0
			}
		}
	}
}