^C:\PROGRAM FILES (X86)\INTEL\MEDIA SDK 2012\SAMPLES\SAMPLE_COMMON\SRC\BASE_ALLOCATOR.CPP|C:\PROGRAM FILES (X86)\INTEL\MEDIA SDK 2012\SAMPLES\SAMPLE_COMMON\SRC\D3D_ALLOCATOR.CPP|C:\PROGRAM FILES (X86)\INTEL\MEDIA SDK 2012\SAMPLES\SAMPLE_COMMON\SRC\SAMPLE_UTILS.CPP|C:\PROGRAM FILES (X86)\INTEL\MEDIA SDK 2012\SAMPLES\SAMPLE_COMMON\SRC\SYSMEM_ALLOCATOR.CPP|C:\PROGRAM FILES (X86)\INTEL\MEDIA SDK 2012\SAMPLES\SAMPLE_COMMON\SRC\VPP_EX.CPP
C:\PROGRAM FILES (X86)\INTEL\MEDIA SDK 2012\SAMPLES\_BUILD\WIN32\RELEASE\OBJ\SAMPLE_COMMON\VPP_EX.OBJ
C:\PROGRAM FILES (X86)\INTEL\MEDIA SDK 2012\SAMPLES\_BUILD\WIN32\RELEASE\OBJ\SAMPLE_COMMON\SYSMEM_ALLOCATOR.OBJ
C:\PROGRAM FILES (X86)\INTEL\MEDIA SDK 2012\SAMPLES\_BUILD\WIN32\RELEASE\OBJ\SAMPLE_COMMON\SAMPLE_UTILS.OBJ
C:\PROGRAM FILES (X86)\INTEL\MEDIA SDK 2012\SAMPLES\_BUILD\WIN32\RELEASE\OBJ\SAMPLE_COMMON\D3D_ALLOCATOR.OBJ
C:\PROGRAM FILES (X86)\INTEL\MEDIA SDK 2012\SAMPLES\_BUILD\WIN32\RELEASE\OBJ\SAMPLE_COMMON\BASE_ALLOCATOR.OBJ
^C:\PROGRAM FILES (X86)\INTEL\MEDIA SDK 2012\SAMPLES\SAMPLE_COMMON\SRC\BASE_ALLOCATOR.CPP
C:\PROGRAM FILES (X86)\INTEL\MEDIA SDK 2012\SAMPLES\_BUILD\WIN32\RELEASE\OBJ\SAMPLE_COMMON\VC100.PDB
^C:\PROGRAM FILES (X86)\INTEL\MEDIA SDK 2012\SAMPLES\SAMPLE_COMMON\SRC\D3D_ALLOCATOR.CPP
C:\PROGRAM FILES (X86)\INTEL\MEDIA SDK 2012\SAMPLES\_BUILD\WIN32\RELEASE\OBJ\SAMPLE_COMMON\VC100.PDB
^C:\PROGRAM FILES (X86)\INTEL\MEDIA SDK 2012\SAMPLES\SAMPLE_COMMON\SRC\SAMPLE_UTILS.CPP
C:\PROGRAM FILES (X86)\INTEL\MEDIA SDK 2012\SAMPLES\_BUILD\WIN32\RELEASE\OBJ\SAMPLE_COMMON\VC100.PDB
^C:\PROGRAM FILES (X86)\INTEL\MEDIA SDK 2012\SAMPLES\SAMPLE_COMMON\SRC\SYSMEM_ALLOCATOR.CPP
C:\PROGRAM FILES (X86)\INTEL\MEDIA SDK 2012\SAMPLES\_BUILD\WIN32\RELEASE\OBJ\SAMPLE_COMMON\VC100.PDB
^C:\PROGRAM FILES (X86)\INTEL\MEDIA SDK 2012\SAMPLES\SAMPLE_COMMON\SRC\VPP_EX.CPP
C:\PROGRAM FILES (X86)\INTEL\MEDIA SDK 2012\SAMPLES\_BUILD\WIN32\RELEASE\OBJ\SAMPLE_COMMON\VC100.PDB
