<?xml version="1.0"?>
<COLLADA xmlns="http://www.collada.org/2005/11/COLLADASchema" version="1.4.1">
	<asset>
		<contributor>
			<author>Huahang</author>
			<authoring_tool>NVIDIA FX Composer 2.5</authoring_tool>
			<comments/>
			<copyright/>
		</contributor>
		<created>2008-11-02T21:25:19Z</created>
		<keywords>FXComposer, NVIDIA</keywords>
		<modified>2008-11-11T04:48:48Z</modified>
		<subject/>
		<title/>
		<unit/>
		<up_axis>Y_UP</up_axis>
	</asset>
	<library_visual_scenes>
		<visual_scene id="DefaultScene" name="DefaultScene">
			<node id="Node" name="Node" layer="">
				<matrix sid="">1 0 0 0 0 1 0 0 0 0 1 0 0 0 0 1</matrix>
				<instance_geometry url="#Torus" sid="GeometryInstance" name="Torus">
					<bind_material>
						<technique_common>
							<instance_material symbol="TorusMaterial" target="#Material6"/>
						</technique_common>
					</bind_material>
				</instance_geometry>
			</node>
			<extra type="evaluatescene_enables">
				<technique profile="NVIDIA_FXCOMPOSER"/>
			</extra>
		</visual_scene>
	</library_visual_scenes>
	<library_images>
		<image id="default_color" name="default_color">
			<init_from>file:///c:/program%20files/nvidia%20corporation/fx%20composer%202.5/media/textures/default_color.dds</init_from>
		</image>
		<image id="default_bump_normal" name="default_bump_normal">
			<init_from>file:///c:/program%20files/nvidia%20corporation/fx%20composer%202.5/media/textures/default_bump_normal.dds</init_from>
		</image>
		<image id="default_reflection" name="default_reflection">
			<init_from>file:///c:/program%20files/nvidia%20corporation/fx%20composer%202.5/media/textures/default_reflection.dds</init_from>
		</image>
		<image id="carpaint_nocomp_contrast" name="carpaint_nocomp_contrast">
			<init_from>../../../../../../../../documents/fx%20composer%202/shader%20library/textures/carpaint_nocomp_contrast.dds</init_from>
		</image>
		<image id="default_color1" name="default_color1">
			<init_from>../../../../../../../../documents/fx%20composer%202/shader%20library/textures/default_color.dds</init_from>
		</image>
		<image id="carpaint_nocomp_contrast1" name="carpaint_nocomp_contrast1">
			<init_from>cgfx/carpaint_nocomp_contrast.dds</init_from>
		</image>
		<image id="default_color2" name="default_color2">
			<init_from>default_color.dds</init_from>
		</image>
		<image id="carpaint_nocomp_contrast2" name="carpaint_nocomp_contrast2">
			<init_from>carpaint_nocomp_contrast.dds</init_from>
		</image>
		<image id="Metal_02" name="Metal_02">
			<init_from>Metal_02.dds</init_from>
		</image>
	</library_images>
	<library_effects>
		<effect id="Effect" name="Blinn">
			<profile_COMMON>
				<technique sid="__fxc_remove_profile_COMMON">
					<constant/>
				</technique>
			</profile_COMMON>
			<extra type="import">
				<technique profile="NVIDIA_FXCOMPOSER">
					<import url="Blinn.cgfx" compiler_options="" profile="cgfx"/>
				</technique>
			</extra>
		</effect>
		<effect id="Effect2" name="Blinn_bump_reflect">
			<profile_COMMON>
				<technique sid="__fxc_remove_profile_COMMON">
					<constant/>
				</technique>
			</profile_COMMON>
			<extra type="import">
				<technique profile="NVIDIA_FXCOMPOSER">
					<import url="Blinn_bump_reflect.cgfx" compiler_options="" profile="cgfx"/>
				</technique>
			</extra>
		</effect>
		<effect id="Effect5" name="metalP">
			<profile_COMMON>
				<technique sid="__fxc_remove_profile_COMMON">
					<constant/>
				</technique>
			</profile_COMMON>
			<extra type="import">
				<technique profile="NVIDIA_FXCOMPOSER">
					<import url="CgFX/metalP.cgfx" compiler_options="" profile="cgfx"/>
				</technique>
			</extra>
		</effect>
		<effect id="Effect6" name="metalD">
			<profile_COMMON>
				<technique sid="__fxc_remove_profile_COMMON">
					<constant/>
				</technique>
			</profile_COMMON>
			<extra type="import">
				<technique profile="NVIDIA_FXCOMPOSER">
					<import url="CgFX/metalD.cgfx" compiler_options="" profile="cgfx"/>
				</technique>
			</extra>
		</effect>
		<effect id="Effect7" name="velvety">
			<profile_COMMON>
				<technique sid="__fxc_remove_profile_COMMON">
					<constant/>
				</technique>
			</profile_COMMON>
			<extra type="import">
				<technique profile="NVIDIA_FXCOMPOSER">
					<import url="CgFX/velvety.cgfx" compiler_options="" profile="cgfx"/>
				</technique>
			</extra>
		</effect>
		<effect id="Effect8" name="carpaint_texColor">
			<profile_COMMON>
				<technique sid="__fxc_remove_profile_COMMON">
					<constant/>
				</technique>
			</profile_COMMON>
			<extra type="import">
				<technique profile="NVIDIA_FXCOMPOSER">
					<import url="CgFX/carpaint_texColor.cgfx" compiler_options="" profile="cgfx"/>
				</technique>
			</extra>
		</effect>
	</library_effects>
	<library_materials>
		<material id="Material3" name="metalP_Material">
			<instance_effect url="#Effect5">
				<technique_hint platform="PC-OGL" ref="Simple"/>
				<setparam ref="Script">
					<float>0.8</float>
				</setparam>
				<setparam ref="gWorldXf">
					<float4x4>1 0 0 0 0 1 0 0 0 0 1 0 0 0 0 1</float4x4>
				</setparam>
				<setparam ref="gWorldITXf">
					<float4x4>1 0 0 0 0 1 0 0 0 0 1 0 0 0 0 1</float4x4>
				</setparam>
				<setparam ref="gWvpXf">
					<float4x4>1.12396 -0.864858 -0.670094 -0.670012 1.17261e-006 2.48671 -0.425276 -0.425224 -1.23759 -0.785449 -0.608571 -0.608496 0.378002 0.072035 2.30125 2.30427</float4x4>
				</setparam>
				<setparam ref="gViewIXf">
					<float4x4>0.672306 7.85483e-007 -0.740273 -2.665e-009 -0.314782 0.905088 -0.28588 1.24779e-009 0.670012 0.425224 0.608496 -2.8523e-008 1.40013 0.956099 1.57701 1</float4x4>
				</setparam>
				<setparam ref="gLamp0Pos">
					<float3>-0.5 2 1.25</float3>
				</setparam>
				<setparam ref="gLamp0Color">
					<float3>1 1 1</float3>
				</setparam>
				<setparam ref="gLamp0Intensity">
					<float>1</float>
				</setparam>
				<setparam ref="gAmbiColor">
					<float3>0.07 0.07 0.07</float3>
				</setparam>
				<setparam ref="gSurfaceColor">
					<float3>1 1 1</float3>
				</setparam>
				<setparam ref="gSpecExpon">
					<float>12</float>
				</setparam>
				<setparam ref="gKd">
					<float>0.1</float>
				</setparam>
				<setparam ref="gColorTexture">
					<surface type="2D">
						<init_from>default_color2</init_from>
						<format>R8G8B8A8</format>
						<size>1024 512 1</size>
					</surface>
				</setparam>
			</instance_effect>
		</material>
		<material id="Material4" name="metalD_Material">
			<instance_effect url="#Effect6">
				<technique_hint platform="PC-OGL" ref="Simple"/>
				<setparam ref="Script">
					<float>0.8</float>
				</setparam>
				<setparam ref="gWorldXf">
					<float4x4>1 0 0 0 0 1 0 0 0 0 1 0 0 0 0 1</float4x4>
				</setparam>
				<setparam ref="gWorldITXf">
					<float4x4>1 0 0 0 0 1 0 0 0 0 1 0 0 0 0 1</float4x4>
				</setparam>
				<setparam ref="gWvpXf">
					<float4x4>1.12396 -0.864858 -0.670094 -0.670012 1.17261e-006 2.48671 -0.425276 -0.425224 -1.23759 -0.785449 -0.608571 -0.608496 0.378002 0.072035 2.30125 2.30427</float4x4>
				</setparam>
				<setparam ref="gViewIXf">
					<float4x4>0.672306 7.85483e-007 -0.740273 -2.665e-009 -0.314782 0.905088 -0.28588 1.24779e-009 0.670012 0.425224 0.608496 -2.8523e-008 1.40013 0.956099 1.57701 1</float4x4>
				</setparam>
				<setparam ref="gLamp0Dir">
					<float3>0.7 -0.7 -0.7</float3>
				</setparam>
				<setparam ref="gLamp0Color">
					<float3>1 1 1</float3>
				</setparam>
				<setparam ref="gAmbiColor">
					<float3>0.07 0.07 0.07</float3>
				</setparam>
				<setparam ref="gSurfaceColor">
					<float3>1 1 1</float3>
				</setparam>
				<setparam ref="gSpecExpon">
					<float>12</float>
				</setparam>
				<setparam ref="gKd">
					<float>0.1</float>
				</setparam>
				<setparam ref="gColorTexture">
					<surface type="2D">
						<init_from>default_color2</init_from>
						<format>R8G8B8A8</format>
						<size>1024 512 1</size>
					</surface>
				</setparam>
			</instance_effect>
		</material>
		<material id="Material5" name="velvety_Material">
			<instance_effect url="#Effect7">
				<technique_hint platform="PC-OGL" ref="Simple"/>
				<setparam ref="Script">
					<float>0.8</float>
				</setparam>
				<setparam ref="gWorldXf">
					<float4x4>1 0 0 0 0 1 0 0 0 0 1 0 0 0 0 1</float4x4>
				</setparam>
				<setparam ref="gWorldITXf">
					<float4x4>1 0 0 0 0 1 0 0 0 0 1 0 0 0 0 1</float4x4>
				</setparam>
				<setparam ref="gWvpXf">
					<float4x4>1.12396 -0.864858 -0.670094 -0.670012 1.17261e-006 2.48671 -0.425276 -0.425224 -1.23759 -0.785449 -0.608571 -0.608496 0.378002 0.072035 2.30125 2.30427</float4x4>
				</setparam>
				<setparam ref="gViewIXf">
					<float4x4>0.672306 7.85483e-007 -0.740273 -2.665e-009 -0.314782 0.905088 -0.28588 1.24779e-009 0.670012 0.425224 0.608496 -2.8523e-008 1.40013 0.956099 1.57701 1</float4x4>
				</setparam>
				<setparam ref="gLamp0Pos">
					<float3>-0.5 2 1.25</float3>
				</setparam>
				<setparam ref="gLamp0Color">
					<float3>1 1 1</float3>
				</setparam>
				<setparam ref="gSurfaceColor">
					<float3>0.5 0.5 0.5</float3>
				</setparam>
				<setparam ref="gFuzzySpecColor">
					<float3>0.7 0.7 0.75</float3>
				</setparam>
				<setparam ref="gSubColor">
					<float3>0.2 0.2 1</float3>
				</setparam>
				<setparam ref="gRollOff">
					<float>0.3</float>
				</setparam>
				<setparam ref="gColorTexture">
					<surface type="2D">
						<init_from>default_color2</init_from>
						<format>R8G8B8A8</format>
						<size>1024 512 1</size>
					</surface>
				</setparam>
			</instance_effect>
		</material>
		<material id="Material6" name="carpaint_texColor_Material">
			<instance_effect url="#Effect8">
				<technique_hint platform="PC-OGL" ref="Lit"/>
				<setparam ref="Script">
					<float>0.8</float>
				</setparam>
				<setparam ref="gWorldXf">
					<float4x4>1 0 0 0 0 1 0 0 0 0 1 0 0 0 0 1</float4x4>
				</setparam>
				<setparam ref="gWorldITXf">
					<float4x4>1 0 0 0 0 1 0 0 0 0 1 0 0 0 0 1</float4x4>
				</setparam>
				<setparam ref="gWvpXf">
					<float4x4>1.12396 -0.864858 -0.670094 -0.670012 1.17261e-006 2.48671 -0.425276 -0.425224 -1.23759 -0.785449 -0.608571 -0.608496 0.378002 0.072035 2.30125 2.30427</float4x4>
				</setparam>
				<setparam ref="gViewIXf">
					<float4x4>0.672306 7.85483e-007 -0.740273 -2.665e-009 -0.314782 0.905088 -0.28588 1.24779e-009 0.670012 0.425224 0.608496 -2.8523e-008 1.40013 0.956099 1.57701 1</float4x4>
				</setparam>
				<setparam ref="gLamp0Pos">
					<float3>-0.5 2 1.25</float3>
				</setparam>
				<setparam ref="gLamp0Color">
					<float3>1 1 1</float3>
				</setparam>
				<setparam ref="gAmbiColor">
					<float3>0.07 0.07 0.07</float3>
				</setparam>
				<setparam ref="gSpecExpon">
					<float>55</float>
				</setparam>
				<setparam ref="paintMap">
					<surface type="2D">
						<init_from>carpaint_nocomp_contrast1</init_from>
						<format>R8G8B8A8</format>
						<size>64 64 1</size>
					</surface>
				</setparam>
			</instance_effect>
		</material>
	</library_materials>
	<library_geometries>
		<geometry id="Torus" name="Torus">
			<mesh>
				<source id="FXStream" name="FXStream">
					<float_array id="FXStream-array" count="2475">0.675 0.325 0 0.759116 0.313926 0 0.8375 0.281458 0 0.90481 0.22981 0 0.956458 0.1625 0 0.988926 0.0841162 0 1 -2.84124e-008 0 0.988926 -0.0841162 0 0.956458 -0.1625 0 0.90481 -0.22981 0 0.8375 -0.281458 0 0.759116 -0.313926 0 0.675 -0.325 0 0.590884 -0.313926 0 0.5125 -0.281458 0 0.44519 -0.22981 0 0.393542 -0.1625 0 0.361074 -0.0841161 0 0.35 5.68248e-008 0 0.361074 0.0841162 0 0.393542 0.1625 0 0.44519 0.22981 0 0.5125 0.281458 0 0.590884 0.313926 0 0.675 0.325 0 0.66203 0.325 0.131686 0.74453 0.313926 0.148096 0.821408 0.281458 0.163388 0.887424 0.22981 0.17652 0.93808 0.1625 0.186596 0.969924 0.0841162 0.19293 0.980785 -2.84124e-008 0.19509 0.969924 -0.0841162 0.19293 0.93808 -0.1625 0.186596 0.887424 -0.22981 0.17652 0.821408 -0.281458 0.163388 0.74453 -0.313926 0.148096 0.66203 -0.325 0.131686 0.57953 -0.313926 0.115276 0.502652 -0.281458 0.0999838 0.436636 -0.22981 0.0868523 0.38598 -0.1625 0.0767762 0.354136 -0.0841161 0.0704421 0.343275 5.68248e-008 0.0682816 0.354136 0.0841162 0.0704421 0.38598 0.1625 0.0767762 0.436636 0.22981 0.0868523 0.502653 0.281458 0.0999838 0.57953 0.313926 0.115276 0.66203 0.325 0.131686 0.623619 0.325 0.258311 0.701332 0.313926 0.290501 0.773749 0.281458 0.320497 0.835935 0.22981 0.346256 0.883652 0.1625 0.366021 0.913648 0.0841162 0.378446 0.92388 -2.84124e-008 0.382683 0.913648 -0.0841162 0.378446 0.883652 -0.1625 0.366021 0.835935 -0.22981 0.346256 0.773749 -0.281458 0.320497 0.701332 -0.313926 0.290501 0.623619 -0.325 0.258311 0.545905 -0.313926 0.226121 0.473488 -0.281458 0.196125 0.411302 -0.22981 0.170367 0.363585 -0.1625 0.150602 0.333589 -0.0841161 0.138177 0.323358 5.68248e-008 0.133939 0.333589 0.0841162 0.138177 0.363585 0.1625 0.150602 0.411302 0.22981 0.170367 0.473488 0.281458 0.196125 0.545906 0.313926 0.226121 0.623619 0.325 0.258311 0.561242 0.325 0.37501 0.631182 0.313926 0.421742 0.696356 0.281458 0.46529 0.752322 0.22981 0.502685 0.795266 0.1625 0.53138 0.822262 0.0841162 0.549418 0.83147 -2.84124e-008 0.55557 0.822262 -0.0841162 0.549418 0.795266 -0.1625 0.53138 0.752322 -0.22981 0.502685 0.696356 -0.281458 0.46529 0.631182 -0.313926 0.421742 0.561242 -0.325 0.37501 0.491302 -0.313926 0.328277 0.426128 -0.281458 0.28473 0.370162 -0.22981 0.247334 0.327218 -0.1625 0.21864 0.300222 -0.0841161 0.200602 0.291014 5.68248e-008 0.19445 0.300222 0.0841162 0.200602 0.327218 0.1625 0.21864 0.370162 0.22981 0.247335 0.426128 0.281458 0.28473 0.491302 0.313926 0.328277 0.561242 0.325 0.37501 0.477297 0.325 0.477297 0.536776 0.313926 0.536776 0.592202 0.281458 0.592202 0.639797 0.22981 0.639797 0.676318 0.1625 0.676318 0.699276 0.0841162 0.699276 0.707107 -2.84124e-008 0.707107 0.699276 -0.0841162 0.699276 0.676318 -0.1625 0.676318 0.639797 -0.22981 0.639797 0.592202 -0.281458 0.592202 0.536776 -0.313926 0.536776 0.477297 -0.325 0.477297 0.417818 -0.313926 0.417818 0.362392 -0.281458 0.362392 0.314797 -0.22981 0.314797 0.278276 -0.1625 0.278276 0.255318 -0.0841161 0.255318 0.247487 5.68248e-008 0.247487 0.255318 0.0841162 0.255318 0.278276 0.1625 0.278276 0.314797 0.22981 0.314797 0.362392 0.281458 0.362392 0.417818 0.313926 0.417818 0.477297 0.325 0.477297 0.37501 0.325 0.561242 0.421742 0.313926 0.631182 0.46529 0.281458 0.696356 0.502685 0.22981 0.752322 0.53138 0.1625 0.795266 0.549418 0.0841162 0.822262 0.55557 -2.84124e-008 0.83147 0.549418 -0.0841162 0.822262 0.53138 -0.1625 0.795266 0.502685 -0.22981 0.752322 0.46529 -0.281458 0.696356 0.421742 -0.313926 0.631182 0.37501 -0.325 0.561242 0.328277 -0.313926 0.491302 0.28473 -0.281458 0.426128 0.247334 -0.22981 0.370162 0.21864 -0.1625 0.327218 0.200602 -0.0841161 0.300222 0.19445 5.68248e-008 0.291014 0.200602 0.0841162 0.300222 0.21864 0.1625 0.327218 0.247335 0.22981 0.370162 0.28473 0.281458 0.426128 0.328277 0.313926 0.491302 0.37501 0.325 0.561242 0.258311 0.325 0.623619 0.290501 0.313926 0.701332 0.320497 0.281458 0.773749 0.346256 0.22981 0.835935 0.366021 0.1625 0.883652 0.378446 0.0841162 0.913648 0.382683 -2.84124e-008 0.92388 0.378446 -0.0841162 0.913648 0.366021 -0.1625 0.883652 0.346256 -0.22981 0.835935 0.320497 -0.281458 0.773749 0.290501 -0.313926 0.701332 0.258311 -0.325 0.623619 0.226121 -0.313926 0.545905 0.196125 -0.281458 0.473488 0.170367 -0.22981 0.411302 0.150602 -0.1625 0.363585 0.138177 -0.0841161 0.333589 0.133939 5.68248e-008 0.323358 0.138177 0.0841162 0.333589 0.150602 0.1625 0.363585 0.170367 0.22981 0.411302 0.196125 0.281458 0.473488 0.226121 0.313926 0.545906 0.258311 0.325 0.623619 0.131686 0.325 0.66203 0.148096 0.313926 0.74453 0.163388 0.281458 0.821408 0.17652 0.22981 0.887424 0.186596 0.1625 0.93808 0.19293 0.0841162 0.969924 0.19509 -2.84124e-008 0.980785 0.19293 -0.0841162 0.969924 0.186596 -0.1625 0.93808 0.17652 -0.22981 0.887424 0.163388 -0.281458 0.821408 0.148096 -0.313926 0.74453 0.131686 -0.325 0.66203 0.115276 -0.313926 0.57953 0.0999837 -0.281458 0.502652 0.0868523 -0.22981 0.436636 0.0767762 -0.1625 0.38598 0.070442 -0.0841161 0.354136 0.0682816 5.68248e-008 0.343275 0.070442 0.0841162 0.354136 0.0767762 0.1625 0.38598 0.0868523 0.22981 0.436636 0.0999838 0.281458 0.502653 0.115276 0.313926 0.57953 0.131686 0.325 0.66203 -2.95052e-008 0.325 0.675 -3.3182e-008 0.313926 0.759116 -3.66083e-008 0.281458 0.8375 -3.95505e-008 0.22981 0.90481 -4.18081e-008 0.1625 0.956458 -4.32273e-008 0.0841162 0.988926 -4.37114e-008 -2.84124e-008 1 -4.32273e-008 -0.0841162 0.988926 -4.18081e-008 -0.1625 0.956458 -3.95505e-008 -0.22981 0.90481 -3.66083e-008 -0.281458 0.8375 -3.3182e-008 -0.313926 0.759116 -2.95052e-008 -0.325 0.675 -2.58284e-008 -0.313926 0.590884 -2.24021e-008 -0.281458 0.5125 -1.94599e-008 -0.22981 0.44519 -1.72023e-008 -0.1625 0.393542 -1.57831e-008 -0.0841161 0.361074 -1.5299e-008 5.68248e-008 0.35 -1.57831e-008 0.0841162 0.361074 -1.72023e-008 0.1625 0.393542 -1.94599e-008 0.22981 0.44519 -2.24021e-008 0.281458 0.5125 -2.58284e-008 0.313926 0.590884 -2.95052e-008 0.325 0.675 -0.131686 0.325 0.66203 -0.148096 0.313926 0.74453 -0.163388 0.281458 0.821408 -0.17652 0.22981 0.887424 -0.186596 0.1625 0.93808 -0.19293 0.0841162 0.969924 -0.19509 -2.84124e-008 0.980785 -0.19293 -0.0841162 0.969924 -0.186596 -0.1625 0.93808 -0.17652 -0.22981 0.887424 -0.163388 -0.281458 0.821408 -0.148096 -0.313926 0.74453 -0.131686 -0.325 0.66203 -0.115276 -0.313926 0.57953 -0.0999838 -0.281458 0.502652 -0.0868523 -0.22981 0.436636 -0.0767762 -0.1625 0.38598 -0.0704421 -0.0841161 0.354136 -0.0682816 5.68248e-008 0.343275 -0.0704421 0.0841162 0.354136 -0.0767762 0.1625 0.38598 -0.0868523 0.22981 0.436636 -0.0999838 0.281458 0.502653 -0.115276 0.313926 0.57953 -0.131686 0.325 0.66203 -0.258311 0.325 0.623619 -0.290501 0.313926 0.701332 -0.320497 0.281458 0.773749 -0.346256 0.22981 0.835935 -0.366021 0.1625 0.883652 -0.378446 0.0841162 0.913648 -0.382684 -2.84124e-008 0.92388 -0.378446 -0.0841162 0.913648 -0.366021 -0.1625 0.883652 -0.346256 -0.22981 0.835935 -0.320497 -0.281458 0.773749 -0.290501 -0.313926 0.701332 -0.258311 -0.325 0.623619 -0.226122 -0.313926 0.545905 -0.196125 -0.281458 0.473488 -0.170367 -0.22981 0.411302 -0.150602 -0.1625 0.363585 -0.138177 -0.0841161 0.333589 -0.133939 5.68248e-008 0.323358 -0.138177 0.0841162 0.333589 -0.150602 0.1625 0.363585 -0.170367 0.22981 0.411302 -0.196125 0.281458 0.473488 -0.226122 0.313926 0.545906 -0.258311 0.325 0.623619 -0.37501 0.325 0.561242 -0.421742 0.313926 0.631182 -0.46529 0.281458 0.696356 -0.502685 0.22981 0.752322 -0.53138 0.1625 0.795266 -0.549418 0.0841162 0.822262 -0.55557 -2.84124e-008 0.83147 -0.549418 -0.0841162 0.822262 -0.53138 -0.1625 0.795266 -0.502685 -0.22981 0.752322 -0.46529 -0.281458 0.696356 -0.421742 -0.313926 0.631182 -0.37501 -0.325 0.561242 -0.328278 -0.313926 0.491302 -0.28473 -0.281458 0.426128 -0.247335 -0.22981 0.370162 -0.21864 -0.1625 0.327218 -0.200602 -0.0841161 0.300222 -0.19445 5.68248e-008 0.291014 -0.200602 0.0841162 0.300222 -0.21864 0.1625 0.327218 -0.247335 0.22981 0.370162 -0.28473 0.281458 0.426128 -0.328278 0.313926 0.491302 -0.37501 0.325 0.561242 -0.477297 0.325 0.477297 -0.536776 0.313926 0.536776 -0.592202 0.281458 0.592202 -0.639797 0.22981 0.639797 -0.676318 0.1625 0.676318 -0.699276 0.0841162 0.699276 -0.707107 -2.84124e-008 0.707107 -0.699276 -0.0841162 0.699276 -0.676318 -0.1625 0.676318 -0.639797 -0.22981 0.639797 -0.592202 -0.281458 0.592202 -0.536776 -0.313926 0.536776 -0.477297 -0.325 0.477297 -0.417818 -0.313926 0.417818 -0.362392 -0.281458 0.362392 -0.314797 -0.22981 0.314797 -0.278276 -0.1625 0.278276 -0.255318 -0.0841161 0.255318 -0.247487 5.68248e-008 0.247487 -0.255318 0.0841162 0.255318 -0.278276 0.1625 0.278276 -0.314797 0.22981 0.314797 -0.362392 0.281458 0.362392 -0.417818 0.313926 0.417818 -0.477297 0.325 0.477297 -0.561242 0.325 0.37501 -0.631182 0.313926 0.421742 -0.696356 0.281458 0.46529 -0.752322 0.22981 0.502685 -0.795266 0.1625 0.53138 -0.822262 0.0841162 0.549418 -0.83147 -2.84124e-008 0.55557 -0.822262 -0.0841162 0.549418 -0.795266 -0.1625 0.53138 -0.752322 -0.22981 0.502685 -0.696356 -0.281458 0.46529 -0.631182 -0.313926 0.421742 -0.561242 -0.325 0.37501 -0.491302 -0.313926 0.328277 -0.426128 -0.281458 0.28473 -0.370162 -0.22981 0.247334 -0.327218 -0.1625 0.21864 -0.300222 -0.0841161 0.200602 -0.291014 5.68248e-008 0.19445 -0.300222 0.0841162 0.200602 -0.327218 0.1625 0.21864 -0.370162 0.22981 0.247335 -0.426128 0.281458 0.28473 -0.491302 0.313926 0.328277 -0.561242 0.325 0.37501 -0.623619 0.325 0.258311 -0.701332 0.313926 0.290501 -0.773749 0.281458 0.320497 -0.835935 0.22981 0.346256 -0.883652 0.1625 0.366021 -0.913649 0.0841162 0.378445 -0.92388 -2.84124e-008 0.382683 -0.913648 -0.0841162 0.378445 -0.883652 -0.1625 0.366021 -0.835935 -0.22981 0.346256 -0.773749 -0.281458 0.320497 -0.701332 -0.313926 0.290501 -0.623619 -0.325 0.258311 -0.545906 -0.313926 0.226121 -0.473488 -0.281458 0.196125 -0.411302 -0.22981 0.170367 -0.363585 -0.1625 0.150602 -0.333589 -0.0841161 0.138177 -0.323358 5.68248e-008 0.133939 -0.333589 0.0841162 0.138177 -0.363585 0.1625 0.150602 -0.411302 0.22981 0.170367 -0.473488 0.281458 0.196125 -0.545906 0.313926 0.226121 -0.623619 0.325 0.258311 -0.66203 0.325 0.131686 -0.74453 0.313926 0.148096 -0.821408 0.281458 0.163388 -0.887424 0.22981 0.17652 -0.93808 0.1625 0.186596 -0.969924 0.0841162 0.19293 -0.980785 -2.84124e-008 0.19509 -0.969924 -0.0841162 0.19293 -0.93808 -0.1625 0.186596 -0.887424 -0.22981 0.17652 -0.821408 -0.281458 0.163388 -0.74453 -0.313926 0.148096 -0.66203 -0.325 0.131686 -0.57953 -0.313926 0.115276 -0.502652 -0.281458 0.0999838 -0.436636 -0.22981 0.0868523 -0.38598 -0.1625 0.0767762 -0.354136 -0.0841161 0.0704421 -0.343275 5.68248e-008 0.0682816 -0.354136 0.0841162 0.0704421 -0.38598 0.1625 0.0767762 -0.436636 0.22981 0.0868523 -0.502653 0.281458 0.0999838 -0.57953 0.313926 0.115276 -0.66203 0.325 0.131686 -0.675 0.325 -5.90104e-008 -0.759116 0.313926 -6.6364e-008 -0.8375 0.281458 -7.32166e-008 -0.90481 0.22981 -7.9101e-008 -0.956458 0.1625 -8.36162e-008 -0.988926 0.0841162 -8.64546e-008 -1 -2.84124e-008 -8.74228e-008 -0.988926 -0.0841162 -8.64546e-008 -0.956458 -0.1625 -8.36162e-008 -0.90481 -0.22981 -7.9101e-008 -0.8375 -0.281458 -7.32166e-008 -0.759116 -0.313926 -6.6364e-008 -0.675 -0.325 -5.90104e-008 -0.590884 -0.313926 -5.16567e-008 -0.5125 -0.281458 -4.48042e-008 -0.44519 -0.22981 -3.89198e-008 -0.393542 -0.1625 -3.44045e-008 -0.361074 -0.0841161 -3.15661e-008 -0.35 5.68248e-008 -3.0598e-008 -0.361074 0.0841162 -3.15661e-008 -0.393542 0.1625 -3.44045e-008 -0.44519 0.22981 -3.89198e-008 -0.5125 0.281458 -4.48042e-008 -0.590884 0.313926 -5.16567e-008 -0.675 0.325 -5.90104e-008 -0.66203 0.325 -0.131686 -0.74453 0.313926 -0.148096 -0.821408 0.281458 -0.163388 -0.887424 0.22981 -0.17652 -0.93808 0.1625 -0.186596 -0.969924 0.0841162 -0.19293 -0.980785 -2.84124e-008 -0.19509 -0.969924 -0.0841162 -0.19293 -0.93808 -0.1625 -0.186596 -0.887424 -0.22981 -0.17652 -0.821408 -0.281458 -0.163388 -0.74453 -0.313926 -0.148096 -0.66203 -0.325 -0.131686 -0.57953 -0.313926 -0.115276 -0.502652 -0.281458 -0.0999839 -0.436636 -0.22981 -0.0868524 -0.38598 -0.1625 -0.0767762 -0.354136 -0.0841161 -0.0704421 -0.343275 5.68248e-008 -0.0682817 -0.354136 0.0841162 -0.0704421 -0.38598 0.1625 -0.0767763 -0.436636 0.22981 -0.0868524 -0.502653 0.281458 -0.0999839 -0.57953 0.313926 -0.115276 -0.66203 0.325 -0.131686 -0.623619 0.325 -0.258311 -0.701332 0.313926 -0.290501 -0.773749 0.281458 -0.320497 -0.835935 0.22981 -0.346256 -0.883652 0.1625 -0.366021 -0.913648 0.0841162 -0.378446 -0.92388 -2.84124e-008 -0.382683 -0.913648 -0.0841162 -0.378446 -0.883652 -0.1625 -0.366021 -0.835935 -0.22981 -0.346256 -0.773749 -0.281458 -0.320497 -0.701332 -0.313926 -0.290501 -0.623619 -0.325 -0.258311 -0.545905 -0.313926 -0.226121 -0.473488 -0.281458 -0.196125 -0.411302 -0.22981 -0.170367 -0.363585 -0.1625 -0.150602 -0.333589 -0.0841161 -0.138177 -0.323358 5.68248e-008 -0.133939 -0.333589 0.0841162 -0.138177 -0.363585 0.1625 -0.150602 -0.411302 0.22981 -0.170367 -0.473488 0.281458 -0.196125 -0.545906 0.313926 -0.226121 -0.623619 0.325 -0.258311 -0.561242 0.325 -0.37501 -0.631182 0.313926 -0.421742 -0.696356 0.281458 -0.46529 -0.752322 0.22981 -0.502685 -0.795266 0.1625 -0.53138 -0.822262 0.0841162 -0.549418 -0.83147 -2.84124e-008 -0.55557 -0.822262 -0.0841162 -0.549418 -0.795266 -0.1625 -0.53138 -0.752322 -0.22981 -0.502685 -0.696356 -0.281458 -0.46529 -0.631182 -0.313926 -0.421742 -0.561242 -0.325 -0.37501 -0.491302 -0.313926 -0.328277 -0.426128 -0.281458 -0.28473 -0.370162 -0.22981 -0.247334 -0.327218 -0.1625 -0.21864 -0.300222 -0.0841161 -0.200602 -0.291014 5.68248e-008 -0.19445 -0.300222 0.0841162 -0.200602 -0.327218 0.1625 -0.21864 -0.370162 0.22981 -0.247335 -0.426128 0.281458 -0.28473 -0.491302 0.313926 -0.328278 -0.561242 0.325 -0.37501 -0.477297 0.325 -0.477297 -0.536776 0.313926 -0.536776 -0.592202 0.281458 -0.592202 -0.639797 0.22981 -0.639797 -0.676318 0.1625 -0.676318 -0.699276 0.0841162 -0.699276 -0.707107 -2.84124e-008 -0.707107 -0.699276 -0.0841162 -0.699276 -0.676318 -0.1625 -0.676318 -0.639797 -0.22981 -0.639797 -0.592202 -0.281458 -0.592202 -0.536776 -0.313926 -0.536776 -0.477297 -0.325 -0.477297 -0.417818 -0.313926 -0.417818 -0.362392 -0.281458 -0.362392 -0.314797 -0.22981 -0.314797 -0.278276 -0.1625 -0.278276 -0.255318 -0.0841161 -0.255318 -0.247487 5.68248e-008 -0.247487 -0.255318 0.0841162 -0.255318 -0.278276 0.1625 -0.278276 -0.314797 0.22981 -0.314797 -0.362392 0.281458 -0.362392 -0.417818 0.313926 -0.417818 -0.477297 0.325 -0.477297 -0.37501 0.325 -0.561242 -0.421742 0.313926 -0.631182 -0.46529 0.281458 -0.696356 -0.502685 0.22981 -0.752322 -0.53138 0.1625 -0.795266 -0.549418 0.0841162 -0.822262 -0.55557 -2.84124e-008 -0.83147 -0.549418 -0.0841162 -0.822262 -0.53138 -0.1625 -0.795266 -0.502685 -0.22981 -0.752322 -0.46529 -0.281458 -0.696356 -0.421742 -0.313926 -0.631182 -0.37501 -0.325 -0.561242 -0.328277 -0.313926 -0.491302 -0.28473 -0.281458 -0.426128 -0.247334 -0.22981 -0.370162 -0.21864 -0.1625 -0.327218 -0.200602 -0.0841161 -0.300222 -0.19445 5.68248e-008 -0.291014 -0.200602 0.0841162 -0.300222 -0.21864 0.1625 -0.327218 -0.247334 0.22981 -0.370162 -0.28473 0.281458 -0.426128 -0.328277 0.313926 -0.491302 -0.37501 0.325 -0.561242 -0.258311 0.325 -0.623619 -0.290501 0.313926 -0.701332 -0.320497 0.281458 -0.773749 -0.346255 0.22981 -0.835935 -0.36602 0.1625 -0.883652 -0.378445 0.0841162 -0.913649 -0.382683 -2.84124e-008 -0.92388 -0.378445 -0.0841162 -0.913649 -0.36602 -0.1625 -0.883652 -0.346255 -0.22981 -0.835935 -0.320497 -0.281458 -0.773749 -0.290501 -0.313926 -0.701332 -0.258311 -0.325 -0.623619 -0.226121 -0.313926 -0.545906 -0.196125 -0.281458 -0.473488 -0.170367 -0.22981 -0.411302 -0.150602 -0.1625 -0.363585 -0.138177 -0.0841161 -0.333589 -0.133939 5.68248e-008 -0.323358 -0.138177 0.0841162 -0.333589 -0.150602 0.1625 -0.363585 -0.170367 0.22981 -0.411302 -0.196125 0.281458 -0.473488 -0.226121 0.313926 -0.545906 -0.258311 0.325 -0.623619 -0.131686 0.325 -0.66203 -0.148096 0.313926 -0.74453 -0.163388 0.281458 -0.821408 -0.17652 0.22981 -0.887424 -0.186596 0.1625 -0.93808 -0.19293 0.0841162 -0.969924 -0.19509 -2.84124e-008 -0.980785 -0.19293 -0.0841162 -0.969924 -0.186596 -0.1625 -0.93808 -0.17652 -0.22981 -0.887424 -0.163388 -0.281458 -0.821408 -0.148096 -0.313926 -0.74453 -0.131686 -0.325 -0.66203 -0.115276 -0.313926 -0.57953 -0.0999838 -0.281458 -0.502652 -0.0868523 -0.22981 -0.436636 -0.0767762 -0.1625 -0.38598 -0.0704421 -0.0841161 -0.354136 -0.0682816 5.68248e-008 -0.343275 -0.0704421 0.0841162 -0.354136 -0.0767762 0.1625 -0.38598 -0.0868524 0.22981 -0.436636 -0.0999838 0.281458 -0.502653 -0.115276 0.313926 -0.57953 -0.131686 0.325 -0.66203 8.04929e-009 0.325 -0.675 9.05237e-009 0.313926 -0.759116 9.98709e-009 0.281458 -0.8375 1.07897e-008 0.22981 -0.90481 1.14057e-008 0.1625 -0.956458 1.17928e-008 0.0841162 -0.988926 1.19249e-008 -2.84124e-008 -1 1.17928e-008 -0.0841162 -0.988926 1.14057e-008 -0.1625 -0.956458 1.07897e-008 -0.22981 -0.90481 9.98709e-009 -0.281458 -0.8375 9.05237e-009 -0.313926 -0.759116 8.04929e-009 -0.325 -0.675 7.04622e-009 -0.313926 -0.590884 6.1115e-009 -0.281458 -0.5125 5.30884e-009 -0.22981 -0.44519 4.69294e-009 -0.1625 -0.393542 4.30577e-009 -0.0841161 -0.361074 4.17371e-009 5.68248e-008 -0.35 4.30577e-009 0.0841162 -0.361074 4.69294e-009 0.1625 -0.393542 5.30884e-009 0.22981 -0.44519 6.1115e-009 0.281458 -0.5125 7.04622e-009 0.313926 -0.590884 8.0493e-009 0.325 -0.675 0.131686 0.325 -0.66203 0.148096 0.313926 -0.74453 0.163388 0.281458 -0.821408 0.17652 0.22981 -0.887424 0.186596 0.1625 -0.93808 0.19293 0.0841162 -0.969924 0.19509 -2.84124e-008 -0.980785 0.19293 -0.0841162 -0.969924 0.186596 -0.1625 -0.93808 0.17652 -0.22981 -0.887424 0.163388 -0.281458 -0.821408 0.148096 -0.313926 -0.74453 0.131686 -0.325 -0.66203 0.115276 -0.313926 -0.57953 0.0999838 -0.281458 -0.502652 0.0868524 -0.22981 -0.436636 0.0767762 -0.1625 -0.38598 0.0704421 -0.0841161 -0.354136 0.0682817 5.68248e-008 -0.343275 0.0704421 0.0841162 -0.354136 0.0767762 0.1625 -0.38598 0.0868524 0.22981 -0.436636 0.0999838 0.281458 -0.502653 0.115276 0.313926 -0.57953 0.131686 0.325 -0.66203 0.258311 0.325 -0.623619 0.290501 0.313926 -0.701332 0.320498 0.281458 -0.773749 0.346256 0.22981 -0.835935 0.366021 0.1625 -0.883652 0.378446 0.0841162 -0.913648 0.382684 -2.84124e-008 -0.923879 0.378446 -0.0841162 -0.913648 0.366021 -0.1625 -0.883652 0.346256 -0.22981 -0.835935 0.320498 -0.281458 -0.773749 0.290501 -0.313926 -0.701332 0.258311 -0.325 -0.623619 0.226122 -0.313926 -0.545905 0.196125 -0.281458 -0.473488 0.170367 -0.22981 -0.411302 0.150602 -0.1625 -0.363585 0.138177 -0.0841161 -0.333589 0.133939 5.68248e-008 -0.323358 0.138177 0.0841162 -0.333589 0.150602 0.1625 -0.363585 0.170367 0.22981 -0.411302 0.196125 0.281458 -0.473488 0.226122 0.313926 -0.545906 0.258311 0.325 -0.623619 0.37501 0.325 -0.561242 0.421743 0.313926 -0.631182 0.46529 0.281458 -0.696356 0.502686 0.22981 -0.752322 0.53138 0.1625 -0.795266 0.549418 0.0841162 -0.822262 0.55557 -2.84124e-008 -0.831469 0.549418 -0.0841162 -0.822262 0.53138 -0.1625 -0.795266 0.502685 -0.22981 -0.752322 0.46529 -0.281458 -0.696356 0.421742 -0.313926 -0.631182 0.37501 -0.325 -0.561242 0.328278 -0.313926 -0.491302 0.28473 -0.281458 -0.426128 0.247335 -0.22981 -0.370162 0.21864 -0.1625 -0.327218 0.200602 -0.0841161 -0.300222 0.19445 5.68248e-008 -0.291014 0.200602 0.0841162 -0.300222 0.21864 0.1625 -0.327218 0.247335 0.22981 -0.370162 0.28473 0.281458 -0.426128 0.328278 0.313926 -0.491302 0.37501 0.325 -0.561242 0.477297 0.325 -0.477297 0.536776 0.313926 -0.536776 0.592202 0.281458 -0.592202 0.639797 0.22981 -0.639797 0.676318 0.1625 -0.676318 0.699276 0.0841162 -0.699276 0.707107 -2.84124e-008 -0.707107 0.699276 -0.0841162 -0.699276 0.676318 -0.1625 -0.676318 0.639797 -0.22981 -0.639797 0.592202 -0.281458 -0.592202 0.536776 -0.313926 -0.536776 0.477297 -0.325 -0.477297 0.417818 -0.313926 -0.417818 0.362392 -0.281458 -0.362392 0.314797 -0.22981 -0.314797 0.278276 -0.1625 -0.278276 0.255318 -0.0841161 -0.255318 0.247487 5.68248e-008 -0.247487 0.255318 0.0841162 -0.255318 0.278276 0.1625 -0.278276 0.314797 0.22981 -0.314797 0.362392 0.281458 -0.362392 0.417818 0.313926 -0.417818 0.477297 0.325 -0.477297 0.561242 0.325 -0.37501 0.631182 0.313926 -0.421742 0.696356 0.281458 -0.46529 0.752322 0.22981 -0.502685 0.795266 0.1625 -0.53138 0.822262 0.0841162 -0.549418 0.83147 -2.84124e-008 -0.55557 0.822262 -0.0841162 -0.549418 0.795266 -0.1625 -0.53138 0.752322 -0.22981 -0.502685 0.696356 -0.281458 -0.46529 0.631182 -0.313926 -0.421742 0.561242 -0.325 -0.37501 0.491302 -0.313926 -0.328277 0.426128 -0.281458 -0.28473 0.370162 -0.22981 -0.247334 0.327218 -0.1625 -0.21864 0.300222 -0.0841161 -0.200602 0.291014 5.68248e-008 -0.19445 0.300222 0.0841162 -0.200602 0.327218 0.1625 -0.21864 0.370162 0.22981 -0.247335 0.426128 0.281458 -0.28473 0.491302 0.313926 -0.328278 0.561242 0.325 -0.37501 0.623619 0.325 -0.258311 0.701332 0.313926 -0.290501 0.773749 0.281458 -0.320497 0.835935 0.22981 -0.346256 0.883652 0.1625 -0.366021 0.913648 0.0841162 -0.378446 0.92388 -2.84124e-008 -0.382683 0.913648 -0.0841162 -0.378446 0.883652 -0.1625 -0.366021 0.835935 -0.22981 -0.346256 0.773749 -0.281458 -0.320497 0.701332 -0.313926 -0.290501 0.623619 -0.325 -0.258311 0.545905 -0.313926 -0.226121 0.473488 -0.281458 -0.196125 0.411302 -0.22981 -0.170367 0.363585 -0.1625 -0.150602 0.333589 -0.0841161 -0.138177 0.323358 5.68248e-008 -0.133939 0.333589 0.0841162 -0.138177 0.363585 0.1625 -0.150602 0.411302 0.22981 -0.170367 0.473488 0.281458 -0.196125 0.545906 0.313926 -0.226121 0.623619 0.325 -0.258311 0.66203 0.325 -0.131686 0.74453 0.313926 -0.148096 0.821408 0.281458 -0.163388 0.887424 0.22981 -0.17652 0.93808 0.1625 -0.186596 0.969924 0.0841162 -0.19293 0.980785 -2.84124e-008 -0.19509 0.969924 -0.0841162 -0.19293 0.93808 -0.1625 -0.186596 0.887424 -0.22981 -0.17652 0.821408 -0.281458 -0.163388 0.74453 -0.313926 -0.148096 0.66203 -0.325 -0.131686 0.57953 -0.313926 -0.115276 0.502652 -0.281458 -0.0999837 0.436636 -0.22981 -0.0868523 0.38598 -0.1625 -0.0767762 0.354136 -0.0841161 -0.070442 0.343275 5.68248e-008 -0.0682816 0.354136 0.0841162 -0.070442 0.38598 0.1625 -0.0767762 0.436636 0.22981 -0.0868523 0.502653 0.281458 -0.0999838 0.57953 0.313926 -0.115276 0.66203 0.325 -0.131686 0.675 0.325 1.18021e-007 0.759116 0.313926 1.32728e-007 0.8375 0.281458 1.46433e-007 0.90481 0.22981 1.58202e-007 0.956458 0.1625 1.67232e-007 0.988926 0.0841162 1.72909e-007 1 -2.84124e-008 1.74846e-007 0.988926 -0.0841162 1.72909e-007 0.956458 -0.1625 1.67232e-007 0.90481 -0.22981 1.58202e-007 0.8375 -0.281458 1.46433e-007 0.759116 -0.313926 1.32728e-007 0.675 -0.325 1.18021e-007 0.590884 -0.313926 1.03313e-007 0.5125 -0.281458 8.96083e-008 0.44519 -0.22981 7.78395e-008 0.393542 -0.1625 6.8809e-008 0.361074 -0.0841161 6.31322e-008 0.35 5.68248e-008 6.11959e-008 0.361074 0.0841162 6.31322e-008 0.393542 0.1625 6.8809e-008 0.44519 0.22981 7.78396e-008 0.5125 0.281458 8.96084e-008 0.590884 0.313926 1.03313e-007 0.675 0.325 1.18021e-007</float_array>
					<technique_common>
						<accessor count="825" source="#FXStream-array" stride="3">
							<param name="X" type="float"/>
							<param name="Y" type="float"/>
							<param name="Z" type="float"/>
						</accessor>
					</technique_common>
				</source>
				<source id="FXStream2" name="FXStream">
					<float_array id="FXStream2-array" count="2475">0 1 0 0.258819 0.965926 0 0.5 0.866025 0 0.707107 0.707107 0 0.866025 0.5 0 0.965926 0.258819 0 1 -8.74228e-008 0 0.965926 -0.258819 0 0.866025 -0.5 0 0.707107 -0.707107 0 0.5 -0.866025 0 0.258819 -0.965926 0 -1.83399e-007 -1 0 -0.258819 -0.965926 0 -0.5 -0.866025 0 -0.707107 -0.707107 0 -0.866026 -0.5 0 -0.965926 -0.258819 0 -1 1.74846e-007 0 -0.965926 0.258819 0 -0.866025 0.5 0 -0.707107 0.707107 0 -0.5 0.866025 0 -0.258819 0.965926 0 1.83399e-007 1 0 0 1 0 0.253846 0.965926 0.0504931 0.490393 0.866025 0.0975452 0.69352 0.707107 0.13795 0.849385 0.5 0.168953 0.947366 0.258819 0.188443 0.980785 -8.74228e-008 0.19509 0.947366 -0.258819 0.188443 0.849385 -0.5 0.168953 0.69352 -0.707107 0.13795 0.490393 -0.866025 0.0975452 0.253846 -0.965926 0.0504931 -1.83399e-007 -1 -4.58497e-008 -0.253846 -0.965926 -0.0504931 -0.490393 -0.866025 -0.0975452 -0.69352 -0.707107 -0.13795 -0.849385 -0.5 -0.168953 -0.947366 -0.258819 -0.188443 -0.980785 1.74846e-007 -0.19509 -0.947366 0.258819 -0.188443 -0.849385 0.5 -0.168953 -0.69352 0.707107 -0.13795 -0.490392 0.866026 -0.0975451 -0.253846 0.965926 -0.050493 1.83399e-007 1 4.58497e-008 0 1 0 0.239118 0.965926 0.0990458 0.46194 0.866025 0.191342 0.653281 0.707107 0.270598 0.800103 0.5 0.331414 0.892399 0.258819 0.369644 0.92388 -8.74228e-008 0.382683 0.892399 -0.258819 0.369644 0.800103 -0.5 0.331414 0.653281 -0.707107 0.270598 0.46194 -0.866025 0.191342 0.239118 -0.965926 0.0990457 -1.83399e-007 -1 -9.16995e-008 -0.239118 -0.965926 -0.0990458 -0.46194 -0.866025 -0.191342 -0.653282 -0.707107 -0.270598 -0.800103 -0.5 -0.331414 -0.892399 -0.258819 -0.369644 -0.92388 1.74846e-007 -0.382683 -0.892399 0.258819 -0.369644 -0.800103 0.5 -0.331414 -0.653281 0.707107 -0.270598 -0.46194 0.866026 -0.191342 -0.239117 0.965926 -0.0990457 1.83399e-007 1 9.16995e-008 0 1 0 0.2152 0.965926 0.143792 0.415735 0.866025 0.277785 0.587938 0.707107 0.392848 0.720074 0.5 0.481138 0.803138 0.258819 0.53664 0.83147 -8.74228e-008 0.55557 0.803138 -0.258819 0.53664 0.720074 -0.5 0.481138 0.587938 -0.707107 0.392848 0.415735 -0.866025 0.277785 0.2152 -0.965926 0.143792 -1.83399e-007 -1 -9.16995e-008 -0.2152 -0.965926 -0.143792 -0.415735 -0.866025 -0.277785 -0.587938 -0.707107 -0.392848 -0.720074 -0.5 -0.481138 -0.803138 -0.258819 -0.53664 -0.83147 1.74846e-007 -0.55557 -0.803138 0.258819 -0.53664 -0.720074 0.5 -0.481138 -0.587938 0.707107 -0.392847 -0.415735 0.866026 -0.277785 -0.2152 0.965926 -0.143792 1.83399e-007 1 9.16995e-008 0 1 0 0.183013 0.965926 0.183013 0.353554 0.866025 0.353554 0.5 0.707107 0.5 0.612372 0.5 0.612372 0.683013 0.258819 0.683013 0.707107 -8.74228e-008 0.707107 0.683013 -0.258819 0.683013 0.612372 -0.5 0.612372 0.5 -0.707107 0.5 0.353553 -0.866025 0.353553 0.183013 -0.965926 0.183013 -9.16995e-008 -1 -9.16995e-008 -0.183013 -0.965926 -0.183013 -0.353554 -0.866025 -0.353554 -0.5 -0.707107 -0.5 -0.612372 -0.5 -0.612372 -0.683013 -0.258819 -0.683013 -0.707107 1.74846e-007 -0.707107 -0.683013 0.258819 -0.683013 -0.612372 0.5 -0.612372 -0.5 0.707107 -0.5 -0.353553 0.866026 -0.353553 -0.183013 0.965926 -0.183013 1.83399e-007 1 1.83399e-007 0 1 0 0.143792 0.965926 0.2152 0.277785 0.866025 0.415735 0.392847 0.707107 0.587938 0.481138 0.5 0.720074 0.536639 0.258819 0.803138 0.55557 -8.74228e-008 0.83147 0.53664 -0.258819 0.803138 0.481138 -0.5 0.720074 0.392847 -0.707107 0.587938 0.277785 -0.866025 0.415735 0.143792 -0.965926 0.2152 -9.16995e-008 -1 -1.83399e-007 -0.143792 -0.965926 -0.2152 -0.277785 -0.866025 -0.415735 -0.392847 -0.707107 -0.587938 -0.481138 -0.5 -0.720074 -0.53664 -0.258819 -0.803138 -0.55557 1.74846e-007 -0.83147 -0.53664 0.258819 -0.803138 -0.481138 0.5 -0.720074 -0.392847 0.707107 -0.587938 -0.277785 0.866026 -0.415735 -0.143792 0.965926 -0.2152 9.16995e-008 1 1.83399e-007 0 1 0 0.0990458 0.965926 0.239118 0.191342 0.866025 0.46194 0.270598 0.707107 0.653281 0.331414 0.5 0.800103 0.369644 0.258819 0.892399 0.382683 -8.74228e-008 0.92388 0.369644 -0.258819 0.892399 0.331414 -0.5 0.800103 0.270598 -0.707107 0.653281 0.191342 -0.866025 0.46194 0.0990457 -0.965926 0.239118 -9.16995e-008 -1 -1.83399e-007 -0.0990458 -0.965926 -0.239118 -0.191342 -0.866025 -0.46194 -0.270598 -0.707107 -0.653282 -0.331414 -0.5 -0.800103 -0.369644 -0.258819 -0.892399 -0.382683 1.74846e-007 -0.92388 -0.369644 0.258819 -0.892399 -0.331414 0.5 -0.800103 -0.270598 0.707107 -0.653281 -0.191342 0.866026 -0.46194 -0.0990457 0.965926 -0.239117 9.16995e-008 1 1.83399e-007 0 1 0 0.0504931 0.965926 0.253846 0.0975451 0.866025 0.490393 0.13795 0.707107 0.69352 0.168953 0.5 0.849385 0.188443 0.258819 0.947366 0.19509 -8.74228e-008 0.980785 0.188443 -0.258819 0.947366 0.168953 -0.5 0.849385 0.13795 -0.707107 0.69352 0.0975451 -0.866025 0.490393 0.050493 -0.965926 0.253846 -4.58497e-008 -1 -1.83399e-007 -0.0504931 -0.965926 -0.253846 -0.0975451 -0.866025 -0.490393 -0.13795 -0.707107 -0.69352 -0.168953 -0.5 -0.849385 -0.188443 -0.258819 -0.947366 -0.19509 1.74846e-007 -0.980785 -0.188443 0.258819 -0.947366 -0.168953 0.5 -0.849385 -0.13795 0.707107 -0.69352 -0.0975451 0.866025 -0.490393 -0.050493 0.965926 -0.253846 4.58497e-008 1 1.83399e-007 0 1 0 -1.13133e-008 0.965926 0.258819 -2.18557e-008 0.866025 0.5 -3.09086e-008 0.707107 0.707107 -3.78552e-008 0.5 0.866025 -4.2222e-008 0.258819 0.965926 -4.37114e-008 -8.74228e-008 1 -4.2222e-008 -0.258819 0.965926 -3.78552e-008 -0.5 0.866025 -3.09086e-008 -0.707107 0.707107 -2.18557e-008 -0.866025 0.5 -1.13133e-008 -0.965926 0.258819 5.46571e-015 -1 -1.83399e-007 1.13133e-008 -0.965926 -0.258819 2.18557e-008 -0.866025 -0.5 3.09086e-008 -0.707107 -0.707107 3.78552e-008 -0.5 -0.866026 4.2222e-008 -0.258819 -0.965926 4.37114e-008 1.74846e-007 -1 4.2222e-008 0.258819 -0.965926 3.78552e-008 0.5 -0.866025 3.09086e-008 0.707107 -0.707107 2.18557e-008 0.866025 -0.5 1.13133e-008 0.965926 -0.258819 -1.09314e-014 1 1.83399e-007 0 1 0 -0.0504931 0.965926 0.253846 -0.0975452 0.866025 0.490393 -0.13795 0.707107 0.69352 -0.168953 0.5 0.849385 -0.188443 0.258819 0.947366 -0.19509 -8.74228e-008 0.980785 -0.188443 -0.258819 0.947366 -0.168953 -0.5 0.849385 -0.13795 -0.707107 0.69352 -0.0975452 -0.866025 0.490393 -0.0504931 -0.965926 0.253846 4.58497e-008 -1 -1.83399e-007 0.0504931 -0.965926 -0.253846 0.0975452 -0.866025 -0.490393 0.13795 -0.707107 -0.69352 0.168953 -0.5 -0.849385 0.188443 -0.258819 -0.947366 0.19509 1.74846e-007 -0.980785 0.188443 0.258819 -0.947366 0.168953 0.5 -0.849385 0.13795 0.707107 -0.69352 0.0975451 0.866026 -0.490392 0.050493 0.965926 -0.253846 -4.58497e-008 1 1.83399e-007 0 1 0 -0.0990458 0.965926 0.239118 -0.191342 0.866025 0.46194 -0.270598 0.707107 0.653281 -0.331414 0.5 0.800103 -0.369644 0.258819 0.892399 -0.382683 -8.74228e-008 0.92388 -0.369644 -0.258819 0.892399 -0.331414 -0.5 0.800103 -0.270598 -0.707107 0.653281 -0.191342 -0.866025 0.46194 -0.0990458 -0.965926 0.239118 9.16995e-008 -1 -1.83399e-007 0.0990458 -0.965926 -0.239118 0.191342 -0.866025 -0.46194 0.270598 -0.707107 -0.653282 0.331414 -0.5 -0.800103 0.369644 -0.258819 -0.892399 0.382683 1.74846e-007 -0.923879 0.369644 0.258819 -0.892399 0.331414 0.5 -0.800103 0.270598 0.707107 -0.653281 0.191342 0.866026 -0.46194 0.0990457 0.965926 -0.239117 -9.16995e-008 1 1.83399e-007 0 1 0 -0.143792 0.965926 0.2152 -0.277785 0.866025 0.415735 -0.392848 0.707107 0.587938 -0.481138 0.5 0.720074 -0.53664 0.258819 0.803138 -0.55557 -8.74228e-008 0.83147 -0.53664 -0.258819 0.803138 -0.481138 -0.5 0.720074 -0.392847 -0.707107 0.587938 -0.277785 -0.866025 0.415735 -0.143792 -0.965926 0.2152 9.16995e-008 -1 -1.83399e-007 0.143792 -0.965926 -0.2152 0.277785 -0.866025 -0.415735 0.392848 -0.707107 -0.587938 0.481138 -0.5 -0.720074 0.53664 -0.258819 -0.803138 0.55557 1.74846e-007 -0.83147 0.53664 0.258819 -0.803138 0.481138 0.5 -0.720074 0.392847 0.707107 -0.587938 0.277785 0.866026 -0.415735 0.143792 0.965926 -0.2152 -9.16995e-008 1 1.83399e-007 0 1 0 -0.183013 0.965926 0.183013 -0.353554 0.866025 0.353554 -0.5 0.707107 0.5 -0.612372 0.5 0.612372 -0.683013 0.258819 0.683013 -0.707107 -8.74228e-008 0.707107 -0.683013 -0.258819 0.683013 -0.612372 -0.5 0.612372 -0.5 -0.707107 0.5 -0.353553 -0.866025 0.353553 -0.183013 -0.965926 0.183013 9.16995e-008 -1 -9.16995e-008 0.183013 -0.965926 -0.183013 0.353554 -0.866025 -0.353554 0.5 -0.707107 -0.5 0.612372 -0.5 -0.612372 0.683013 -0.258819 -0.683013 0.707107 1.74846e-007 -0.707107 0.683013 0.258819 -0.683013 0.612372 0.5 -0.612372 0.5 0.707107 -0.5 0.353553 0.866026 -0.353553 0.183013 0.965926 -0.183013 -1.83399e-007 1 1.83399e-007 0 1 0 -0.2152 0.965926 0.143792 -0.415735 0.866025 0.277785 -0.587938 0.707107 0.392847 -0.720074 0.5 0.481138 -0.803138 0.258819 0.536639 -0.83147 -8.74228e-008 0.55557 -0.803138 -0.258819 0.53664 -0.720074 -0.5 0.481138 -0.587938 -0.707107 0.392847 -0.415735 -0.866025 0.277785 -0.2152 -0.965926 0.143792 1.83399e-007 -1 -9.16995e-008 0.2152 -0.965926 -0.143792 0.415735 -0.866025 -0.277785 0.587938 -0.707107 -0.392847 0.720074 -0.5 -0.481138 0.803138 -0.258819 -0.53664 0.83147 1.74846e-007 -0.55557 0.803138 0.258819 -0.53664 0.720074 0.5 -0.481138 0.587938 0.707107 -0.392847 0.415735 0.866026 -0.277785 0.2152 0.965926 -0.143792 -1.83399e-007 1 9.16995e-008 0 1 0 -0.239118 0.965926 0.0990458 -0.46194 0.866025 0.191342 -0.653282 0.707107 0.270598 -0.800103 0.5 0.331413 -0.892399 0.258819 0.369644 -0.92388 -8.74228e-008 0.382683 -0.892399 -0.258819 0.369644 -0.800103 -0.5 0.331413 -0.653281 -0.707107 0.270598 -0.46194 -0.866025 0.191342 -0.239118 -0.965926 0.0990457 1.83399e-007 -1 -9.16995e-008 0.239118 -0.965926 -0.0990458 0.46194 -0.866025 -0.191342 0.653282 -0.707107 -0.270598 0.800103 -0.5 -0.331413 0.892399 -0.258819 -0.369644 0.92388 1.74846e-007 -0.382683 0.892399 0.258819 -0.369644 0.800103 0.5 -0.331413 0.653281 0.707107 -0.270598 0.46194 0.866026 -0.191342 0.239118 0.965926 -0.0990456 -1.83399e-007 1 9.16995e-008 0 1 0 -0.253846 0.965926 0.0504931 -0.490393 0.866025 0.0975452 -0.69352 0.707107 0.13795 -0.849385 0.5 0.168953 -0.947366 0.258819 0.188443 -0.980785 -8.74228e-008 0.19509 -0.947366 -0.258819 0.188443 -0.849385 -0.5 0.168953 -0.69352 -0.707107 0.13795 -0.490393 -0.866025 0.0975452 -0.253846 -0.965926 0.0504931 1.83399e-007 -1 -4.58497e-008 0.253846 -0.965926 -0.0504931 0.490393 -0.866025 -0.0975452 0.69352 -0.707107 -0.13795 0.849385 -0.5 -0.168953 0.947366 -0.258819 -0.188443 0.980785 1.74846e-007 -0.19509 0.947366 0.258819 -0.188443 0.849385 0.5 -0.168953 0.69352 0.707107 -0.13795 0.490393 0.866025 -0.0975451 0.253846 0.965926 -0.050493 -1.83399e-007 1 4.58497e-008 0 1 0 -0.258819 0.965926 -2.26267e-008 -0.5 0.866025 -4.37114e-008 -0.707107 0.707107 -6.18172e-008 -0.866025 0.5 -7.57103e-008 -0.965926 0.258819 -8.44439e-008 -1 -8.74228e-008 -8.74228e-008 -0.965926 -0.258819 -8.44439e-008 -0.866025 -0.5 -7.57103e-008 -0.707107 -0.707107 -6.18172e-008 -0.5 -0.866025 -4.37114e-008 -0.258819 -0.965926 -2.26267e-008 1.83399e-007 -1 1.09314e-014 0.258819 -0.965926 2.26267e-008 0.5 -0.866025 4.37114e-008 0.707107 -0.707107 6.18172e-008 0.866026 -0.5 7.57104e-008 0.965926 -0.258819 8.44439e-008 1 1.74846e-007 8.74228e-008 0.965926 0.258819 8.44439e-008 0.866025 0.5 7.57103e-008 0.707107 0.707107 6.18172e-008 0.5 0.866025 4.37114e-008 0.258819 0.965926 2.26267e-008 -1.83399e-007 1 -2.18629e-014 0 1 0 -0.253846 0.965926 -0.0504932 -0.490393 0.866025 -0.0975453 -0.69352 0.707107 -0.13795 -0.849385 0.5 -0.168953 -0.947366 0.258819 -0.188443 -0.980785 -8.74228e-008 -0.19509 -0.947366 -0.258819 -0.188443 -0.849385 -0.5 -0.168953 -0.69352 -0.707107 -0.13795 -0.490393 -0.866025 -0.0975452 -0.253846 -0.965926 -0.0504931 1.83399e-007 -1 4.58497e-008 0.253846 -0.965926 0.0504932 0.490393 -0.866025 0.0975453 0.69352 -0.707107 0.13795 0.849385 -0.5 0.168953 0.947366 -0.258819 0.188443 0.980785 1.74846e-007 0.19509 0.947366 0.258819 0.188443 0.849385 0.5 0.168953 0.69352 0.707107 0.13795 0.490392 0.866026 0.0975452 0.253846 0.965926 0.0504931 -1.83399e-007 1 -4.58497e-008 0 1 0 -0.239118 0.965926 -0.0990458 -0.46194 0.866025 -0.191342 -0.653281 0.707107 -0.270598 -0.800103 0.5 -0.331414 -0.892399 0.258819 -0.369644 -0.92388 -8.74228e-008 -0.382683 -0.892399 -0.258819 -0.369644 -0.800103 -0.5 -0.331414 -0.653281 -0.707107 -0.270598 -0.46194 -0.866025 -0.191342 -0.239118 -0.965926 -0.0990457 1.83399e-007 -1 9.16995e-008 0.239118 -0.965926 0.0990458 0.46194 -0.866025 0.191342 0.653282 -0.707107 0.270598 0.800103 -0.5 0.331414 0.892399 -0.258819 0.369644 0.92388 1.74846e-007 0.382683 0.892399 0.258819 0.369644 0.800103 0.5 0.331414 0.653281 0.707107 0.270598 0.46194 0.866026 0.191342 0.239117 0.965926 0.0990457 -1.83399e-007 1 -9.16995e-008 0 1 0 -0.2152 0.965926 -0.143792 -0.415735 0.866025 -0.277785 -0.587938 0.707107 -0.392848 -0.720074 0.5 -0.481138 -0.803138 0.258819 -0.53664 -0.83147 -8.74228e-008 -0.55557 -0.803138 -0.258819 -0.53664 -0.720074 -0.5 -0.481138 -0.587938 -0.707107 -0.392847 -0.415735 -0.866025 -0.277785 -0.2152 -0.965926 -0.143792 1.83399e-007 -1 9.16995e-008 0.2152 -0.965926 0.143792 0.415735 -0.866025 0.277785 0.587938 -0.707107 0.392848 0.720074 -0.5 0.481138 0.803138 -0.258819 0.53664 0.83147 1.74846e-007 0.55557 0.803138 0.258819 0.53664 0.720074 0.5 0.481138 0.587938 0.707107 0.392847 0.415735 0.866026 0.277785 0.2152 0.965926 0.143792 -1.83399e-007 1 -9.16995e-008 0 1 0 -0.183013 0.965926 -0.183013 -0.353553 0.866025 -0.353553 -0.5 0.707107 -0.5 -0.612372 0.5 -0.612373 -0.683013 0.258819 -0.683013 -0.707107 -8.74228e-008 -0.707107 -0.683013 -0.258819 -0.683013 -0.612372 -0.5 -0.612373 -0.5 -0.707107 -0.5 -0.353553 -0.866025 -0.353553 -0.183012 -0.965926 -0.183013 9.16995e-008 -1 9.16995e-008 0.183013 -0.965926 0.183013 0.353553 -0.866025 0.353554 0.5 -0.707107 0.5 0.612372 -0.5 0.612373 0.683013 -0.258819 0.683013 0.707107 1.74846e-007 0.707107 0.683013 0.258819 0.683013 0.612372 0.5 0.612372 0.5 0.707107 0.5 0.353553 0.866026 0.353553 0.183012 0.965926 0.183013 -1.83399e-007 1 -1.83399e-007 0 1 0 -0.143792 0.965926 -0.2152 -0.277785 0.866025 -0.415735 -0.392847 0.707107 -0.587938 -0.481138 0.5 -0.720074 -0.536639 0.258819 -0.803138 -0.55557 -8.74228e-008 -0.83147 -0.536639 -0.258819 -0.803138 -0.481138 -0.5 -0.720074 -0.392847 -0.707107 -0.587938 -0.277785 -0.866025 -0.415735 -0.143792 -0.965926 -0.2152 9.16995e-008 -1 1.83399e-007 0.143792 -0.965926 0.2152 0.277785 -0.866025 0.415735 0.392847 -0.707107 0.587938 0.481138 -0.5 0.720074 0.536639 -0.258819 0.803138 0.55557 1.74846e-007 0.83147 0.536639 0.258819 0.803138 0.481138 0.5 0.720074 0.392847 0.707107 0.587938 0.277785 0.866026 0.415735 0.143792 0.965926 0.2152 -9.16995e-008 1 -1.83399e-007 0 1 0 -0.0990457 0.965926 -0.239118 -0.191342 0.866025 -0.46194 -0.270598 0.707107 -0.653282 -0.331413 0.5 -0.800103 -0.369644 0.258819 -0.892399 -0.382683 -8.74228e-008 -0.92388 -0.369644 -0.258819 -0.892399 -0.331413 -0.5 -0.800103 -0.270598 -0.707107 -0.653282 -0.191342 -0.866025 -0.46194 -0.0990456 -0.965926 -0.239118 9.16995e-008 -1 1.83399e-007 0.0990457 -0.965926 0.239118 0.191342 -0.866025 0.46194 0.270598 -0.707107 0.653282 0.331413 -0.5 0.800103 0.369644 -0.258819 0.892399 0.382683 1.74846e-007 0.92388 0.369643 0.258819 0.892399 0.331413 0.5 0.800103 0.270598 0.707107 0.653281 0.191342 0.866026 0.46194 0.0990456 0.965926 0.239118 -9.16995e-008 1 -1.83399e-007 0 1 0 -0.0504931 0.965926 -0.253846 -0.0975452 0.866025 -0.490393 -0.13795 0.707107 -0.69352 -0.168953 0.5 -0.849385 -0.188443 0.258819 -0.947366 -0.19509 -8.74228e-008 -0.980785 -0.188443 -0.258819 -0.947366 -0.168953 -0.5 -0.849385 -0.13795 -0.707107 -0.69352 -0.0975452 -0.866025 -0.490393 -0.0504931 -0.965926 -0.253846 4.58497e-008 -1 1.83399e-007 0.0504931 -0.965926 0.253846 0.0975452 -0.866025 0.490393 0.13795 -0.707107 0.69352 0.168953 -0.5 0.849385 0.188443 -0.258819 0.947366 0.19509 1.74846e-007 0.980785 0.188443 0.258819 0.947366 0.168953 0.5 0.849385 0.13795 0.707107 0.69352 0.0975452 0.866026 0.490392 0.0504931 0.965926 0.253846 -4.58497e-008 1 -1.83399e-007 0 1 0 3.08639e-009 0.965926 -0.258819 5.96244e-009 0.866025 -0.5 8.43216e-009 0.707107 -0.707107 1.03273e-008 0.5 -0.866025 1.15186e-008 0.258819 -0.965926 1.19249e-008 -8.74228e-008 -1 1.15186e-008 -0.258819 -0.965926 1.03273e-008 -0.5 -0.866025 8.43216e-009 -0.707107 -0.707107 5.96244e-009 -0.866025 -0.5 3.08638e-009 -0.965926 -0.258819 -2.73286e-015 -1 1.83399e-007 -3.08639e-009 -0.965926 0.258819 -5.96244e-009 -0.866025 0.5 -8.43217e-009 -0.707107 0.707107 -1.03273e-008 -0.5 0.866026 -1.15186e-008 -0.258819 0.965926 -1.19249e-008 1.74846e-007 1 -1.15185e-008 0.258819 0.965926 -1.03272e-008 0.5 0.866025 -8.43216e-009 0.707107 0.707107 -5.96244e-009 0.866025 0.5 -3.08638e-009 0.965926 0.258819 2.73286e-015 1 -1.83399e-007 0 1 0 0.0504931 0.965926 -0.253846 0.0975452 0.866025 -0.490393 0.13795 0.707107 -0.69352 0.168953 0.5 -0.849385 0.188443 0.258819 -0.947366 0.19509 -8.74228e-008 -0.980785 0.188443 -0.258819 -0.947366 0.168953 -0.5 -0.849385 0.13795 -0.707107 -0.69352 0.0975452 -0.866025 -0.490393 0.0504931 -0.965926 -0.253846 -4.58497e-008 -1 1.83399e-007 -0.0504931 -0.965926 0.253846 -0.0975452 -0.866025 0.490393 -0.13795 -0.707107 0.69352 -0.168953 -0.5 0.849385 -0.188443 -0.258819 0.947366 -0.19509 1.74846e-007 0.980785 -0.188443 0.258819 0.947366 -0.168953 0.5 0.849385 -0.13795 0.707107 0.69352 -0.0975452 0.866026 0.490392 -0.0504931 0.965926 0.253846 4.58497e-008 1 -1.83399e-007 0 1 0 0.0990459 0.965926 -0.239118 0.191342 0.866025 -0.46194 0.270598 0.707107 -0.653281 0.331414 0.5 -0.800103 0.369644 0.258819 -0.892399 0.382684 -8.74228e-008 -0.923879 0.369644 -0.258819 -0.892399 0.331414 -0.5 -0.800103 0.270598 -0.707107 -0.653281 0.191342 -0.866025 -0.46194 0.0990458 -0.965926 -0.239118 -9.16995e-008 -1 1.83399e-007 -0.0990459 -0.965926 0.239118 -0.191342 -0.866025 0.46194 -0.270598 -0.707107 0.653282 -0.331414 -0.5 0.800103 -0.369644 -0.258819 0.892399 -0.382684 1.74846e-007 0.923879 -0.369644 0.258819 0.892399 -0.331414 0.5 0.800103 -0.270598 0.707107 0.653281 -0.191342 0.866026 0.46194 -0.0990457 0.965926 0.239117 9.16995e-008 1 -1.83399e-007 0 1 0 0.143792 0.965926 -0.2152 0.277785 0.866025 -0.415735 0.392848 0.707107 -0.587938 0.481138 0.5 -0.720074 0.53664 0.258819 -0.803138 0.55557 -8.74228e-008 -0.831469 0.53664 -0.258819 -0.803138 0.481138 -0.5 -0.720074 0.392848 -0.707107 -0.587938 0.277785 -0.866025 -0.415735 0.143792 -0.965926 -0.2152 -9.16995e-008 -1 1.83399e-007 -0.143792 -0.965926 0.2152 -0.277785 -0.866025 0.415735 -0.392848 -0.707107 0.587938 -0.481138 -0.5 0.720074 -0.53664 -0.258819 0.803138 -0.55557 1.74846e-007 0.83147 -0.53664 0.258819 0.803138 -0.481138 0.5 0.720074 -0.392848 0.707107 0.587938 -0.277785 0.866026 0.415735 -0.143792 0.965926 0.2152 9.16995e-008 1 -1.83399e-007 0 1 0 0.183013 0.965926 -0.183013 0.353554 0.866025 -0.353553 0.5 0.707107 -0.5 0.612373 0.5 -0.612372 0.683013 0.258819 -0.683012 0.707107 -8.74228e-008 -0.707107 0.683013 -0.258819 -0.683012 0.612373 -0.5 -0.612372 0.5 -0.707107 -0.5 0.353554 -0.866025 -0.353553 0.183013 -0.965926 -0.183013 -9.16995e-008 -1 9.16995e-008 -0.183013 -0.965926 0.183013 -0.353554 -0.866025 0.353553 -0.5 -0.707107 0.5 -0.612373 -0.5 0.612372 -0.683013 -0.258819 0.683012 -0.707107 1.74846e-007 0.707107 -0.683013 0.258819 0.683012 -0.612373 0.5 0.612372 -0.5 0.707107 0.5 -0.353553 0.866026 0.353553 -0.183013 0.965926 0.183012 1.83399e-007 1 -1.83399e-007 0 1 0 0.2152 0.965926 -0.143792 0.415735 0.866025 -0.277785 0.587938 0.707107 -0.392848 0.720074 0.5 -0.481138 0.803138 0.258819 -0.53664 0.83147 -8.74228e-008 -0.55557 0.803138 -0.258819 -0.53664 0.720074 -0.5 -0.481138 0.587938 -0.707107 -0.392847 0.415735 -0.866025 -0.277785 0.2152 -0.965926 -0.143792 -1.83399e-007 -1 9.16995e-008 -0.2152 -0.965926 0.143792 -0.415735 -0.866025 0.277785 -0.587938 -0.707107 0.392848 -0.720074 -0.5 0.481138 -0.803138 -0.258819 0.53664 -0.83147 1.74846e-007 0.55557 -0.803138 0.258819 0.53664 -0.720074 0.5 0.481138 -0.587938 0.707107 0.392847 -0.415735 0.866026 0.277785 -0.2152 0.965926 0.143792 1.83399e-007 1 -9.16995e-008 0 1 0 0.239118 0.965926 -0.0990458 0.46194 0.866025 -0.191342 0.653282 0.707107 -0.270598 0.800103 0.5 -0.331414 0.892399 0.258819 -0.369644 0.92388 -8.74228e-008 -0.382683 0.892399 -0.258819 -0.369644 0.800103 -0.5 -0.331414 0.653281 -0.707107 -0.270598 0.46194 -0.866025 -0.191342 0.239118 -0.965926 -0.0990457 -1.83399e-007 -1 9.16995e-008 -0.239118 -0.965926 0.0990458 -0.46194 -0.866025 0.191342 -0.653282 -0.707107 0.270598 -0.800103 -0.5 0.331414 -0.892399 -0.258819 0.369644 -0.92388 1.74846e-007 0.382683 -0.892399 0.258819 0.369644 -0.800103 0.5 0.331414 -0.653281 0.707107 0.270598 -0.46194 0.866026 0.191342 -0.239118 0.965926 0.0990457 1.83399e-007 1 -9.16995e-008 0 1 0 0.253846 0.965926 -0.0504931 0.490393 0.866025 -0.0975451 0.69352 0.707107 -0.13795 0.849385 0.5 -0.168953 0.947366 0.258819 -0.188443 0.980785 -8.74228e-008 -0.19509 0.947366 -0.258819 -0.188443 0.849385 -0.5 -0.168953 0.69352 -0.707107 -0.13795 0.490393 -0.866025 -0.0975451 0.253846 -0.965926 -0.050493 -1.83399e-007 -1 4.58497e-008 -0.253846 -0.965926 0.0504931 -0.490393 -0.866025 0.0975451 -0.69352 -0.707107 0.13795 -0.849385 -0.5 0.168953 -0.947366 -0.258819 0.188443 -0.980785 1.74846e-007 0.19509 -0.947366 0.258819 0.188443 -0.849385 0.5 0.168953 -0.69352 0.707107 0.13795 -0.490393 0.866025 0.0975451 -0.253846 0.965926 0.050493 1.83399e-007 1 -4.58497e-008 0 1 0 0.258819 0.965926 4.52533e-008 0.5 0.866025 8.74228e-008 0.707107 0.707107 1.23634e-007 0.866025 0.5 1.51421e-007 0.965926 0.258819 1.68888e-007 1 -8.74228e-008 1.74846e-007 0.965926 -0.258819 1.68888e-007 0.866025 -0.5 1.51421e-007 0.707107 -0.707107 1.23634e-007 0.5 -0.866025 8.74228e-008 0.258819 -0.965926 4.52534e-008 -1.83399e-007 -1 -2.18629e-014 -0.258819 -0.965926 -4.52534e-008 -0.5 -0.866025 -8.74228e-008 -0.707107 -0.707107 -1.23634e-007 -0.866026 -0.5 -1.51421e-007 -0.965926 -0.258819 -1.68888e-007 -1 1.74846e-007 -1.74846e-007 -0.965926 0.258819 -1.68888e-007 -0.866025 0.5 -1.51421e-007 -0.707107 0.707107 -1.23634e-007 -0.5 0.866025 -8.74227e-008 -0.258819 0.965926 -4.52533e-008 1.83399e-007 1 4.37257e-014</float_array>
					<technique_common>
						<accessor count="825" source="#FXStream2-array" stride="3">
							<param name="X" type="float"/>
							<param name="Y" type="float"/>
							<param name="Z" type="float"/>
						</accessor>
					</technique_common>
				</source>
				<source id="FXStream1" name="FXStream">
					<float_array id="FXStream1-array" count="1650">0 0 0 0.0416667 0 0.0833333 0 0.125 0 0.166667 0 0.208333 0 0.25 0 0.291667 0 0.333333 0 0.375 0 0.416667 0 0.458333 0 0.5 0 0.541667 0 0.583333 0 0.625 0 0.666667 0 0.708333 0 0.75 0 0.791667 0 0.833333 0 0.875 0 0.916667 0 0.958333 0 1 0.03125 0 0.03125 0.0416667 0.03125 0.0833333 0.03125 0.125 0.03125 0.166667 0.03125 0.208333 0.03125 0.25 0.03125 0.291667 0.03125 0.333333 0.03125 0.375 0.03125 0.416667 0.03125 0.458333 0.03125 0.5 0.03125 0.541667 0.03125 0.583333 0.03125 0.625 0.03125 0.666667 0.03125 0.708333 0.03125 0.75 0.03125 0.791667 0.03125 0.833333 0.03125 0.875 0.03125 0.916667 0.03125 0.958333 0.03125 1 0.0625 0 0.0625 0.0416667 0.0625 0.0833333 0.0625 0.125 0.0625 0.166667 0.0625 0.208333 0.0625 0.25 0.0625 0.291667 0.0625 0.333333 0.0625 0.375 0.0625 0.416667 0.0625 0.458333 0.0625 0.5 0.0625 0.541667 0.0625 0.583333 0.0625 0.625 0.0625 0.666667 0.0625 0.708333 0.0625 0.75 0.0625 0.791667 0.0625 0.833333 0.0625 0.875 0.0625 0.916667 0.0625 0.958333 0.0625 1 0.09375 0 0.09375 0.0416667 0.09375 0.0833333 0.09375 0.125 0.09375 0.166667 0.09375 0.208333 0.09375 0.25 0.09375 0.291667 0.09375 0.333333 0.09375 0.375 0.09375 0.416667 0.09375 0.458333 0.09375 0.5 0.09375 0.541667 0.09375 0.583333 0.09375 0.625 0.09375 0.666667 0.09375 0.708333 0.09375 0.75 0.09375 0.791667 0.09375 0.833333 0.09375 0.875 0.09375 0.916667 0.09375 0.958333 0.09375 1 0.125 0 0.125 0.0416667 0.125 0.0833333 0.125 0.125 0.125 0.166667 0.125 0.208333 0.125 0.25 0.125 0.291667 0.125 0.333333 0.125 0.375 0.125 0.416667 0.125 0.458333 0.125 0.5 0.125 0.541667 0.125 0.583333 0.125 0.625 0.125 0.666667 0.125 0.708333 0.125 0.75 0.125 0.791667 0.125 0.833333 0.125 0.875 0.125 0.916667 0.125 0.958333 0.125 1 0.15625 0 0.15625 0.0416667 0.15625 0.0833333 0.15625 0.125 0.15625 0.166667 0.15625 0.208333 0.15625 0.25 0.15625 0.291667 0.15625 0.333333 0.15625 0.375 0.15625 0.416667 0.15625 0.458333 0.15625 0.5 0.15625 0.541667 0.15625 0.583333 0.15625 0.625 0.15625 0.666667 0.15625 0.708333 0.15625 0.75 0.15625 0.791667 0.15625 0.833333 0.15625 0.875 0.15625 0.916667 0.15625 0.958333 0.15625 1 0.1875 0 0.1875 0.0416667 0.1875 0.0833333 0.1875 0.125 0.1875 0.166667 0.1875 0.208333 0.1875 0.25 0.1875 0.291667 0.1875 0.333333 0.1875 0.375 0.1875 0.416667 0.1875 0.458333 0.1875 0.5 0.1875 0.541667 0.1875 0.583333 0.1875 0.625 0.1875 0.666667 0.1875 0.708333 0.1875 0.75 0.1875 0.791667 0.1875 0.833333 0.1875 0.875 0.1875 0.916667 0.1875 0.958333 0.1875 1 0.21875 0 0.21875 0.0416667 0.21875 0.0833333 0.21875 0.125 0.21875 0.166667 0.21875 0.208333 0.21875 0.25 0.21875 0.291667 0.21875 0.333333 0.21875 0.375 0.21875 0.416667 0.21875 0.458333 0.21875 0.5 0.21875 0.541667 0.21875 0.583333 0.21875 0.625 0.21875 0.666667 0.21875 0.708333 0.21875 0.75 0.21875 0.791667 0.21875 0.833333 0.21875 0.875 0.21875 0.916667 0.21875 0.958333 0.21875 1 0.25 0 0.25 0.0416667 0.25 0.0833333 0.25 0.125 0.25 0.166667 0.25 0.208333 0.25 0.25 0.25 0.291667 0.25 0.333333 0.25 0.375 0.25 0.416667 0.25 0.458333 0.25 0.5 0.25 0.541667 0.25 0.583333 0.25 0.625 0.25 0.666667 0.25 0.708333 0.25 0.75 0.25 0.791667 0.25 0.833333 0.25 0.875 0.25 0.916667 0.25 0.958333 0.25 1 0.28125 0 0.28125 0.0416667 0.28125 0.0833333 0.28125 0.125 0.28125 0.166667 0.28125 0.208333 0.28125 0.25 0.28125 0.291667 0.28125 0.333333 0.28125 0.375 0.28125 0.416667 0.28125 0.458333 0.28125 0.5 0.28125 0.541667 0.28125 0.583333 0.28125 0.625 0.28125 0.666667 0.28125 0.708333 0.28125 0.75 0.28125 0.791667 0.28125 0.833333 0.28125 0.875 0.28125 0.916667 0.28125 0.958333 0.28125 1 0.3125 0 0.3125 0.0416667 0.3125 0.0833333 0.3125 0.125 0.3125 0.166667 0.3125 0.208333 0.3125 0.25 0.3125 0.291667 0.3125 0.333333 0.3125 0.375 0.3125 0.416667 0.3125 0.458333 0.3125 0.5 0.3125 0.541667 0.3125 0.583333 0.3125 0.625 0.3125 0.666667 0.3125 0.708333 0.3125 0.75 0.3125 0.791667 0.3125 0.833333 0.3125 0.875 0.3125 0.916667 0.3125 0.958333 0.3125 1 0.34375 0 0.34375 0.0416667 0.34375 0.0833333 0.34375 0.125 0.34375 0.166667 0.34375 0.208333 0.34375 0.25 0.34375 0.291667 0.34375 0.333333 0.34375 0.375 0.34375 0.416667 0.34375 0.458333 0.34375 0.5 0.34375 0.541667 0.34375 0.583333 0.34375 0.625 0.34375 0.666667 0.34375 0.708333 0.34375 0.75 0.34375 0.791667 0.34375 0.833333 0.34375 0.875 0.34375 0.916667 0.34375 0.958333 0.34375 1 0.375 0 0.375 0.0416667 0.375 0.0833333 0.375 0.125 0.375 0.166667 0.375 0.208333 0.375 0.25 0.375 0.291667 0.375 0.333333 0.375 0.375 0.375 0.416667 0.375 0.458333 0.375 0.5 0.375 0.541667 0.375 0.583333 0.375 0.625 0.375 0.666667 0.375 0.708333 0.375 0.75 0.375 0.791667 0.375 0.833333 0.375 0.875 0.375 0.916667 0.375 0.958333 0.375 1 0.40625 0 0.40625 0.0416667 0.40625 0.0833333 0.40625 0.125 0.40625 0.166667 0.40625 0.208333 0.40625 0.25 0.40625 0.291667 0.40625 0.333333 0.40625 0.375 0.40625 0.416667 0.40625 0.458333 0.40625 0.5 0.40625 0.541667 0.40625 0.583333 0.40625 0.625 0.40625 0.666667 0.40625 0.708333 0.40625 0.75 0.40625 0.791667 0.40625 0.833333 0.40625 0.875 0.40625 0.916667 0.40625 0.958333 0.40625 1 0.4375 0 0.4375 0.0416667 0.4375 0.0833333 0.4375 0.125 0.4375 0.166667 0.4375 0.208333 0.4375 0.25 0.4375 0.291667 0.4375 0.333333 0.4375 0.375 0.4375 0.416667 0.4375 0.458333 0.4375 0.5 0.4375 0.541667 0.4375 0.583333 0.4375 0.625 0.4375 0.666667 0.4375 0.708333 0.4375 0.75 0.4375 0.791667 0.4375 0.833333 0.4375 0.875 0.4375 0.916667 0.4375 0.958333 0.4375 1 0.46875 0 0.46875 0.0416667 0.46875 0.0833333 0.46875 0.125 0.46875 0.166667 0.46875 0.208333 0.46875 0.25 0.46875 0.291667 0.46875 0.333333 0.46875 0.375 0.46875 0.416667 0.46875 0.458333 0.46875 0.5 0.46875 0.541667 0.46875 0.583333 0.46875 0.625 0.46875 0.666667 0.46875 0.708333 0.46875 0.75 0.46875 0.791667 0.46875 0.833333 0.46875 0.875 0.46875 0.916667 0.46875 0.958333 0.46875 1 0.5 0 0.5 0.0416667 0.5 0.0833333 0.5 0.125 0.5 0.166667 0.5 0.208333 0.5 0.25 0.5 0.291667 0.5 0.333333 0.5 0.375 0.5 0.416667 0.5 0.458333 0.5 0.5 0.5 0.541667 0.5 0.583333 0.5 0.625 0.5 0.666667 0.5 0.708333 0.5 0.75 0.5 0.791667 0.5 0.833333 0.5 0.875 0.5 0.916667 0.5 0.958333 0.5 1 0.53125 0 0.53125 0.0416667 0.53125 0.0833333 0.53125 0.125 0.53125 0.166667 0.53125 0.208333 0.53125 0.25 0.53125 0.291667 0.53125 0.333333 0.53125 0.375 0.53125 0.416667 0.53125 0.458333 0.53125 0.5 0.53125 0.541667 0.53125 0.583333 0.53125 0.625 0.53125 0.666667 0.53125 0.708333 0.53125 0.75 0.53125 0.791667 0.53125 0.833333 0.53125 0.875 0.53125 0.916667 0.53125 0.958333 0.53125 1 0.5625 0 0.5625 0.0416667 0.5625 0.0833333 0.5625 0.125 0.5625 0.166667 0.5625 0.208333 0.5625 0.25 0.5625 0.291667 0.5625 0.333333 0.5625 0.375 0.5625 0.416667 0.5625 0.458333 0.5625 0.5 0.5625 0.541667 0.5625 0.583333 0.5625 0.625 0.5625 0.666667 0.5625 0.708333 0.5625 0.75 0.5625 0.791667 0.5625 0.833333 0.5625 0.875 0.5625 0.916667 0.5625 0.958333 0.5625 1 0.59375 0 0.59375 0.0416667 0.59375 0.0833333 0.59375 0.125 0.59375 0.166667 0.59375 0.208333 0.59375 0.25 0.59375 0.291667 0.59375 0.333333 0.59375 0.375 0.59375 0.416667 0.59375 0.458333 0.59375 0.5 0.59375 0.541667 0.59375 0.583333 0.59375 0.625 0.59375 0.666667 0.59375 0.708333 0.59375 0.75 0.59375 0.791667 0.59375 0.833333 0.59375 0.875 0.59375 0.916667 0.59375 0.958333 0.59375 1 0.625 0 0.625 0.0416667 0.625 0.0833333 0.625 0.125 0.625 0.166667 0.625 0.208333 0.625 0.25 0.625 0.291667 0.625 0.333333 0.625 0.375 0.625 0.416667 0.625 0.458333 0.625 0.5 0.625 0.541667 0.625 0.583333 0.625 0.625 0.625 0.666667 0.625 0.708333 0.625 0.75 0.625 0.791667 0.625 0.833333 0.625 0.875 0.625 0.916667 0.625 0.958333 0.625 1 0.65625 0 0.65625 0.0416667 0.65625 0.0833333 0.65625 0.125 0.65625 0.166667 0.65625 0.208333 0.65625 0.25 0.65625 0.291667 0.65625 0.333333 0.65625 0.375 0.65625 0.416667 0.65625 0.458333 0.65625 0.5 0.65625 0.541667 0.65625 0.583333 0.65625 0.625 0.65625 0.666667 0.65625 0.708333 0.65625 0.75 0.65625 0.791667 0.65625 0.833333 0.65625 0.875 0.65625 0.916667 0.65625 0.958333 0.65625 1 0.6875 0 0.6875 0.0416667 0.6875 0.0833333 0.6875 0.125 0.6875 0.166667 0.6875 0.208333 0.6875 0.25 0.6875 0.291667 0.6875 0.333333 0.6875 0.375 0.6875 0.416667 0.6875 0.458333 0.6875 0.5 0.6875 0.541667 0.6875 0.583333 0.6875 0.625 0.6875 0.666667 0.6875 0.708333 0.6875 0.75 0.6875 0.791667 0.6875 0.833333 0.6875 0.875 0.6875 0.916667 0.6875 0.958333 0.6875 1 0.71875 0 0.71875 0.0416667 0.71875 0.0833333 0.71875 0.125 0.71875 0.166667 0.71875 0.208333 0.71875 0.25 0.71875 0.291667 0.71875 0.333333 0.71875 0.375 0.71875 0.416667 0.71875 0.458333 0.71875 0.5 0.71875 0.541667 0.71875 0.583333 0.71875 0.625 0.71875 0.666667 0.71875 0.708333 0.71875 0.75 0.71875 0.791667 0.71875 0.833333 0.71875 0.875 0.71875 0.916667 0.71875 0.958333 0.71875 1 0.75 0 0.75 0.0416667 0.75 0.0833333 0.75 0.125 0.75 0.166667 0.75 0.208333 0.75 0.25 0.75 0.291667 0.75 0.333333 0.75 0.375 0.75 0.416667 0.75 0.458333 0.75 0.5 0.75 0.541667 0.75 0.583333 0.75 0.625 0.75 0.666667 0.75 0.708333 0.75 0.75 0.75 0.791667 0.75 0.833333 0.75 0.875 0.75 0.916667 0.75 0.958333 0.75 1 0.78125 0 0.78125 0.0416667 0.78125 0.0833333 0.78125 0.125 0.78125 0.166667 0.78125 0.208333 0.78125 0.25 0.78125 0.291667 0.78125 0.333333 0.78125 0.375 0.78125 0.416667 0.78125 0.458333 0.78125 0.5 0.78125 0.541667 0.78125 0.583333 0.78125 0.625 0.78125 0.666667 0.78125 0.708333 0.78125 0.75 0.78125 0.791667 0.78125 0.833333 0.78125 0.875 0.78125 0.916667 0.78125 0.958333 0.78125 1 0.8125 0 0.8125 0.0416667 0.8125 0.0833333 0.8125 0.125 0.8125 0.166667 0.8125 0.208333 0.8125 0.25 0.8125 0.291667 0.8125 0.333333 0.8125 0.375 0.8125 0.416667 0.8125 0.458333 0.8125 0.5 0.8125 0.541667 0.8125 0.583333 0.8125 0.625 0.8125 0.666667 0.8125 0.708333 0.8125 0.75 0.8125 0.791667 0.8125 0.833333 0.8125 0.875 0.8125 0.916667 0.8125 0.958333 0.8125 1 0.84375 0 0.84375 0.0416667 0.84375 0.0833333 0.84375 0.125 0.84375 0.166667 0.84375 0.208333 0.84375 0.25 0.84375 0.291667 0.84375 0.333333 0.84375 0.375 0.84375 0.416667 0.84375 0.458333 0.84375 0.5 0.84375 0.541667 0.84375 0.583333 0.84375 0.625 0.84375 0.666667 0.84375 0.708333 0.84375 0.75 0.84375 0.791667 0.84375 0.833333 0.84375 0.875 0.84375 0.916667 0.84375 0.958333 0.84375 1 0.875 0 0.875 0.0416667 0.875 0.0833333 0.875 0.125 0.875 0.166667 0.875 0.208333 0.875 0.25 0.875 0.291667 0.875 0.333333 0.875 0.375 0.875 0.416667 0.875 0.458333 0.875 0.5 0.875 0.541667 0.875 0.583333 0.875 0.625 0.875 0.666667 0.875 0.708333 0.875 0.75 0.875 0.791667 0.875 0.833333 0.875 0.875 0.875 0.916667 0.875 0.958333 0.875 1 0.90625 0 0.90625 0.0416667 0.90625 0.0833333 0.90625 0.125 0.90625 0.166667 0.90625 0.208333 0.90625 0.25 0.90625 0.291667 0.90625 0.333333 0.90625 0.375 0.90625 0.416667 0.90625 0.458333 0.90625 0.5 0.90625 0.541667 0.90625 0.583333 0.90625 0.625 0.90625 0.666667 0.90625 0.708333 0.90625 0.75 0.90625 0.791667 0.90625 0.833333 0.90625 0.875 0.90625 0.916667 0.90625 0.958333 0.90625 1 0.9375 0 0.9375 0.0416667 0.9375 0.0833333 0.9375 0.125 0.9375 0.166667 0.9375 0.208333 0.9375 0.25 0.9375 0.291667 0.9375 0.333333 0.9375 0.375 0.9375 0.416667 0.9375 0.458333 0.9375 0.5 0.9375 0.541667 0.9375 0.583333 0.9375 0.625 0.9375 0.666667 0.9375 0.708333 0.9375 0.75 0.9375 0.791667 0.9375 0.833333 0.9375 0.875 0.9375 0.916667 0.9375 0.958333 0.9375 1 0.96875 0 0.96875 0.0416667 0.96875 0.0833333 0.96875 0.125 0.96875 0.166667 0.96875 0.208333 0.96875 0.25 0.96875 0.291667 0.96875 0.333333 0.96875 0.375 0.96875 0.416667 0.96875 0.458333 0.96875 0.5 0.96875 0.541667 0.96875 0.583333 0.96875 0.625 0.96875 0.666667 0.96875 0.708333 0.96875 0.75 0.96875 0.791667 0.96875 0.833333 0.96875 0.875 0.96875 0.916667 0.96875 0.958333 0.96875 1 1 0 1 0.0416667 1 0.0833333 1 0.125 1 0.166667 1 0.208333 1 0.25 1 0.291667 1 0.333333 1 0.375 1 0.416667 1 0.458333 1 0.5 1 0.541667 1 0.583333 1 0.625 1 0.666667 1 0.708333 1 0.75 1 0.791667 1 0.833333 1 0.875 1 0.916667 1 0.958333 1 1</float_array>
					<technique_common>
						<accessor count="825" source="#FXStream1-array" stride="2">
							<param name="S" type="float"/>
							<param name="T" type="float"/>
						</accessor>
					</technique_common>
				</source>
				<vertices id="Torus-Vertex-0">
					<input semantic="POSITION" source="#FXStream"/>
					<input semantic="NORMAL" source="#FXStream2"/>
					<input semantic="TEXCOORD" source="#FXStream1"/>
				</vertices>
				<polygons count="768" material="TorusMaterial">
					<input offset="0" semantic="VERTEX" source="#Torus-Vertex-0"/>
					<p>1 0 25 26</p>
					<p>2 1 26 27</p>
					<p>3 2 27 28</p>
					<p>4 3 28 29</p>
					<p>5 4 29 30</p>
					<p>6 5 30 31</p>
					<p>7 6 31 32</p>
					<p>8 7 32 33</p>
					<p>9 8 33 34</p>
					<p>10 9 34 35</p>
					<p>11 10 35 36</p>
					<p>12 11 36 37</p>
					<p>13 12 37 38</p>
					<p>14 13 38 39</p>
					<p>15 14 39 40</p>
					<p>16 15 40 41</p>
					<p>17 16 41 42</p>
					<p>18 17 42 43</p>
					<p>19 18 43 44</p>
					<p>20 19 44 45</p>
					<p>21 20 45 46</p>
					<p>22 21 46 47</p>
					<p>23 22 47 48</p>
					<p>24 23 48 49</p>
					<p>26 25 50 51</p>
					<p>27 26 51 52</p>
					<p>28 27 52 53</p>
					<p>29 28 53 54</p>
					<p>30 29 54 55</p>
					<p>31 30 55 56</p>
					<p>32 31 56 57</p>
					<p>33 32 57 58</p>
					<p>34 33 58 59</p>
					<p>35 34 59 60</p>
					<p>36 35 60 61</p>
					<p>37 36 61 62</p>
					<p>38 37 62 63</p>
					<p>39 38 63 64</p>
					<p>40 39 64 65</p>
					<p>41 40 65 66</p>
					<p>42 41 66 67</p>
					<p>43 42 67 68</p>
					<p>44 43 68 69</p>
					<p>45 44 69 70</p>
					<p>46 45 70 71</p>
					<p>47 46 71 72</p>
					<p>48 47 72 73</p>
					<p>49 48 73 74</p>
					<p>51 50 75 76</p>
					<p>52 51 76 77</p>
					<p>53 52 77 78</p>
					<p>54 53 78 79</p>
					<p>55 54 79 80</p>
					<p>56 55 80 81</p>
					<p>57 56 81 82</p>
					<p>58 57 82 83</p>
					<p>59 58 83 84</p>
					<p>60 59 84 85</p>
					<p>61 60 85 86</p>
					<p>62 61 86 87</p>
					<p>63 62 87 88</p>
					<p>64 63 88 89</p>
					<p>65 64 89 90</p>
					<p>66 65 90 91</p>
					<p>67 66 91 92</p>
					<p>68 67 92 93</p>
					<p>69 68 93 94</p>
					<p>70 69 94 95</p>
					<p>71 70 95 96</p>
					<p>72 71 96 97</p>
					<p>73 72 97 98</p>
					<p>74 73 98 99</p>
					<p>76 75 100 101</p>
					<p>77 76 101 102</p>
					<p>78 77 102 103</p>
					<p>79 78 103 104</p>
					<p>80 79 104 105</p>
					<p>81 80 105 106</p>
					<p>82 81 106 107</p>
					<p>83 82 107 108</p>
					<p>84 83 108 109</p>
					<p>85 84 109 110</p>
					<p>86 85 110 111</p>
					<p>87 86 111 112</p>
					<p>88 87 112 113</p>
					<p>89 88 113 114</p>
					<p>90 89 114 115</p>
					<p>91 90 115 116</p>
					<p>92 91 116 117</p>
					<p>93 92 117 118</p>
					<p>94 93 118 119</p>
					<p>95 94 119 120</p>
					<p>96 95 120 121</p>
					<p>97 96 121 122</p>
					<p>98 97 122 123</p>
					<p>99 98 123 124</p>
					<p>101 100 125 126</p>
					<p>102 101 126 127</p>
					<p>103 102 127 128</p>
					<p>104 103 128 129</p>
					<p>105 104 129 130</p>
					<p>106 105 130 131</p>
					<p>107 106 131 132</p>
					<p>108 107 132 133</p>
					<p>109 108 133 134</p>
					<p>110 109 134 135</p>
					<p>111 110 135 136</p>
					<p>112 111 136 137</p>
					<p>113 112 137 138</p>
					<p>114 113 138 139</p>
					<p>115 114 139 140</p>
					<p>116 115 140 141</p>
					<p>117 116 141 142</p>
					<p>118 117 142 143</p>
					<p>119 118 143 144</p>
					<p>120 119 144 145</p>
					<p>121 120 145 146</p>
					<p>122 121 146 147</p>
					<p>123 122 147 148</p>
					<p>124 123 148 149</p>
					<p>126 125 150 151</p>
					<p>127 126 151 152</p>
					<p>128 127 152 153</p>
					<p>129 128 153 154</p>
					<p>130 129 154 155</p>
					<p>131 130 155 156</p>
					<p>132 131 156 157</p>
					<p>133 132 157 158</p>
					<p>134 133 158 159</p>
					<p>135 134 159 160</p>
					<p>136 135 160 161</p>
					<p>137 136 161 162</p>
					<p>138 137 162 163</p>
					<p>139 138 163 164</p>
					<p>140 139 164 165</p>
					<p>141 140 165 166</p>
					<p>142 141 166 167</p>
					<p>143 142 167 168</p>
					<p>144 143 168 169</p>
					<p>145 144 169 170</p>
					<p>146 145 170 171</p>
					<p>147 146 171 172</p>
					<p>148 147 172 173</p>
					<p>149 148 173 174</p>
					<p>151 150 175 176</p>
					<p>152 151 176 177</p>
					<p>153 152 177 178</p>
					<p>154 153 178 179</p>
					<p>155 154 179 180</p>
					<p>156 155 180 181</p>
					<p>157 156 181 182</p>
					<p>158 157 182 183</p>
					<p>159 158 183 184</p>
					<p>160 159 184 185</p>
					<p>161 160 185 186</p>
					<p>162 161 186 187</p>
					<p>163 162 187 188</p>
					<p>164 163 188 189</p>
					<p>165 164 189 190</p>
					<p>166 165 190 191</p>
					<p>167 166 191 192</p>
					<p>168 167 192 193</p>
					<p>169 168 193 194</p>
					<p>170 169 194 195</p>
					<p>171 170 195 196</p>
					<p>172 171 196 197</p>
					<p>173 172 197 198</p>
					<p>174 173 198 199</p>
					<p>176 175 200 201</p>
					<p>177 176 201 202</p>
					<p>178 177 202 203</p>
					<p>179 178 203 204</p>
					<p>180 179 204 205</p>
					<p>181 180 205 206</p>
					<p>182 181 206 207</p>
					<p>183 182 207 208</p>
					<p>184 183 208 209</p>
					<p>185 184 209 210</p>
					<p>186 185 210 211</p>
					<p>187 186 211 212</p>
					<p>188 187 212 213</p>
					<p>189 188 213 214</p>
					<p>190 189 214 215</p>
					<p>191 190 215 216</p>
					<p>192 191 216 217</p>
					<p>193 192 217 218</p>
					<p>194 193 218 219</p>
					<p>195 194 219 220</p>
					<p>196 195 220 221</p>
					<p>197 196 221 222</p>
					<p>198 197 222 223</p>
					<p>199 198 223 224</p>
					<p>201 200 225 226</p>
					<p>202 201 226 227</p>
					<p>203 202 227 228</p>
					<p>204 203 228 229</p>
					<p>205 204 229 230</p>
					<p>206 205 230 231</p>
					<p>207 206 231 232</p>
					<p>208 207 232 233</p>
					<p>209 208 233 234</p>
					<p>210 209 234 235</p>
					<p>211 210 235 236</p>
					<p>212 211 236 237</p>
					<p>213 212 237 238</p>
					<p>214 213 238 239</p>
					<p>215 214 239 240</p>
					<p>216 215 240 241</p>
					<p>217 216 241 242</p>
					<p>218 217 242 243</p>
					<p>219 218 243 244</p>
					<p>220 219 244 245</p>
					<p>221 220 245 246</p>
					<p>222 221 246 247</p>
					<p>223 222 247 248</p>
					<p>224 223 248 249</p>
					<p>226 225 250 251</p>
					<p>227 226 251 252</p>
					<p>228 227 252 253</p>
					<p>229 228 253 254</p>
					<p>230 229 254 255</p>
					<p>231 230 255 256</p>
					<p>232 231 256 257</p>
					<p>233 232 257 258</p>
					<p>234 233 258 259</p>
					<p>235 234 259 260</p>
					<p>236 235 260 261</p>
					<p>237 236 261 262</p>
					<p>238 237 262 263</p>
					<p>239 238 263 264</p>
					<p>240 239 264 265</p>
					<p>241 240 265 266</p>
					<p>242 241 266 267</p>
					<p>243 242 267 268</p>
					<p>244 243 268 269</p>
					<p>245 244 269 270</p>
					<p>246 245 270 271</p>
					<p>247 246 271 272</p>
					<p>248 247 272 273</p>
					<p>249 248 273 274</p>
					<p>251 250 275 276</p>
					<p>252 251 276 277</p>
					<p>253 252 277 278</p>
					<p>254 253 278 279</p>
					<p>255 254 279 280</p>
					<p>256 255 280 281</p>
					<p>257 256 281 282</p>
					<p>258 257 282 283</p>
					<p>259 258 283 284</p>
					<p>260 259 284 285</p>
					<p>261 260 285 286</p>
					<p>262 261 286 287</p>
					<p>263 262 287 288</p>
					<p>264 263 288 289</p>
					<p>265 264 289 290</p>
					<p>266 265 290 291</p>
					<p>267 266 291 292</p>
					<p>268 267 292 293</p>
					<p>269 268 293 294</p>
					<p>270 269 294 295</p>
					<p>271 270 295 296</p>
					<p>272 271 296 297</p>
					<p>273 272 297 298</p>
					<p>274 273 298 299</p>
					<p>276 275 300 301</p>
					<p>277 276 301 302</p>
					<p>278 277 302 303</p>
					<p>279 278 303 304</p>
					<p>280 279 304 305</p>
					<p>281 280 305 306</p>
					<p>282 281 306 307</p>
					<p>283 282 307 308</p>
					<p>284 283 308 309</p>
					<p>285 284 309 310</p>
					<p>286 285 310 311</p>
					<p>287 286 311 312</p>
					<p>288 287 312 313</p>
					<p>289 288 313 314</p>
					<p>290 289 314 315</p>
					<p>291 290 315 316</p>
					<p>292 291 316 317</p>
					<p>293 292 317 318</p>
					<p>294 293 318 319</p>
					<p>295 294 319 320</p>
					<p>296 295 320 321</p>
					<p>297 296 321 322</p>
					<p>298 297 322 323</p>
					<p>299 298 323 324</p>
					<p>301 300 325 326</p>
					<p>302 301 326 327</p>
					<p>303 302 327 328</p>
					<p>304 303 328 329</p>
					<p>305 304 329 330</p>
					<p>306 305 330 331</p>
					<p>307 306 331 332</p>
					<p>308 307 332 333</p>
					<p>309 308 333 334</p>
					<p>310 309 334 335</p>
					<p>311 310 335 336</p>
					<p>312 311 336 337</p>
					<p>313 312 337 338</p>
					<p>314 313 338 339</p>
					<p>315 314 339 340</p>
					<p>316 315 340 341</p>
					<p>317 316 341 342</p>
					<p>318 317 342 343</p>
					<p>319 318 343 344</p>
					<p>320 319 344 345</p>
					<p>321 320 345 346</p>
					<p>322 321 346 347</p>
					<p>323 322 347 348</p>
					<p>324 323 348 349</p>
					<p>326 325 350 351</p>
					<p>327 326 351 352</p>
					<p>328 327 352 353</p>
					<p>329 328 353 354</p>
					<p>330 329 354 355</p>
					<p>331 330 355 356</p>
					<p>332 331 356 357</p>
					<p>333 332 357 358</p>
					<p>334 333 358 359</p>
					<p>335 334 359 360</p>
					<p>336 335 360 361</p>
					<p>337 336 361 362</p>
					<p>338 337 362 363</p>
					<p>339 338 363 364</p>
					<p>340 339 364 365</p>
					<p>341 340 365 366</p>
					<p>342 341 366 367</p>
					<p>343 342 367 368</p>
					<p>344 343 368 369</p>
					<p>345 344 369 370</p>
					<p>346 345 370 371</p>
					<p>347 346 371 372</p>
					<p>348 347 372 373</p>
					<p>349 348 373 374</p>
					<p>351 350 375 376</p>
					<p>352 351 376 377</p>
					<p>353 352 377 378</p>
					<p>354 353 378 379</p>
					<p>355 354 379 380</p>
					<p>356 355 380 381</p>
					<p>357 356 381 382</p>
					<p>358 357 382 383</p>
					<p>359 358 383 384</p>
					<p>360 359 384 385</p>
					<p>361 360 385 386</p>
					<p>362 361 386 387</p>
					<p>363 362 387 388</p>
					<p>364 363 388 389</p>
					<p>365 364 389 390</p>
					<p>366 365 390 391</p>
					<p>367 366 391 392</p>
					<p>368 367 392 393</p>
					<p>369 368 393 394</p>
					<p>370 369 394 395</p>
					<p>371 370 395 396</p>
					<p>372 371 396 397</p>
					<p>373 372 397 398</p>
					<p>374 373 398 399</p>
					<p>376 375 400 401</p>
					<p>377 376 401 402</p>
					<p>378 377 402 403</p>
					<p>379 378 403 404</p>
					<p>380 379 404 405</p>
					<p>381 380 405 406</p>
					<p>382 381 406 407</p>
					<p>383 382 407 408</p>
					<p>384 383 408 409</p>
					<p>385 384 409 410</p>
					<p>386 385 410 411</p>
					<p>387 386 411 412</p>
					<p>388 387 412 413</p>
					<p>389 388 413 414</p>
					<p>390 389 414 415</p>
					<p>391 390 415 416</p>
					<p>392 391 416 417</p>
					<p>393 392 417 418</p>
					<p>394 393 418 419</p>
					<p>395 394 419 420</p>
					<p>396 395 420 421</p>
					<p>397 396 421 422</p>
					<p>398 397 422 423</p>
					<p>399 398 423 424</p>
					<p>401 400 425 426</p>
					<p>402 401 426 427</p>
					<p>403 402 427 428</p>
					<p>404 403 428 429</p>
					<p>405 404 429 430</p>
					<p>406 405 430 431</p>
					<p>407 406 431 432</p>
					<p>408 407 432 433</p>
					<p>409 408 433 434</p>
					<p>410 409 434 435</p>
					<p>411 410 435 436</p>
					<p>412 411 436 437</p>
					<p>413 412 437 438</p>
					<p>414 413 438 439</p>
					<p>415 414 439 440</p>
					<p>416 415 440 441</p>
					<p>417 416 441 442</p>
					<p>418 417 442 443</p>
					<p>419 418 443 444</p>
					<p>420 419 444 445</p>
					<p>421 420 445 446</p>
					<p>422 421 446 447</p>
					<p>423 422 447 448</p>
					<p>424 423 448 449</p>
					<p>426 425 450 451</p>
					<p>427 426 451 452</p>
					<p>428 427 452 453</p>
					<p>429 428 453 454</p>
					<p>430 429 454 455</p>
					<p>431 430 455 456</p>
					<p>432 431 456 457</p>
					<p>433 432 457 458</p>
					<p>434 433 458 459</p>
					<p>435 434 459 460</p>
					<p>436 435 460 461</p>
					<p>437 436 461 462</p>
					<p>438 437 462 463</p>
					<p>439 438 463 464</p>
					<p>440 439 464 465</p>
					<p>441 440 465 466</p>
					<p>442 441 466 467</p>
					<p>443 442 467 468</p>
					<p>444 443 468 469</p>
					<p>445 444 469 470</p>
					<p>446 445 470 471</p>
					<p>447 446 471 472</p>
					<p>448 447 472 473</p>
					<p>449 448 473 474</p>
					<p>451 450 475 476</p>
					<p>452 451 476 477</p>
					<p>453 452 477 478</p>
					<p>454 453 478 479</p>
					<p>455 454 479 480</p>
					<p>456 455 480 481</p>
					<p>457 456 481 482</p>
					<p>458 457 482 483</p>
					<p>459 458 483 484</p>
					<p>460 459 484 485</p>
					<p>461 460 485 486</p>
					<p>462 461 486 487</p>
					<p>463 462 487 488</p>
					<p>464 463 488 489</p>
					<p>465 464 489 490</p>
					<p>466 465 490 491</p>
					<p>467 466 491 492</p>
					<p>468 467 492 493</p>
					<p>469 468 493 494</p>
					<p>470 469 494 495</p>
					<p>471 470 495 496</p>
					<p>472 471 496 497</p>
					<p>473 472 497 498</p>
					<p>474 473 498 499</p>
					<p>476 475 500 501</p>
					<p>477 476 501 502</p>
					<p>478 477 502 503</p>
					<p>479 478 503 504</p>
					<p>480 479 504 505</p>
					<p>481 480 505 506</p>
					<p>482 481 506 507</p>
					<p>483 482 507 508</p>
					<p>484 483 508 509</p>
					<p>485 484 509 510</p>
					<p>486 485 510 511</p>
					<p>487 486 511 512</p>
					<p>488 487 512 513</p>
					<p>489 488 513 514</p>
					<p>490 489 514 515</p>
					<p>491 490 515 516</p>
					<p>492 491 516 517</p>
					<p>493 492 517 518</p>
					<p>494 493 518 519</p>
					<p>495 494 519 520</p>
					<p>496 495 520 521</p>
					<p>497 496 521 522</p>
					<p>498 497 522 523</p>
					<p>499 498 523 524</p>
					<p>501 500 525 526</p>
					<p>502 501 526 527</p>
					<p>503 502 527 528</p>
					<p>504 503 528 529</p>
					<p>505 504 529 530</p>
					<p>506 505 530 531</p>
					<p>507 506 531 532</p>
					<p>508 507 532 533</p>
					<p>509 508 533 534</p>
					<p>510 509 534 535</p>
					<p>511 510 535 536</p>
					<p>512 511 536 537</p>
					<p>513 512 537 538</p>
					<p>514 513 538 539</p>
					<p>515 514 539 540</p>
					<p>516 515 540 541</p>
					<p>517 516 541 542</p>
					<p>518 517 542 543</p>
					<p>519 518 543 544</p>
					<p>520 519 544 545</p>
					<p>521 520 545 546</p>
					<p>522 521 546 547</p>
					<p>523 522 547 548</p>
					<p>524 523 548 549</p>
					<p>526 525 550 551</p>
					<p>527 526 551 552</p>
					<p>528 527 552 553</p>
					<p>529 528 553 554</p>
					<p>530 529 554 555</p>
					<p>531 530 555 556</p>
					<p>532 531 556 557</p>
					<p>533 532 557 558</p>
					<p>534 533 558 559</p>
					<p>535 534 559 560</p>
					<p>536 535 560 561</p>
					<p>537 536 561 562</p>
					<p>538 537 562 563</p>
					<p>539 538 563 564</p>
					<p>540 539 564 565</p>
					<p>541 540 565 566</p>
					<p>542 541 566 567</p>
					<p>543 542 567 568</p>
					<p>544 543 568 569</p>
					<p>545 544 569 570</p>
					<p>546 545 570 571</p>
					<p>547 546 571 572</p>
					<p>548 547 572 573</p>
					<p>549 548 573 574</p>
					<p>551 550 575 576</p>
					<p>552 551 576 577</p>
					<p>553 552 577 578</p>
					<p>554 553 578 579</p>
					<p>555 554 579 580</p>
					<p>556 555 580 581</p>
					<p>557 556 581 582</p>
					<p>558 557 582 583</p>
					<p>559 558 583 584</p>
					<p>560 559 584 585</p>
					<p>561 560 585 586</p>
					<p>562 561 586 587</p>
					<p>563 562 587 588</p>
					<p>564 563 588 589</p>
					<p>565 564 589 590</p>
					<p>566 565 590 591</p>
					<p>567 566 591 592</p>
					<p>568 567 592 593</p>
					<p>569 568 593 594</p>
					<p>570 569 594 595</p>
					<p>571 570 595 596</p>
					<p>572 571 596 597</p>
					<p>573 572 597 598</p>
					<p>574 573 598 599</p>
					<p>576 575 600 601</p>
					<p>577 576 601 602</p>
					<p>578 577 602 603</p>
					<p>579 578 603 604</p>
					<p>580 579 604 605</p>
					<p>581 580 605 606</p>
					<p>582 581 606 607</p>
					<p>583 582 607 608</p>
					<p>584 583 608 609</p>
					<p>585 584 609 610</p>
					<p>586 585 610 611</p>
					<p>587 586 611 612</p>
					<p>588 587 612 613</p>
					<p>589 588 613 614</p>
					<p>590 589 614 615</p>
					<p>591 590 615 616</p>
					<p>592 591 616 617</p>
					<p>593 592 617 618</p>
					<p>594 593 618 619</p>
					<p>595 594 619 620</p>
					<p>596 595 620 621</p>
					<p>597 596 621 622</p>
					<p>598 597 622 623</p>
					<p>599 598 623 624</p>
					<p>601 600 625 626</p>
					<p>602 601 626 627</p>
					<p>603 602 627 628</p>
					<p>604 603 628 629</p>
					<p>605 604 629 630</p>
					<p>606 605 630 631</p>
					<p>607 606 631 632</p>
					<p>608 607 632 633</p>
					<p>609 608 633 634</p>
					<p>610 609 634 635</p>
					<p>611 610 635 636</p>
					<p>612 611 636 637</p>
					<p>613 612 637 638</p>
					<p>614 613 638 639</p>
					<p>615 614 639 640</p>
					<p>616 615 640 641</p>
					<p>617 616 641 642</p>
					<p>618 617 642 643</p>
					<p>619 618 643 644</p>
					<p>620 619 644 645</p>
					<p>621 620 645 646</p>
					<p>622 621 646 647</p>
					<p>623 622 647 648</p>
					<p>624 623 648 649</p>
					<p>626 625 650 651</p>
					<p>627 626 651 652</p>
					<p>628 627 652 653</p>
					<p>629 628 653 654</p>
					<p>630 629 654 655</p>
					<p>631 630 655 656</p>
					<p>632 631 656 657</p>
					<p>633 632 657 658</p>
					<p>634 633 658 659</p>
					<p>635 634 659 660</p>
					<p>636 635 660 661</p>
					<p>637 636 661 662</p>
					<p>638 637 662 663</p>
					<p>639 638 663 664</p>
					<p>640 639 664 665</p>
					<p>641 640 665 666</p>
					<p>642 641 666 667</p>
					<p>643 642 667 668</p>
					<p>644 643 668 669</p>
					<p>645 644 669 670</p>
					<p>646 645 670 671</p>
					<p>647 646 671 672</p>
					<p>648 647 672 673</p>
					<p>649 648 673 674</p>
					<p>651 650 675 676</p>
					<p>652 651 676 677</p>
					<p>653 652 677 678</p>
					<p>654 653 678 679</p>
					<p>655 654 679 680</p>
					<p>656 655 680 681</p>
					<p>657 656 681 682</p>
					<p>658 657 682 683</p>
					<p>659 658 683 684</p>
					<p>660 659 684 685</p>
					<p>661 660 685 686</p>
					<p>662 661 686 687</p>
					<p>663 662 687 688</p>
					<p>664 663 688 689</p>
					<p>665 664 689 690</p>
					<p>666 665 690 691</p>
					<p>667 666 691 692</p>
					<p>668 667 692 693</p>
					<p>669 668 693 694</p>
					<p>670 669 694 695</p>
					<p>671 670 695 696</p>
					<p>672 671 696 697</p>
					<p>673 672 697 698</p>
					<p>674 673 698 699</p>
					<p>676 675 700 701</p>
					<p>677 676 701 702</p>
					<p>678 677 702 703</p>
					<p>679 678 703 704</p>
					<p>680 679 704 705</p>
					<p>681 680 705 706</p>
					<p>682 681 706 707</p>
					<p>683 682 707 708</p>
					<p>684 683 708 709</p>
					<p>685 684 709 710</p>
					<p>686 685 710 711</p>
					<p>687 686 711 712</p>
					<p>688 687 712 713</p>
					<p>689 688 713 714</p>
					<p>690 689 714 715</p>
					<p>691 690 715 716</p>
					<p>692 691 716 717</p>
					<p>693 692 717 718</p>
					<p>694 693 718 719</p>
					<p>695 694 719 720</p>
					<p>696 695 720 721</p>
					<p>697 696 721 722</p>
					<p>698 697 722 723</p>
					<p>699 698 723 724</p>
					<p>701 700 725 726</p>
					<p>702 701 726 727</p>
					<p>703 702 727 728</p>
					<p>704 703 728 729</p>
					<p>705 704 729 730</p>
					<p>706 705 730 731</p>
					<p>707 706 731 732</p>
					<p>708 707 732 733</p>
					<p>709 708 733 734</p>
					<p>710 709 734 735</p>
					<p>711 710 735 736</p>
					<p>712 711 736 737</p>
					<p>713 712 737 738</p>
					<p>714 713 738 739</p>
					<p>715 714 739 740</p>
					<p>716 715 740 741</p>
					<p>717 716 741 742</p>
					<p>718 717 742 743</p>
					<p>719 718 743 744</p>
					<p>720 719 744 745</p>
					<p>721 720 745 746</p>
					<p>722 721 746 747</p>
					<p>723 722 747 748</p>
					<p>724 723 748 749</p>
					<p>726 725 750 751</p>
					<p>727 726 751 752</p>
					<p>728 727 752 753</p>
					<p>729 728 753 754</p>
					<p>730 729 754 755</p>
					<p>731 730 755 756</p>
					<p>732 731 756 757</p>
					<p>733 732 757 758</p>
					<p>734 733 758 759</p>
					<p>735 734 759 760</p>
					<p>736 735 760 761</p>
					<p>737 736 761 762</p>
					<p>738 737 762 763</p>
					<p>739 738 763 764</p>
					<p>740 739 764 765</p>
					<p>741 740 765 766</p>
					<p>742 741 766 767</p>
					<p>743 742 767 768</p>
					<p>744 743 768 769</p>
					<p>745 744 769 770</p>
					<p>746 745 770 771</p>
					<p>747 746 771 772</p>
					<p>748 747 772 773</p>
					<p>749 748 773 774</p>
					<p>751 750 775 776</p>
					<p>752 751 776 777</p>
					<p>753 752 777 778</p>
					<p>754 753 778 779</p>
					<p>755 754 779 780</p>
					<p>756 755 780 781</p>
					<p>757 756 781 782</p>
					<p>758 757 782 783</p>
					<p>759 758 783 784</p>
					<p>760 759 784 785</p>
					<p>761 760 785 786</p>
					<p>762 761 786 787</p>
					<p>763 762 787 788</p>
					<p>764 763 788 789</p>
					<p>765 764 789 790</p>
					<p>766 765 790 791</p>
					<p>767 766 791 792</p>
					<p>768 767 792 793</p>
					<p>769 768 793 794</p>
					<p>770 769 794 795</p>
					<p>771 770 795 796</p>
					<p>772 771 796 797</p>
					<p>773 772 797 798</p>
					<p>774 773 798 799</p>
					<p>776 775 800 801</p>
					<p>777 776 801 802</p>
					<p>778 777 802 803</p>
					<p>779 778 803 804</p>
					<p>780 779 804 805</p>
					<p>781 780 805 806</p>
					<p>782 781 806 807</p>
					<p>783 782 807 808</p>
					<p>784 783 808 809</p>
					<p>785 784 809 810</p>
					<p>786 785 810 811</p>
					<p>787 786 811 812</p>
					<p>788 787 812 813</p>
					<p>789 788 813 814</p>
					<p>790 789 814 815</p>
					<p>791 790 815 816</p>
					<p>792 791 816 817</p>
					<p>793 792 817 818</p>
					<p>794 793 818 819</p>
					<p>795 794 819 820</p>
					<p>796 795 820 821</p>
					<p>797 796 821 822</p>
					<p>798 797 822 823</p>
					<p>799 798 823 824</p>
				</polygons>
			</mesh>
		</geometry>
	</library_geometries>
	<scene>
		<instance_visual_scene url="#DefaultScene"/>
	</scene>
</COLLADA>
