^C:\USERS\CHRISTOPHER\DOWNLOADS\APEXSDK-1.2.1-BUILD22-CL13879708-PHYSX_3.2.1-WIN-VC10-BIN\SHARED\SAMPLEFRAMEWORK\PLATFORM\COMPILER\VC10WIN32-PHYSX_3.2\BUILD\WIN32\SAMPLEPLATFORM-MT\CHECKED\SAMPLEPLATFORM.OBJ|C:\USERS\CHRISTOPHER\DOWNLOADS\APEXSDK-1.2.1-BUILD22-CL13879708-PHYSX_3.2.1-WIN-VC10-BIN\SHARED\SAMPLEFRAMEWORK\PLATFORM\COMPILER\VC10WIN32-PHYSX_3.2\BUILD\WIN32\SAMPLEPLATFORM-MT\CHECKED\SAMPLEUSERINPUT.OBJ|C:\USERS\CHRISTOPHER\DOWNLOADS\APEXSDK-1.2.1-BUILD22-CL13879708-PHYSX_3.2.1-WIN-VC10-BIN\SHARED\SAMPLEFRAMEWORK\PLATFORM\COMPILER\VC10WIN32-PHYSX_3.2\BUILD\WIN32\SAMPLEPLATFORM-MT\CHECKED\WINDOWSSAMPLEPLATFORM.OBJ|C:\USERS\CHRISTOPHER\DOWNLOADS\APEXSDK-1.2.1-BUILD22-CL13879708-PHYSX_3.2.1-WIN-VC10-BIN\SHARED\SAMPLEFRAMEWORK\PLATFORM\COMPILER\VC10WIN32-PHYSX_3.2\BUILD\WIN32\SAMPLEPLATFORM-MT\CHECKED\WINDOWSSAMPLEUSERINPUT.OBJ
C:\USERS\CHRISTOPHER\DOWNLOADS\APEXSDK-1.2.1-BUILD22-CL13879708-PHYSX_3.2.1-WIN-VC10-BIN\SHARED\SAMPLEFRAMEWORK\PLATFORM\LIB\VC10WIN32\SAMPLEPLATFORM-MTCHECKED.LIB
^F:\CS522\NVIDIA_PHYSX_FALL2012\CORE\DEPENDENCIES\APEXSDK-1.2.1-BUILD22-CL13879708-PHYSX_3.2.1-WIN-VC10-BIN\SHARED\SAMPLEFRAMEWORK\PLATFORM\COMPILER\VC10WIN32-PHYSX_3.2\BUILD\WIN32\SAMPLEPLATFORM-MT\CHECKED\SAMPLEPLATFORM.OBJ|F:\CS522\NVIDIA_PHYSX_FALL2012\CORE\DEPENDENCIES\APEXSDK-1.2.1-BUILD22-CL13879708-PHYSX_3.2.1-WIN-VC10-BIN\SHARED\SAMPLEFRAMEWORK\PLATFORM\COMPILER\VC10WIN32-PHYSX_3.2\BUILD\WIN32\SAMPLEPLATFORM-MT\CHECKED\SAMPLEUSERINPUT.OBJ|F:\CS522\NVIDIA_PHYSX_FALL2012\CORE\DEPENDENCIES\APEXSDK-1.2.1-BUILD22-CL13879708-PHYSX_3.2.1-WIN-VC10-BIN\SHARED\SAMPLEFRAMEWORK\PLATFORM\COMPILER\VC10WIN32-PHYSX_3.2\BUILD\WIN32\SAMPLEPLATFORM-MT\CHECKED\WINDOWSSAMPLEPLATFORM.OBJ|F:\CS522\NVIDIA_PHYSX_FALL2012\CORE\DEPENDENCIES\APEXSDK-1.2.1-BUILD22-CL13879708-PHYSX_3.2.1-WIN-VC10-BIN\SHARED\SAMPLEFRAMEWORK\PLATFORM\COMPILER\VC10WIN32-PHYSX_3.2\BUILD\WIN32\SAMPLEPLATFORM-MT\CHECKED\WINDOWSSAMPLEUSERINPUT.OBJ
F:\CS522\NVIDIA_PHYSX_FALL2012\CORE\DEPENDENCIES\APEXSDK-1.2.1-BUILD22-CL13879708-PHYSX_3.2.1-WIN-VC10-BIN\SHARED\SAMPLEFRAMEWORK\PLATFORM\LIB\VC10WIN32\SAMPLEPLATFORM-MTCHECKED.LIB
