^C:\USERS\CHRISTOPHER\DOWNLOADS\APEXSDK-1.2.1-BUILD22-CL13879708-PHYSX_3.2.1-WIN-VC10-BIN\SAMPLES\COMPILER\RESOURCE\SAMPLEICON.RC
/l"0x0409" /nologo /fo"build//Win32/SimpleTurbulence/checked\SampleIcon.res" ..\resource\SampleIcon.rc /l"0x0409" /nologo /fo"build//Win32/SimpleTurbulence/checked\SampleIcon.res" C:\USERS\CHRISTOPHER\DOWNLOADS\APEXSDK-1.2.1-BUILD22-CL13879708-PHYSX_3.2.1-WIN-VC10-BIN\SAMPLES\COMPILER\RESOURCE\SAMPLEICON.RC
^F:\CS522\NVIDIA_PHYSX_FALL2012\CORE\DEPENDENCIES\APEXSDK-1.2.1-BUILD22-CL13879708-PHYSX_3.2.1-WIN-VC10-BIN\SAMPLES\COMPILER\RESOURCE\SAMPLEICON.RC
/l"0x0409" /nologo /fo"build//Win32/SimpleTurbulence/checked\SampleIcon.res" ..\resource\SampleIcon.rc /l"0x0409" /nologo /fo"build//Win32/SimpleTurbulence/checked\SampleIcon.res" F:\CS522\NVIDIA_PHYSX_FALL2012\CORE\DEPENDENCIES\APEXSDK-1.2.1-BUILD22-CL13879708-PHYSX_3.2.1-WIN-VC10-BIN\SAMPLES\COMPILER\RESOURCE\SAMPLEICON.RC
