^C:\USERS\CHRISTOPHER\DOWNLOADS\APEXSDK-1.2.1-BUILD22-CL13879708-PHYSX_3.2.1-WIN-VC10-BIN\SAMPLES\COMPILER\RESOURCE\SAMPLEICON.RC
C:\USERS\CHRISTOPHER\DOWNLOADS\APEXSDK-1.2.1-BUILD22-CL13879708-PHYSX_3.2.1-WIN-VC10-BIN\SAMPLES\COMPILER\VC10WIN32-PHYSX_3.2\BUILD\WIN32\SIMPLETURBULENCE\CHECKED\SAMPLEICON.RES
^F:\CS522\NVIDIA_PHYSX_FALL2012\CORE\DEPENDENCIES\APEXSDK-1.2.1-BUILD22-CL13879708-PHYSX_3.2.1-WIN-VC10-BIN\SAMPLES\COMPILER\RESOURCE\SAMPLEICON.RC
F:\CS522\NVIDIA_PHYSX_FALL2012\CORE\DEPENDENCIES\APEXSDK-1.2.1-BUILD22-CL13879708-PHYSX_3.2.1-WIN-VC10-BIN\SAMPLES\COMPILER\VC10WIN32-PHYSX_3.2\BUILD\WIN32\SIMPLETURBULENCE\CHECKED\SAMPLEICON.RES
