^C:\USERS\CHRISTOPHER\DOWNLOADS\APEXSDK-1.2.1-BUILD22-CL13879708-PHYSX_3.2.1-WIN-VC10-BIN\SHARED\SAMPLEFRAMEWORK\FRAMEWORK\SRC\AGPERFMONEVENTSRCAPI.CPP|C:\USERS\CHRISTOPHER\DOWNLOADS\APEXSDK-1.2.1-BUILD22-CL13879708-PHYSX_3.2.1-WIN-VC10-BIN\SHARED\SAMPLEFRAMEWORK\FRAMEWORK\SRC\NV_DDS.CPP|C:\USERS\CHRISTOPHER\DOWNLOADS\APEXSDK-1.2.1-BUILD22-CL13879708-PHYSX_3.2.1-WIN-VC10-BIN\SHARED\SAMPLEFRAMEWORK\FRAMEWORK\SRC\ODBLOCK.CPP|C:\USERS\CHRISTOPHER\DOWNLOADS\APEXSDK-1.2.1-BUILD22-CL13879708-PHYSX_3.2.1-WIN-VC10-BIN\SHARED\SAMPLEFRAMEWORK\FRAMEWORK\SRC\SAMPLEAPPLICATION.CPP|C:\USERS\CHRISTOPHER\DOWNLOADS\APEXSDK-1.2.1-BUILD22-CL13879708-PHYSX_3.2.1-WIN-VC10-BIN\SHARED\SAMPLEFRAMEWORK\FRAMEWORK\SRC\SAMPLEASSET.CPP|C:\USERS\CHRISTOPHER\DOWNLOADS\APEXSDK-1.2.1-BUILD22-CL13879708-PHYSX_3.2.1-WIN-VC10-BIN\SHARED\SAMPLEFRAMEWORK\FRAMEWORK\SRC\SAMPLEASSETMANAGER.CPP|C:\USERS\CHRISTOPHER\DOWNLOADS\APEXSDK-1.2.1-BUILD22-CL13879708-PHYSX_3.2.1-WIN-VC10-BIN\SHARED\SAMPLEFRAMEWORK\FRAMEWORK\SRC\SAMPLECOMMANDLINE.CPP|C:\USERS\CHRISTOPHER\DOWNLOADS\APEXSDK-1.2.1-BUILD22-CL13879708-PHYSX_3.2.1-WIN-VC10-BIN\SHARED\SAMPLEFRAMEWORK\FRAMEWORK\SRC\SAMPLEDIRMANAGER.CPP|C:\USERS\CHRISTOPHER\DOWNLOADS\APEXSDK-1.2.1-BUILD22-CL13879708-PHYSX_3.2.1-WIN-VC10-BIN\SHARED\SAMPLEFRAMEWORK\FRAMEWORK\SRC\SAMPLEINPUTASSET.CPP|C:\USERS\CHRISTOPHER\DOWNLOADS\APEXSDK-1.2.1-BUILD22-CL13879708-PHYSX_3.2.1-WIN-VC10-BIN\SHARED\SAMPLEFRAMEWORK\FRAMEWORK\SRC\SAMPLELINEDEBUGRENDER.CPP|C:\USERS\CHRISTOPHER\DOWNLOADS\APEXSDK-1.2.1-BUILD22-CL13879708-PHYSX_3.2.1-WIN-VC10-BIN\SHARED\SAMPLEFRAMEWORK\FRAMEWORK\SRC\SAMPLEMATERIALASSET.CPP|C:\USERS\CHRISTOPHER\DOWNLOADS\APEXSDK-1.2.1-BUILD22-CL13879708-PHYSX_3.2.1-WIN-VC10-BIN\SHARED\SAMPLEFRAMEWORK\FRAMEWORK\SRC\SAMPLEPOINTDEBUGRENDER.CPP|C:\USERS\CHRISTOPHER\DOWNLOADS\APEXSDK-1.2.1-BUILD22-CL13879708-PHYSX_3.2.1-WIN-VC10-BIN\SHARED\SAMPLEFRAMEWORK\FRAMEWORK\SRC\SAMPLEPXPROFILEZONE.CPP|C:\USERS\CHRISTOPHER\DOWNLOADS\APEXSDK-1.2.1-BUILD22-CL13879708-PHYSX_3.2.1-WIN-VC10-BIN\SHARED\SAMPLEFRAMEWORK\FRAMEWORK\SRC\SAMPLETEXTUREASSET.CPP|C:\USERS\CHRISTOPHER\DOWNLOADS\APEXSDK-1.2.1-BUILD22-CL13879708-PHYSX_3.2.1-WIN-VC10-BIN\SHARED\SAMPLEFRAMEWORK\FRAMEWORK\SRC\SAMPLETREE.CPP|C:\USERS\CHRISTOPHER\DOWNLOADS\APEXSDK-1.2.1-BUILD22-CL13879708-PHYSX_3.2.1-WIN-VC10-BIN\SHARED\SAMPLEFRAMEWORK\FRAMEWORK\SRC\SAMPLETRIANGLEDEBUGRENDER.CPP|C:\USERS\CHRISTOPHER\DOWNLOADS\APEXSDK-1.2.1-BUILD22-CL13879708-PHYSX_3.2.1-WIN-VC10-BIN\SHARED\SAMPLEFRAMEWORK\FRAMEWORK\SRC\TARGA.CPP|C:\USERS\CHRISTOPHER\DOWNLOADS\APEXSDK-1.2.1-BUILD22-CL13879708-PHYSX_3.2.1-WIN-VC10-BIN\SHARED\SAMPLEFRAMEWORK\FRAMEWORK\SRC\WINDOWS\WINDOWSSAMPLEASSETMANAGER.CPP
C:\USERS\CHRISTOPHER\DOWNLOADS\APEXSDK-1.2.1-BUILD22-CL13879708-PHYSX_3.2.1-WIN-VC10-BIN\SHARED\SAMPLEFRAMEWORK\FRAMEWORK\COMPILER\VC10WIN32-PHYSX_3.2\BUILD\WIN32\SAMPLEFRAMEWORK-MT\CHECKED\ODBLOCK.OBJ
C:\USERS\CHRISTOPHER\DOWNLOADS\APEXSDK-1.2.1-BUILD22-CL13879708-PHYSX_3.2.1-WIN-VC10-BIN\SHARED\SAMPLEFRAMEWORK\FRAMEWORK\COMPILER\VC10WIN32-PHYSX_3.2\BUILD\WIN32\SAMPLEFRAMEWORK-MT\CHECKED\SAMPLELINEDEBUGRENDER.OBJ
C:\USERS\CHRISTOPHER\DOWNLOADS\APEXSDK-1.2.1-BUILD22-CL13879708-PHYSX_3.2.1-WIN-VC10-BIN\SHARED\SAMPLEFRAMEWORK\FRAMEWORK\COMPILER\VC10WIN32-PHYSX_3.2\BUILD\WIN32\SAMPLEFRAMEWORK-MT\CHECKED\SAMPLEAPPLICATION.OBJ
C:\USERS\CHRISTOPHER\DOWNLOADS\APEXSDK-1.2.1-BUILD22-CL13879708-PHYSX_3.2.1-WIN-VC10-BIN\SHARED\SAMPLEFRAMEWORK\FRAMEWORK\COMPILER\VC10WIN32-PHYSX_3.2\BUILD\WIN32\SAMPLEFRAMEWORK-MT\CHECKED\WINDOWSSAMPLEASSETMANAGER.OBJ
C:\USERS\CHRISTOPHER\DOWNLOADS\APEXSDK-1.2.1-BUILD22-CL13879708-PHYSX_3.2.1-WIN-VC10-BIN\SHARED\SAMPLEFRAMEWORK\FRAMEWORK\COMPILER\VC10WIN32-PHYSX_3.2\BUILD\WIN32\SAMPLEFRAMEWORK-MT\CHECKED\SAMPLEMATERIALASSET.OBJ
C:\USERS\CHRISTOPHER\DOWNLOADS\APEXSDK-1.2.1-BUILD22-CL13879708-PHYSX_3.2.1-WIN-VC10-BIN\SHARED\SAMPLEFRAMEWORK\FRAMEWORK\COMPILER\VC10WIN32-PHYSX_3.2\BUILD\WIN32\SAMPLEFRAMEWORK-MT\CHECKED\SAMPLECOMMANDLINE.OBJ
C:\USERS\CHRISTOPHER\DOWNLOADS\APEXSDK-1.2.1-BUILD22-CL13879708-PHYSX_3.2.1-WIN-VC10-BIN\SHARED\SAMPLEFRAMEWORK\FRAMEWORK\COMPILER\VC10WIN32-PHYSX_3.2\BUILD\WIN32\SAMPLEFRAMEWORK-MT\CHECKED\SAMPLEPOINTDEBUGRENDER.OBJ
C:\USERS\CHRISTOPHER\DOWNLOADS\APEXSDK-1.2.1-BUILD22-CL13879708-PHYSX_3.2.1-WIN-VC10-BIN\SHARED\SAMPLEFRAMEWORK\FRAMEWORK\COMPILER\VC10WIN32-PHYSX_3.2\BUILD\WIN32\SAMPLEFRAMEWORK-MT\CHECKED\SAMPLEASSETMANAGER.OBJ
C:\USERS\CHRISTOPHER\DOWNLOADS\APEXSDK-1.2.1-BUILD22-CL13879708-PHYSX_3.2.1-WIN-VC10-BIN\SHARED\SAMPLEFRAMEWORK\FRAMEWORK\COMPILER\VC10WIN32-PHYSX_3.2\BUILD\WIN32\SAMPLEFRAMEWORK-MT\CHECKED\SAMPLEASSET.OBJ
C:\USERS\CHRISTOPHER\DOWNLOADS\APEXSDK-1.2.1-BUILD22-CL13879708-PHYSX_3.2.1-WIN-VC10-BIN\SHARED\SAMPLEFRAMEWORK\FRAMEWORK\COMPILER\VC10WIN32-PHYSX_3.2\BUILD\WIN32\SAMPLEFRAMEWORK-MT\CHECKED\SAMPLEDIRMANAGER.OBJ
C:\USERS\CHRISTOPHER\DOWNLOADS\APEXSDK-1.2.1-BUILD22-CL13879708-PHYSX_3.2.1-WIN-VC10-BIN\SHARED\SAMPLEFRAMEWORK\FRAMEWORK\COMPILER\VC10WIN32-PHYSX_3.2\BUILD\WIN32\SAMPLEFRAMEWORK-MT\CHECKED\TARGA.OBJ
C:\USERS\CHRISTOPHER\DOWNLOADS\APEXSDK-1.2.1-BUILD22-CL13879708-PHYSX_3.2.1-WIN-VC10-BIN\SHARED\SAMPLEFRAMEWORK\FRAMEWORK\COMPILER\VC10WIN32-PHYSX_3.2\BUILD\WIN32\SAMPLEFRAMEWORK-MT\CHECKED\AGPERFMONEVENTSRCAPI.OBJ
C:\USERS\CHRISTOPHER\DOWNLOADS\APEXSDK-1.2.1-BUILD22-CL13879708-PHYSX_3.2.1-WIN-VC10-BIN\SHARED\SAMPLEFRAMEWORK\FRAMEWORK\COMPILER\VC10WIN32-PHYSX_3.2\BUILD\WIN32\SAMPLEFRAMEWORK-MT\CHECKED\SAMPLEINPUTASSET.OBJ
C:\USERS\CHRISTOPHER\DOWNLOADS\APEXSDK-1.2.1-BUILD22-CL13879708-PHYSX_3.2.1-WIN-VC10-BIN\SHARED\SAMPLEFRAMEWORK\FRAMEWORK\COMPILER\VC10WIN32-PHYSX_3.2\BUILD\WIN32\SAMPLEFRAMEWORK-MT\CHECKED\SAMPLETEXTUREASSET.OBJ
C:\USERS\CHRISTOPHER\DOWNLOADS\APEXSDK-1.2.1-BUILD22-CL13879708-PHYSX_3.2.1-WIN-VC10-BIN\SHARED\SAMPLEFRAMEWORK\FRAMEWORK\COMPILER\VC10WIN32-PHYSX_3.2\BUILD\WIN32\SAMPLEFRAMEWORK-MT\CHECKED\NV_DDS.OBJ
C:\USERS\CHRISTOPHER\DOWNLOADS\APEXSDK-1.2.1-BUILD22-CL13879708-PHYSX_3.2.1-WIN-VC10-BIN\SHARED\SAMPLEFRAMEWORK\FRAMEWORK\COMPILER\VC10WIN32-PHYSX_3.2\BUILD\WIN32\SAMPLEFRAMEWORK-MT\CHECKED\SAMPLEPXPROFILEZONE.OBJ
C:\USERS\CHRISTOPHER\DOWNLOADS\APEXSDK-1.2.1-BUILD22-CL13879708-PHYSX_3.2.1-WIN-VC10-BIN\SHARED\SAMPLEFRAMEWORK\FRAMEWORK\COMPILER\VC10WIN32-PHYSX_3.2\BUILD\WIN32\SAMPLEFRAMEWORK-MT\CHECKED\SAMPLETREE.OBJ
C:\USERS\CHRISTOPHER\DOWNLOADS\APEXSDK-1.2.1-BUILD22-CL13879708-PHYSX_3.2.1-WIN-VC10-BIN\SHARED\SAMPLEFRAMEWORK\FRAMEWORK\COMPILER\VC10WIN32-PHYSX_3.2\BUILD\WIN32\SAMPLEFRAMEWORK-MT\CHECKED\SAMPLETRIANGLEDEBUGRENDER.OBJ
^C:\USERS\CHRISTOPHER\DOWNLOADS\APEXSDK-1.2.1-BUILD22-CL13879708-PHYSX_3.2.1-WIN-VC10-BIN\SHARED\SAMPLEFRAMEWORK\FRAMEWORK\SRC\WINDOWS\WINDOWSSAMPLEASSETMANAGER.CPP
C:\USERS\CHRISTOPHER\DOWNLOADS\APEXSDK-1.2.1-BUILD22-CL13879708-PHYSX_3.2.1-WIN-VC10-BIN\SHARED\SAMPLEFRAMEWORK\FRAMEWORK\COMPILER\VC10WIN32-PHYSX_3.2\BUILD\WIN32\SAMPLEFRAMEWORK-MT\CHECKED\VC100.PDB
^C:\USERS\CHRISTOPHER\DOWNLOADS\APEXSDK-1.2.1-BUILD22-CL13879708-PHYSX_3.2.1-WIN-VC10-BIN\SHARED\SAMPLEFRAMEWORK\FRAMEWORK\SRC\AGPERFMONEVENTSRCAPI.CPP
C:\USERS\CHRISTOPHER\DOWNLOADS\APEXSDK-1.2.1-BUILD22-CL13879708-PHYSX_3.2.1-WIN-VC10-BIN\SHARED\SAMPLEFRAMEWORK\FRAMEWORK\COMPILER\VC10WIN32-PHYSX_3.2\BUILD\WIN32\SAMPLEFRAMEWORK-MT\CHECKED\VC100.PDB
^C:\USERS\CHRISTOPHER\DOWNLOADS\APEXSDK-1.2.1-BUILD22-CL13879708-PHYSX_3.2.1-WIN-VC10-BIN\SHARED\SAMPLEFRAMEWORK\FRAMEWORK\SRC\NV_DDS.CPP
C:\USERS\CHRISTOPHER\DOWNLOADS\APEXSDK-1.2.1-BUILD22-CL13879708-PHYSX_3.2.1-WIN-VC10-BIN\SHARED\SAMPLEFRAMEWORK\FRAMEWORK\COMPILER\VC10WIN32-PHYSX_3.2\BUILD\WIN32\SAMPLEFRAMEWORK-MT\CHECKED\VC100.PDB
^C:\USERS\CHRISTOPHER\DOWNLOADS\APEXSDK-1.2.1-BUILD22-CL13879708-PHYSX_3.2.1-WIN-VC10-BIN\SHARED\SAMPLEFRAMEWORK\FRAMEWORK\SRC\ODBLOCK.CPP
C:\USERS\CHRISTOPHER\DOWNLOADS\APEXSDK-1.2.1-BUILD22-CL13879708-PHYSX_3.2.1-WIN-VC10-BIN\SHARED\SAMPLEFRAMEWORK\FRAMEWORK\COMPILER\VC10WIN32-PHYSX_3.2\BUILD\WIN32\SAMPLEFRAMEWORK-MT\CHECKED\VC100.PDB
^C:\USERS\CHRISTOPHER\DOWNLOADS\APEXSDK-1.2.1-BUILD22-CL13879708-PHYSX_3.2.1-WIN-VC10-BIN\SHARED\SAMPLEFRAMEWORK\FRAMEWORK\SRC\SAMPLEAPPLICATION.CPP
C:\USERS\CHRISTOPHER\DOWNLOADS\APEXSDK-1.2.1-BUILD22-CL13879708-PHYSX_3.2.1-WIN-VC10-BIN\SHARED\SAMPLEFRAMEWORK\FRAMEWORK\COMPILER\VC10WIN32-PHYSX_3.2\BUILD\WIN32\SAMPLEFRAMEWORK-MT\CHECKED\VC100.PDB
^C:\USERS\CHRISTOPHER\DOWNLOADS\APEXSDK-1.2.1-BUILD22-CL13879708-PHYSX_3.2.1-WIN-VC10-BIN\SHARED\SAMPLEFRAMEWORK\FRAMEWORK\SRC\SAMPLEASSET.CPP
C:\USERS\CHRISTOPHER\DOWNLOADS\APEXSDK-1.2.1-BUILD22-CL13879708-PHYSX_3.2.1-WIN-VC10-BIN\SHARED\SAMPLEFRAMEWORK\FRAMEWORK\COMPILER\VC10WIN32-PHYSX_3.2\BUILD\WIN32\SAMPLEFRAMEWORK-MT\CHECKED\VC100.PDB
^C:\USERS\CHRISTOPHER\DOWNLOADS\APEXSDK-1.2.1-BUILD22-CL13879708-PHYSX_3.2.1-WIN-VC10-BIN\SHARED\SAMPLEFRAMEWORK\FRAMEWORK\SRC\SAMPLEASSETMANAGER.CPP
C:\USERS\CHRISTOPHER\DOWNLOADS\APEXSDK-1.2.1-BUILD22-CL13879708-PHYSX_3.2.1-WIN-VC10-BIN\SHARED\SAMPLEFRAMEWORK\FRAMEWORK\COMPILER\VC10WIN32-PHYSX_3.2\BUILD\WIN32\SAMPLEFRAMEWORK-MT\CHECKED\VC100.PDB
^C:\USERS\CHRISTOPHER\DOWNLOADS\APEXSDK-1.2.1-BUILD22-CL13879708-PHYSX_3.2.1-WIN-VC10-BIN\SHARED\SAMPLEFRAMEWORK\FRAMEWORK\SRC\SAMPLECOMMANDLINE.CPP
C:\USERS\CHRISTOPHER\DOWNLOADS\APEXSDK-1.2.1-BUILD22-CL13879708-PHYSX_3.2.1-WIN-VC10-BIN\SHARED\SAMPLEFRAMEWORK\FRAMEWORK\COMPILER\VC10WIN32-PHYSX_3.2\BUILD\WIN32\SAMPLEFRAMEWORK-MT\CHECKED\VC100.PDB
^C:\USERS\CHRISTOPHER\DOWNLOADS\APEXSDK-1.2.1-BUILD22-CL13879708-PHYSX_3.2.1-WIN-VC10-BIN\SHARED\SAMPLEFRAMEWORK\FRAMEWORK\SRC\SAMPLEDIRMANAGER.CPP
C:\USERS\CHRISTOPHER\DOWNLOADS\APEXSDK-1.2.1-BUILD22-CL13879708-PHYSX_3.2.1-WIN-VC10-BIN\SHARED\SAMPLEFRAMEWORK\FRAMEWORK\COMPILER\VC10WIN32-PHYSX_3.2\BUILD\WIN32\SAMPLEFRAMEWORK-MT\CHECKED\VC100.PDB
^C:\USERS\CHRISTOPHER\DOWNLOADS\APEXSDK-1.2.1-BUILD22-CL13879708-PHYSX_3.2.1-WIN-VC10-BIN\SHARED\SAMPLEFRAMEWORK\FRAMEWORK\SRC\SAMPLEINPUTASSET.CPP
C:\USERS\CHRISTOPHER\DOWNLOADS\APEXSDK-1.2.1-BUILD22-CL13879708-PHYSX_3.2.1-WIN-VC10-BIN\SHARED\SAMPLEFRAMEWORK\FRAMEWORK\COMPILER\VC10WIN32-PHYSX_3.2\BUILD\WIN32\SAMPLEFRAMEWORK-MT\CHECKED\VC100.PDB
^C:\USERS\CHRISTOPHER\DOWNLOADS\APEXSDK-1.2.1-BUILD22-CL13879708-PHYSX_3.2.1-WIN-VC10-BIN\SHARED\SAMPLEFRAMEWORK\FRAMEWORK\SRC\SAMPLELINEDEBUGRENDER.CPP
C:\USERS\CHRISTOPHER\DOWNLOADS\APEXSDK-1.2.1-BUILD22-CL13879708-PHYSX_3.2.1-WIN-VC10-BIN\SHARED\SAMPLEFRAMEWORK\FRAMEWORK\COMPILER\VC10WIN32-PHYSX_3.2\BUILD\WIN32\SAMPLEFRAMEWORK-MT\CHECKED\VC100.PDB
^C:\USERS\CHRISTOPHER\DOWNLOADS\APEXSDK-1.2.1-BUILD22-CL13879708-PHYSX_3.2.1-WIN-VC10-BIN\SHARED\SAMPLEFRAMEWORK\FRAMEWORK\SRC\SAMPLEMATERIALASSET.CPP
C:\USERS\CHRISTOPHER\DOWNLOADS\APEXSDK-1.2.1-BUILD22-CL13879708-PHYSX_3.2.1-WIN-VC10-BIN\SHARED\SAMPLEFRAMEWORK\FRAMEWORK\COMPILER\VC10WIN32-PHYSX_3.2\BUILD\WIN32\SAMPLEFRAMEWORK-MT\CHECKED\VC100.PDB
^C:\USERS\CHRISTOPHER\DOWNLOADS\APEXSDK-1.2.1-BUILD22-CL13879708-PHYSX_3.2.1-WIN-VC10-BIN\SHARED\SAMPLEFRAMEWORK\FRAMEWORK\SRC\SAMPLEPOINTDEBUGRENDER.CPP
C:\USERS\CHRISTOPHER\DOWNLOADS\APEXSDK-1.2.1-BUILD22-CL13879708-PHYSX_3.2.1-WIN-VC10-BIN\SHARED\SAMPLEFRAMEWORK\FRAMEWORK\COMPILER\VC10WIN32-PHYSX_3.2\BUILD\WIN32\SAMPLEFRAMEWORK-MT\CHECKED\VC100.PDB
^C:\USERS\CHRISTOPHER\DOWNLOADS\APEXSDK-1.2.1-BUILD22-CL13879708-PHYSX_3.2.1-WIN-VC10-BIN\SHARED\SAMPLEFRAMEWORK\FRAMEWORK\SRC\SAMPLEPXPROFILEZONE.CPP
C:\USERS\CHRISTOPHER\DOWNLOADS\APEXSDK-1.2.1-BUILD22-CL13879708-PHYSX_3.2.1-WIN-VC10-BIN\SHARED\SAMPLEFRAMEWORK\FRAMEWORK\COMPILER\VC10WIN32-PHYSX_3.2\BUILD\WIN32\SAMPLEFRAMEWORK-MT\CHECKED\VC100.PDB
^C:\USERS\CHRISTOPHER\DOWNLOADS\APEXSDK-1.2.1-BUILD22-CL13879708-PHYSX_3.2.1-WIN-VC10-BIN\SHARED\SAMPLEFRAMEWORK\FRAMEWORK\SRC\SAMPLETEXTUREASSET.CPP
C:\USERS\CHRISTOPHER\DOWNLOADS\APEXSDK-1.2.1-BUILD22-CL13879708-PHYSX_3.2.1-WIN-VC10-BIN\SHARED\SAMPLEFRAMEWORK\FRAMEWORK\COMPILER\VC10WIN32-PHYSX_3.2\BUILD\WIN32\SAMPLEFRAMEWORK-MT\CHECKED\VC100.PDB
^C:\USERS\CHRISTOPHER\DOWNLOADS\APEXSDK-1.2.1-BUILD22-CL13879708-PHYSX_3.2.1-WIN-VC10-BIN\SHARED\SAMPLEFRAMEWORK\FRAMEWORK\SRC\SAMPLETREE.CPP
C:\USERS\CHRISTOPHER\DOWNLOADS\APEXSDK-1.2.1-BUILD22-CL13879708-PHYSX_3.2.1-WIN-VC10-BIN\SHARED\SAMPLEFRAMEWORK\FRAMEWORK\COMPILER\VC10WIN32-PHYSX_3.2\BUILD\WIN32\SAMPLEFRAMEWORK-MT\CHECKED\VC100.PDB
^C:\USERS\CHRISTOPHER\DOWNLOADS\APEXSDK-1.2.1-BUILD22-CL13879708-PHYSX_3.2.1-WIN-VC10-BIN\SHARED\SAMPLEFRAMEWORK\FRAMEWORK\SRC\SAMPLETRIANGLEDEBUGRENDER.CPP
C:\USERS\CHRISTOPHER\DOWNLOADS\APEXSDK-1.2.1-BUILD22-CL13879708-PHYSX_3.2.1-WIN-VC10-BIN\SHARED\SAMPLEFRAMEWORK\FRAMEWORK\COMPILER\VC10WIN32-PHYSX_3.2\BUILD\WIN32\SAMPLEFRAMEWORK-MT\CHECKED\VC100.PDB
^C:\USERS\CHRISTOPHER\DOWNLOADS\APEXSDK-1.2.1-BUILD22-CL13879708-PHYSX_3.2.1-WIN-VC10-BIN\SHARED\SAMPLEFRAMEWORK\FRAMEWORK\SRC\TARGA.CPP
C:\USERS\CHRISTOPHER\DOWNLOADS\APEXSDK-1.2.1-BUILD22-CL13879708-PHYSX_3.2.1-WIN-VC10-BIN\SHARED\SAMPLEFRAMEWORK\FRAMEWORK\COMPILER\VC10WIN32-PHYSX_3.2\BUILD\WIN32\SAMPLEFRAMEWORK-MT\CHECKED\VC100.PDB
^F:\CS522\NVIDIA_PHYSX_FALL2012\CORE\DEPENDENCIES\APEXSDK-1.2.1-BUILD22-CL13879708-PHYSX_3.2.1-WIN-VC10-BIN\SHARED\SAMPLEFRAMEWORK\FRAMEWORK\SRC\AGPERFMONEVENTSRCAPI.CPP|F:\CS522\NVIDIA_PHYSX_FALL2012\CORE\DEPENDENCIES\APEXSDK-1.2.1-BUILD22-CL13879708-PHYSX_3.2.1-WIN-VC10-BIN\SHARED\SAMPLEFRAMEWORK\FRAMEWORK\SRC\NV_DDS.CPP|F:\CS522\NVIDIA_PHYSX_FALL2012\CORE\DEPENDENCIES\APEXSDK-1.2.1-BUILD22-CL13879708-PHYSX_3.2.1-WIN-VC10-BIN\SHARED\SAMPLEFRAMEWORK\FRAMEWORK\SRC\ODBLOCK.CPP|F:\CS522\NVIDIA_PHYSX_FALL2012\CORE\DEPENDENCIES\APEXSDK-1.2.1-BUILD22-CL13879708-PHYSX_3.2.1-WIN-VC10-BIN\SHARED\SAMPLEFRAMEWORK\FRAMEWORK\SRC\SAMPLEAPPLICATION.CPP|F:\CS522\NVIDIA_PHYSX_FALL2012\CORE\DEPENDENCIES\APEXSDK-1.2.1-BUILD22-CL13879708-PHYSX_3.2.1-WIN-VC10-BIN\SHARED\SAMPLEFRAMEWORK\FRAMEWORK\SRC\SAMPLEASSET.CPP|F:\CS522\NVIDIA_PHYSX_FALL2012\CORE\DEPENDENCIES\APEXSDK-1.2.1-BUILD22-CL13879708-PHYSX_3.2.1-WIN-VC10-BIN\SHARED\SAMPLEFRAMEWORK\FRAMEWORK\SRC\SAMPLEASSETMANAGER.CPP|F:\CS522\NVIDIA_PHYSX_FALL2012\CORE\DEPENDENCIES\APEXSDK-1.2.1-BUILD22-CL13879708-PHYSX_3.2.1-WIN-VC10-BIN\SHARED\SAMPLEFRAMEWORK\FRAMEWORK\SRC\SAMPLECOMMANDLINE.CPP|F:\CS522\NVIDIA_PHYSX_FALL2012\CORE\DEPENDENCIES\APEXSDK-1.2.1-BUILD22-CL13879708-PHYSX_3.2.1-WIN-VC10-BIN\SHARED\SAMPLEFRAMEWORK\FRAMEWORK\SRC\SAMPLEDIRMANAGER.CPP|F:\CS522\NVIDIA_PHYSX_FALL2012\CORE\DEPENDENCIES\APEXSDK-1.2.1-BUILD22-CL13879708-PHYSX_3.2.1-WIN-VC10-BIN\SHARED\SAMPLEFRAMEWORK\FRAMEWORK\SRC\SAMPLEINPUTASSET.CPP|F:\CS522\NVIDIA_PHYSX_FALL2012\CORE\DEPENDENCIES\APEXSDK-1.2.1-BUILD22-CL13879708-PHYSX_3.2.1-WIN-VC10-BIN\SHARED\SAMPLEFRAMEWORK\FRAMEWORK\SRC\SAMPLELINEDEBUGRENDER.CPP|F:\CS522\NVIDIA_PHYSX_FALL2012\CORE\DEPENDENCIES\APEXSDK-1.2.1-BUILD22-CL13879708-PHYSX_3.2.1-WIN-VC10-BIN\SHARED\SAMPLEFRAMEWORK\FRAMEWORK\SRC\SAMPLEMATERIALASSET.CPP|F:\CS522\NVIDIA_PHYSX_FALL2012\CORE\DEPENDENCIES\APEXSDK-1.2.1-BUILD22-CL13879708-PHYSX_3.2.1-WIN-VC10-BIN\SHARED\SAMPLEFRAMEWORK\FRAMEWORK\SRC\SAMPLEPOINTDEBUGRENDER.CPP|F:\CS522\NVIDIA_PHYSX_FALL2012\CORE\DEPENDENCIES\APEXSDK-1.2.1-BUILD22-CL13879708-PHYSX_3.2.1-WIN-VC10-BIN\SHARED\SAMPLEFRAMEWORK\FRAMEWORK\SRC\SAMPLEPXPROFILEZONE.CPP|F:\CS522\NVIDIA_PHYSX_FALL2012\CORE\DEPENDENCIES\APEXSDK-1.2.1-BUILD22-CL13879708-PHYSX_3.2.1-WIN-VC10-BIN\SHARED\SAMPLEFRAMEWORK\FRAMEWORK\SRC\SAMPLETEXTUREASSET.CPP|F:\CS522\NVIDIA_PHYSX_FALL2012\CORE\DEPENDENCIES\APEXSDK-1.2.1-BUILD22-CL13879708-PHYSX_3.2.1-WIN-VC10-BIN\SHARED\SAMPLEFRAMEWORK\FRAMEWORK\SRC\SAMPLETREE.CPP|F:\CS522\NVIDIA_PHYSX_FALL2012\CORE\DEPENDENCIES\APEXSDK-1.2.1-BUILD22-CL13879708-PHYSX_3.2.1-WIN-VC10-BIN\SHARED\SAMPLEFRAMEWORK\FRAMEWORK\SRC\SAMPLETRIANGLEDEBUGRENDER.CPP|F:\CS522\NVIDIA_PHYSX_FALL2012\CORE\DEPENDENCIES\APEXSDK-1.2.1-BUILD22-CL13879708-PHYSX_3.2.1-WIN-VC10-BIN\SHARED\SAMPLEFRAMEWORK\FRAMEWORK\SRC\TARGA.CPP|F:\CS522\NVIDIA_PHYSX_FALL2012\CORE\DEPENDENCIES\APEXSDK-1.2.1-BUILD22-CL13879708-PHYSX_3.2.1-WIN-VC10-BIN\SHARED\SAMPLEFRAMEWORK\FRAMEWORK\SRC\WINDOWS\WINDOWSSAMPLEASSETMANAGER.CPP
F:\CS522\NVIDIA_PHYSX_FALL2012\CORE\DEPENDENCIES\APEXSDK-1.2.1-BUILD22-CL13879708-PHYSX_3.2.1-WIN-VC10-BIN\SHARED\SAMPLEFRAMEWORK\FRAMEWORK\COMPILER\VC10WIN32-PHYSX_3.2\BUILD\WIN32\SAMPLEFRAMEWORK-MT\CHECKED\NV_DDS.OBJ
F:\CS522\NVIDIA_PHYSX_FALL2012\CORE\DEPENDENCIES\APEXSDK-1.2.1-BUILD22-CL13879708-PHYSX_3.2.1-WIN-VC10-BIN\SHARED\SAMPLEFRAMEWORK\FRAMEWORK\COMPILER\VC10WIN32-PHYSX_3.2\BUILD\WIN32\SAMPLEFRAMEWORK-MT\CHECKED\SAMPLETREE.OBJ
F:\CS522\NVIDIA_PHYSX_FALL2012\CORE\DEPENDENCIES\APEXSDK-1.2.1-BUILD22-CL13879708-PHYSX_3.2.1-WIN-VC10-BIN\SHARED\SAMPLEFRAMEWORK\FRAMEWORK\COMPILER\VC10WIN32-PHYSX_3.2\BUILD\WIN32\SAMPLEFRAMEWORK-MT\CHECKED\SAMPLETRIANGLEDEBUGRENDER.OBJ
F:\CS522\NVIDIA_PHYSX_FALL2012\CORE\DEPENDENCIES\APEXSDK-1.2.1-BUILD22-CL13879708-PHYSX_3.2.1-WIN-VC10-BIN\SHARED\SAMPLEFRAMEWORK\FRAMEWORK\COMPILER\VC10WIN32-PHYSX_3.2\BUILD\WIN32\SAMPLEFRAMEWORK-MT\CHECKED\ODBLOCK.OBJ
F:\CS522\NVIDIA_PHYSX_FALL2012\CORE\DEPENDENCIES\APEXSDK-1.2.1-BUILD22-CL13879708-PHYSX_3.2.1-WIN-VC10-BIN\SHARED\SAMPLEFRAMEWORK\FRAMEWORK\COMPILER\VC10WIN32-PHYSX_3.2\BUILD\WIN32\SAMPLEFRAMEWORK-MT\CHECKED\SAMPLELINEDEBUGRENDER.OBJ
F:\CS522\NVIDIA_PHYSX_FALL2012\CORE\DEPENDENCIES\APEXSDK-1.2.1-BUILD22-CL13879708-PHYSX_3.2.1-WIN-VC10-BIN\SHARED\SAMPLEFRAMEWORK\FRAMEWORK\COMPILER\VC10WIN32-PHYSX_3.2\BUILD\WIN32\SAMPLEFRAMEWORK-MT\CHECKED\SAMPLEASSETMANAGER.OBJ
F:\CS522\NVIDIA_PHYSX_FALL2012\CORE\DEPENDENCIES\APEXSDK-1.2.1-BUILD22-CL13879708-PHYSX_3.2.1-WIN-VC10-BIN\SHARED\SAMPLEFRAMEWORK\FRAMEWORK\COMPILER\VC10WIN32-PHYSX_3.2\BUILD\WIN32\SAMPLEFRAMEWORK-MT\CHECKED\SAMPLETEXTUREASSET.OBJ
F:\CS522\NVIDIA_PHYSX_FALL2012\CORE\DEPENDENCIES\APEXSDK-1.2.1-BUILD22-CL13879708-PHYSX_3.2.1-WIN-VC10-BIN\SHARED\SAMPLEFRAMEWORK\FRAMEWORK\COMPILER\VC10WIN32-PHYSX_3.2\BUILD\WIN32\SAMPLEFRAMEWORK-MT\CHECKED\AGPERFMONEVENTSRCAPI.OBJ
F:\CS522\NVIDIA_PHYSX_FALL2012\CORE\DEPENDENCIES\APEXSDK-1.2.1-BUILD22-CL13879708-PHYSX_3.2.1-WIN-VC10-BIN\SHARED\SAMPLEFRAMEWORK\FRAMEWORK\COMPILER\VC10WIN32-PHYSX_3.2\BUILD\WIN32\SAMPLEFRAMEWORK-MT\CHECKED\SAMPLEDIRMANAGER.OBJ
F:\CS522\NVIDIA_PHYSX_FALL2012\CORE\DEPENDENCIES\APEXSDK-1.2.1-BUILD22-CL13879708-PHYSX_3.2.1-WIN-VC10-BIN\SHARED\SAMPLEFRAMEWORK\FRAMEWORK\COMPILER\VC10WIN32-PHYSX_3.2\BUILD\WIN32\SAMPLEFRAMEWORK-MT\CHECKED\TARGA.OBJ
F:\CS522\NVIDIA_PHYSX_FALL2012\CORE\DEPENDENCIES\APEXSDK-1.2.1-BUILD22-CL13879708-PHYSX_3.2.1-WIN-VC10-BIN\SHARED\SAMPLEFRAMEWORK\FRAMEWORK\COMPILER\VC10WIN32-PHYSX_3.2\BUILD\WIN32\SAMPLEFRAMEWORK-MT\CHECKED\SAMPLECOMMANDLINE.OBJ
F:\CS522\NVIDIA_PHYSX_FALL2012\CORE\DEPENDENCIES\APEXSDK-1.2.1-BUILD22-CL13879708-PHYSX_3.2.1-WIN-VC10-BIN\SHARED\SAMPLEFRAMEWORK\FRAMEWORK\COMPILER\VC10WIN32-PHYSX_3.2\BUILD\WIN32\SAMPLEFRAMEWORK-MT\CHECKED\SAMPLEPOINTDEBUGRENDER.OBJ
F:\CS522\NVIDIA_PHYSX_FALL2012\CORE\DEPENDENCIES\APEXSDK-1.2.1-BUILD22-CL13879708-PHYSX_3.2.1-WIN-VC10-BIN\SHARED\SAMPLEFRAMEWORK\FRAMEWORK\COMPILER\VC10WIN32-PHYSX_3.2\BUILD\WIN32\SAMPLEFRAMEWORK-MT\CHECKED\WINDOWSSAMPLEASSETMANAGER.OBJ
F:\CS522\NVIDIA_PHYSX_FALL2012\CORE\DEPENDENCIES\APEXSDK-1.2.1-BUILD22-CL13879708-PHYSX_3.2.1-WIN-VC10-BIN\SHARED\SAMPLEFRAMEWORK\FRAMEWORK\COMPILER\VC10WIN32-PHYSX_3.2\BUILD\WIN32\SAMPLEFRAMEWORK-MT\CHECKED\SAMPLEMATERIALASSET.OBJ
F:\CS522\NVIDIA_PHYSX_FALL2012\CORE\DEPENDENCIES\APEXSDK-1.2.1-BUILD22-CL13879708-PHYSX_3.2.1-WIN-VC10-BIN\SHARED\SAMPLEFRAMEWORK\FRAMEWORK\COMPILER\VC10WIN32-PHYSX_3.2\BUILD\WIN32\SAMPLEFRAMEWORK-MT\CHECKED\SAMPLEASSET.OBJ
F:\CS522\NVIDIA_PHYSX_FALL2012\CORE\DEPENDENCIES\APEXSDK-1.2.1-BUILD22-CL13879708-PHYSX_3.2.1-WIN-VC10-BIN\SHARED\SAMPLEFRAMEWORK\FRAMEWORK\COMPILER\VC10WIN32-PHYSX_3.2\BUILD\WIN32\SAMPLEFRAMEWORK-MT\CHECKED\SAMPLEINPUTASSET.OBJ
F:\CS522\NVIDIA_PHYSX_FALL2012\CORE\DEPENDENCIES\APEXSDK-1.2.1-BUILD22-CL13879708-PHYSX_3.2.1-WIN-VC10-BIN\SHARED\SAMPLEFRAMEWORK\FRAMEWORK\COMPILER\VC10WIN32-PHYSX_3.2\BUILD\WIN32\SAMPLEFRAMEWORK-MT\CHECKED\SAMPLEAPPLICATION.OBJ
F:\CS522\NVIDIA_PHYSX_FALL2012\CORE\DEPENDENCIES\APEXSDK-1.2.1-BUILD22-CL13879708-PHYSX_3.2.1-WIN-VC10-BIN\SHARED\SAMPLEFRAMEWORK\FRAMEWORK\COMPILER\VC10WIN32-PHYSX_3.2\BUILD\WIN32\SAMPLEFRAMEWORK-MT\CHECKED\SAMPLEPXPROFILEZONE.OBJ
^F:\CS522\NVIDIA_PHYSX_FALL2012\CORE\DEPENDENCIES\APEXSDK-1.2.1-BUILD22-CL13879708-PHYSX_3.2.1-WIN-VC10-BIN\SHARED\SAMPLEFRAMEWORK\FRAMEWORK\SRC\WINDOWS\WINDOWSSAMPLEASSETMANAGER.CPP
F:\CS522\NVIDIA_PHYSX_FALL2012\CORE\DEPENDENCIES\APEXSDK-1.2.1-BUILD22-CL13879708-PHYSX_3.2.1-WIN-VC10-BIN\SHARED\SAMPLEFRAMEWORK\FRAMEWORK\COMPILER\VC10WIN32-PHYSX_3.2\BUILD\WIN32\SAMPLEFRAMEWORK-MT\CHECKED\VC100.PDB
^F:\CS522\NVIDIA_PHYSX_FALL2012\CORE\DEPENDENCIES\APEXSDK-1.2.1-BUILD22-CL13879708-PHYSX_3.2.1-WIN-VC10-BIN\SHARED\SAMPLEFRAMEWORK\FRAMEWORK\SRC\AGPERFMONEVENTSRCAPI.CPP
F:\CS522\NVIDIA_PHYSX_FALL2012\CORE\DEPENDENCIES\APEXSDK-1.2.1-BUILD22-CL13879708-PHYSX_3.2.1-WIN-VC10-BIN\SHARED\SAMPLEFRAMEWORK\FRAMEWORK\COMPILER\VC10WIN32-PHYSX_3.2\BUILD\WIN32\SAMPLEFRAMEWORK-MT\CHECKED\VC100.PDB
^F:\CS522\NVIDIA_PHYSX_FALL2012\CORE\DEPENDENCIES\APEXSDK-1.2.1-BUILD22-CL13879708-PHYSX_3.2.1-WIN-VC10-BIN\SHARED\SAMPLEFRAMEWORK\FRAMEWORK\SRC\NV_DDS.CPP
F:\CS522\NVIDIA_PHYSX_FALL2012\CORE\DEPENDENCIES\APEXSDK-1.2.1-BUILD22-CL13879708-PHYSX_3.2.1-WIN-VC10-BIN\SHARED\SAMPLEFRAMEWORK\FRAMEWORK\COMPILER\VC10WIN32-PHYSX_3.2\BUILD\WIN32\SAMPLEFRAMEWORK-MT\CHECKED\VC100.PDB
^F:\CS522\NVIDIA_PHYSX_FALL2012\CORE\DEPENDENCIES\APEXSDK-1.2.1-BUILD22-CL13879708-PHYSX_3.2.1-WIN-VC10-BIN\SHARED\SAMPLEFRAMEWORK\FRAMEWORK\SRC\ODBLOCK.CPP
F:\CS522\NVIDIA_PHYSX_FALL2012\CORE\DEPENDENCIES\APEXSDK-1.2.1-BUILD22-CL13879708-PHYSX_3.2.1-WIN-VC10-BIN\SHARED\SAMPLEFRAMEWORK\FRAMEWORK\COMPILER\VC10WIN32-PHYSX_3.2\BUILD\WIN32\SAMPLEFRAMEWORK-MT\CHECKED\VC100.PDB
^F:\CS522\NVIDIA_PHYSX_FALL2012\CORE\DEPENDENCIES\APEXSDK-1.2.1-BUILD22-CL13879708-PHYSX_3.2.1-WIN-VC10-BIN\SHARED\SAMPLEFRAMEWORK\FRAMEWORK\SRC\SAMPLEAPPLICATION.CPP
F:\CS522\NVIDIA_PHYSX_FALL2012\CORE\DEPENDENCIES\APEXSDK-1.2.1-BUILD22-CL13879708-PHYSX_3.2.1-WIN-VC10-BIN\SHARED\SAMPLEFRAMEWORK\FRAMEWORK\COMPILER\VC10WIN32-PHYSX_3.2\BUILD\WIN32\SAMPLEFRAMEWORK-MT\CHECKED\VC100.PDB
^F:\CS522\NVIDIA_PHYSX_FALL2012\CORE\DEPENDENCIES\APEXSDK-1.2.1-BUILD22-CL13879708-PHYSX_3.2.1-WIN-VC10-BIN\SHARED\SAMPLEFRAMEWORK\FRAMEWORK\SRC\SAMPLEASSET.CPP
F:\CS522\NVIDIA_PHYSX_FALL2012\CORE\DEPENDENCIES\APEXSDK-1.2.1-BUILD22-CL13879708-PHYSX_3.2.1-WIN-VC10-BIN\SHARED\SAMPLEFRAMEWORK\FRAMEWORK\COMPILER\VC10WIN32-PHYSX_3.2\BUILD\WIN32\SAMPLEFRAMEWORK-MT\CHECKED\VC100.PDB
^F:\CS522\NVIDIA_PHYSX_FALL2012\CORE\DEPENDENCIES\APEXSDK-1.2.1-BUILD22-CL13879708-PHYSX_3.2.1-WIN-VC10-BIN\SHARED\SAMPLEFRAMEWORK\FRAMEWORK\SRC\SAMPLEASSETMANAGER.CPP
F:\CS522\NVIDIA_PHYSX_FALL2012\CORE\DEPENDENCIES\APEXSDK-1.2.1-BUILD22-CL13879708-PHYSX_3.2.1-WIN-VC10-BIN\SHARED\SAMPLEFRAMEWORK\FRAMEWORK\COMPILER\VC10WIN32-PHYSX_3.2\BUILD\WIN32\SAMPLEFRAMEWORK-MT\CHECKED\VC100.PDB
^F:\CS522\NVIDIA_PHYSX_FALL2012\CORE\DEPENDENCIES\APEXSDK-1.2.1-BUILD22-CL13879708-PHYSX_3.2.1-WIN-VC10-BIN\SHARED\SAMPLEFRAMEWORK\FRAMEWORK\SRC\SAMPLECOMMANDLINE.CPP
F:\CS522\NVIDIA_PHYSX_FALL2012\CORE\DEPENDENCIES\APEXSDK-1.2.1-BUILD22-CL13879708-PHYSX_3.2.1-WIN-VC10-BIN\SHARED\SAMPLEFRAMEWORK\FRAMEWORK\COMPILER\VC10WIN32-PHYSX_3.2\BUILD\WIN32\SAMPLEFRAMEWORK-MT\CHECKED\VC100.PDB
^F:\CS522\NVIDIA_PHYSX_FALL2012\CORE\DEPENDENCIES\APEXSDK-1.2.1-BUILD22-CL13879708-PHYSX_3.2.1-WIN-VC10-BIN\SHARED\SAMPLEFRAMEWORK\FRAMEWORK\SRC\SAMPLEDIRMANAGER.CPP
F:\CS522\NVIDIA_PHYSX_FALL2012\CORE\DEPENDENCIES\APEXSDK-1.2.1-BUILD22-CL13879708-PHYSX_3.2.1-WIN-VC10-BIN\SHARED\SAMPLEFRAMEWORK\FRAMEWORK\COMPILER\VC10WIN32-PHYSX_3.2\BUILD\WIN32\SAMPLEFRAMEWORK-MT\CHECKED\VC100.PDB
^F:\CS522\NVIDIA_PHYSX_FALL2012\CORE\DEPENDENCIES\APEXSDK-1.2.1-BUILD22-CL13879708-PHYSX_3.2.1-WIN-VC10-BIN\SHARED\SAMPLEFRAMEWORK\FRAMEWORK\SRC\SAMPLEINPUTASSET.CPP
F:\CS522\NVIDIA_PHYSX_FALL2012\CORE\DEPENDENCIES\APEXSDK-1.2.1-BUILD22-CL13879708-PHYSX_3.2.1-WIN-VC10-BIN\SHARED\SAMPLEFRAMEWORK\FRAMEWORK\COMPILER\VC10WIN32-PHYSX_3.2\BUILD\WIN32\SAMPLEFRAMEWORK-MT\CHECKED\VC100.PDB
^F:\CS522\NVIDIA_PHYSX_FALL2012\CORE\DEPENDENCIES\APEXSDK-1.2.1-BUILD22-CL13879708-PHYSX_3.2.1-WIN-VC10-BIN\SHARED\SAMPLEFRAMEWORK\FRAMEWORK\SRC\SAMPLELINEDEBUGRENDER.CPP
F:\CS522\NVIDIA_PHYSX_FALL2012\CORE\DEPENDENCIES\APEXSDK-1.2.1-BUILD22-CL13879708-PHYSX_3.2.1-WIN-VC10-BIN\SHARED\SAMPLEFRAMEWORK\FRAMEWORK\COMPILER\VC10WIN32-PHYSX_3.2\BUILD\WIN32\SAMPLEFRAMEWORK-MT\CHECKED\VC100.PDB
^F:\CS522\NVIDIA_PHYSX_FALL2012\CORE\DEPENDENCIES\APEXSDK-1.2.1-BUILD22-CL13879708-PHYSX_3.2.1-WIN-VC10-BIN\SHARED\SAMPLEFRAMEWORK\FRAMEWORK\SRC\SAMPLEMATERIALASSET.CPP
F:\CS522\NVIDIA_PHYSX_FALL2012\CORE\DEPENDENCIES\APEXSDK-1.2.1-BUILD22-CL13879708-PHYSX_3.2.1-WIN-VC10-BIN\SHARED\SAMPLEFRAMEWORK\FRAMEWORK\COMPILER\VC10WIN32-PHYSX_3.2\BUILD\WIN32\SAMPLEFRAMEWORK-MT\CHECKED\VC100.PDB
^F:\CS522\NVIDIA_PHYSX_FALL2012\CORE\DEPENDENCIES\APEXSDK-1.2.1-BUILD22-CL13879708-PHYSX_3.2.1-WIN-VC10-BIN\SHARED\SAMPLEFRAMEWORK\FRAMEWORK\SRC\SAMPLEPOINTDEBUGRENDER.CPP
F:\CS522\NVIDIA_PHYSX_FALL2012\CORE\DEPENDENCIES\APEXSDK-1.2.1-BUILD22-CL13879708-PHYSX_3.2.1-WIN-VC10-BIN\SHARED\SAMPLEFRAMEWORK\FRAMEWORK\COMPILER\VC10WIN32-PHYSX_3.2\BUILD\WIN32\SAMPLEFRAMEWORK-MT\CHECKED\VC100.PDB
^F:\CS522\NVIDIA_PHYSX_FALL2012\CORE\DEPENDENCIES\APEXSDK-1.2.1-BUILD22-CL13879708-PHYSX_3.2.1-WIN-VC10-BIN\SHARED\SAMPLEFRAMEWORK\FRAMEWORK\SRC\SAMPLEPXPROFILEZONE.CPP
F:\CS522\NVIDIA_PHYSX_FALL2012\CORE\DEPENDENCIES\APEXSDK-1.2.1-BUILD22-CL13879708-PHYSX_3.2.1-WIN-VC10-BIN\SHARED\SAMPLEFRAMEWORK\FRAMEWORK\COMPILER\VC10WIN32-PHYSX_3.2\BUILD\WIN32\SAMPLEFRAMEWORK-MT\CHECKED\VC100.PDB
^F:\CS522\NVIDIA_PHYSX_FALL2012\CORE\DEPENDENCIES\APEXSDK-1.2.1-BUILD22-CL13879708-PHYSX_3.2.1-WIN-VC10-BIN\SHARED\SAMPLEFRAMEWORK\FRAMEWORK\SRC\SAMPLETEXTUREASSET.CPP
F:\CS522\NVIDIA_PHYSX_FALL2012\CORE\DEPENDENCIES\APEXSDK-1.2.1-BUILD22-CL13879708-PHYSX_3.2.1-WIN-VC10-BIN\SHARED\SAMPLEFRAMEWORK\FRAMEWORK\COMPILER\VC10WIN32-PHYSX_3.2\BUILD\WIN32\SAMPLEFRAMEWORK-MT\CHECKED\VC100.PDB
^F:\CS522\NVIDIA_PHYSX_FALL2012\CORE\DEPENDENCIES\APEXSDK-1.2.1-BUILD22-CL13879708-PHYSX_3.2.1-WIN-VC10-BIN\SHARED\SAMPLEFRAMEWORK\FRAMEWORK\SRC\SAMPLETREE.CPP
F:\CS522\NVIDIA_PHYSX_FALL2012\CORE\DEPENDENCIES\APEXSDK-1.2.1-BUILD22-CL13879708-PHYSX_3.2.1-WIN-VC10-BIN\SHARED\SAMPLEFRAMEWORK\FRAMEWORK\COMPILER\VC10WIN32-PHYSX_3.2\BUILD\WIN32\SAMPLEFRAMEWORK-MT\CHECKED\VC100.PDB
^F:\CS522\NVIDIA_PHYSX_FALL2012\CORE\DEPENDENCIES\APEXSDK-1.2.1-BUILD22-CL13879708-PHYSX_3.2.1-WIN-VC10-BIN\SHARED\SAMPLEFRAMEWORK\FRAMEWORK\SRC\SAMPLETRIANGLEDEBUGRENDER.CPP
F:\CS522\NVIDIA_PHYSX_FALL2012\CORE\DEPENDENCIES\APEXSDK-1.2.1-BUILD22-CL13879708-PHYSX_3.2.1-WIN-VC10-BIN\SHARED\SAMPLEFRAMEWORK\FRAMEWORK\COMPILER\VC10WIN32-PHYSX_3.2\BUILD\WIN32\SAMPLEFRAMEWORK-MT\CHECKED\VC100.PDB
^F:\CS522\NVIDIA_PHYSX_FALL2012\CORE\DEPENDENCIES\APEXSDK-1.2.1-BUILD22-CL13879708-PHYSX_3.2.1-WIN-VC10-BIN\SHARED\SAMPLEFRAMEWORK\FRAMEWORK\SRC\TARGA.CPP
F:\CS522\NVIDIA_PHYSX_FALL2012\CORE\DEPENDENCIES\APEXSDK-1.2.1-BUILD22-CL13879708-PHYSX_3.2.1-WIN-VC10-BIN\SHARED\SAMPLEFRAMEWORK\FRAMEWORK\COMPILER\VC10WIN32-PHYSX_3.2\BUILD\WIN32\SAMPLEFRAMEWORK-MT\CHECKED\VC100.PDB
