^C:\USERS\CHRISTOPHER\DOWNLOADS\APEXSDK-1.2.1-BUILD22-CL13879708-PHYSX_3.2.1-WIN-VC10-BIN\SAMPLES\SIMPLECLOTHING\SRC\MAIN.CPP|C:\USERS\CHRISTOPHER\DOWNLOADS\APEXSDK-1.2.1-BUILD22-CL13879708-PHYSX_3.2.1-WIN-VC10-BIN\SAMPLES\SIMPLECLOTHING\SRC\SIMPLECLOTHING.CPP
C:\USERS\CHRISTOPHER\DOWNLOADS\APEXSDK-1.2.1-BUILD22-CL13879708-PHYSX_3.2.1-WIN-VC10-BIN\SAMPLES\COMPILER\VC10WIN32-PHYSX_3.2\BUILD\WIN32\SIMPLECLOTHING\CHECKED\SIMPLECLOTHING.OBJ
C:\USERS\CHRISTOPHER\DOWNLOADS\APEXSDK-1.2.1-BUILD22-CL13879708-PHYSX_3.2.1-WIN-VC10-BIN\SAMPLES\COMPILER\VC10WIN32-PHYSX_3.2\BUILD\WIN32\SIMPLECLOTHING\CHECKED\MAIN.OBJ
^C:\USERS\CHRISTOPHER\DOWNLOADS\APEXSDK-1.2.1-BUILD22-CL13879708-PHYSX_3.2.1-WIN-VC10-BIN\SAMPLES\SIMPLECLOTHING\SRC\MAIN.CPP
C:\USERS\CHRISTOPHER\DOWNLOADS\APEXSDK-1.2.1-BUILD22-CL13879708-PHYSX_3.2.1-WIN-VC10-BIN\SAMPLES\COMPILER\VC10WIN32-PHYSX_3.2\BUILD\WIN32\SIMPLECLOTHING\CHECKED\VC100.PDB
^C:\USERS\CHRISTOPHER\DOWNLOADS\APEXSDK-1.2.1-BUILD22-CL13879708-PHYSX_3.2.1-WIN-VC10-BIN\SAMPLES\SIMPLECLOTHING\SRC\SIMPLECLOTHING.CPP
C:\USERS\CHRISTOPHER\DOWNLOADS\APEXSDK-1.2.1-BUILD22-CL13879708-PHYSX_3.2.1-WIN-VC10-BIN\SAMPLES\COMPILER\VC10WIN32-PHYSX_3.2\BUILD\WIN32\SIMPLECLOTHING\CHECKED\VC100.PDB
^F:\CS522\NVIDIA_PHYSX_FALL2012\CORE\DEPENDENCIES\APEXSDK-1.2.1-BUILD22-CL13879708-PHYSX_3.2.1-WIN-VC10-BIN\SAMPLES\SIMPLECLOTHING\SRC\MAIN.CPP|F:\CS522\NVIDIA_PHYSX_FALL2012\CORE\DEPENDENCIES\APEXSDK-1.2.1-BUILD22-CL13879708-PHYSX_3.2.1-WIN-VC10-BIN\SAMPLES\SIMPLECLOTHING\SRC\SIMPLECLOTHING.CPP
F:\CS522\NVIDIA_PHYSX_FALL2012\CORE\DEPENDENCIES\APEXSDK-1.2.1-BUILD22-CL13879708-PHYSX_3.2.1-WIN-VC10-BIN\SAMPLES\COMPILER\VC10WIN32-PHYSX_3.2\BUILD\WIN32\SIMPLECLOTHING\CHECKED\MAIN.OBJ
F:\CS522\NVIDIA_PHYSX_FALL2012\CORE\DEPENDENCIES\APEXSDK-1.2.1-BUILD22-CL13879708-PHYSX_3.2.1-WIN-VC10-BIN\SAMPLES\COMPILER\VC10WIN32-PHYSX_3.2\BUILD\WIN32\SIMPLECLOTHING\CHECKED\SIMPLECLOTHING.OBJ
^F:\CS522\NVIDIA_PHYSX_FALL2012\CORE\DEPENDENCIES\APEXSDK-1.2.1-BUILD22-CL13879708-PHYSX_3.2.1-WIN-VC10-BIN\SAMPLES\SIMPLECLOTHING\SRC\MAIN.CPP
F:\CS522\NVIDIA_PHYSX_FALL2012\CORE\DEPENDENCIES\APEXSDK-1.2.1-BUILD22-CL13879708-PHYSX_3.2.1-WIN-VC10-BIN\SAMPLES\COMPILER\VC10WIN32-PHYSX_3.2\BUILD\WIN32\SIMPLECLOTHING\CHECKED\VC100.PDB
^F:\CS522\NVIDIA_PHYSX_FALL2012\CORE\DEPENDENCIES\APEXSDK-1.2.1-BUILD22-CL13879708-PHYSX_3.2.1-WIN-VC10-BIN\SAMPLES\SIMPLECLOTHING\SRC\SIMPLECLOTHING.CPP
F:\CS522\NVIDIA_PHYSX_FALL2012\CORE\DEPENDENCIES\APEXSDK-1.2.1-BUILD22-CL13879708-PHYSX_3.2.1-WIN-VC10-BIN\SAMPLES\COMPILER\VC10WIN32-PHYSX_3.2\BUILD\WIN32\SIMPLECLOTHING\CHECKED\VC100.PDB
