fragment_program RadialBlur_PS_CG cg
{
	source RadialBlur.cg
	entry_point main_ps
	profiles ps_2_0 arbfp1

	default_params
	{
		param_named_auto	time		costime_0_1	1.5
		param_named		center		float2		.5	.5
	}
}

material Material_RadialBlur
{
	
	technique
	
	{
		
		pass
		
		{
	
			depth_check off

			fragment_program_ref RadialBlur_PS_CG
			{
			}
			
			texture_unit rt0
			{
                		tex_coord_set 0
				tex_address_mode wrap
				filtering linear linear linear
			}

		}
	
	}

}