^C:\PROGRAM FILES (X86)\INTEL\MEDIA SDK 2012\SAMPLES\SAMPLE_MULTI_TRANSCODE\DEBUG\OBJ\SAMPLE_MULTI_TRANSCODE\PIPELINE_TRANSCODE.OBJ|C:\PROGRAM FILES (X86)\INTEL\MEDIA SDK 2012\SAMPLES\SAMPLE_MULTI_TRANSCODE\DEBUG\OBJ\SAMPLE_MULTI_TRANSCODE\SAMPLE_MULTI_TRANSCODE.EXE.EMBED.MANIFEST.RES|C:\PROGRAM FILES (X86)\INTEL\MEDIA SDK 2012\SAMPLES\SAMPLE_MULTI_TRANSCODE\DEBUG\OBJ\SAMPLE_MULTI_TRANSCODE\SAMPLE_MULTI_TRANSCODE.OBJ|C:\PROGRAM FILES (X86)\INTEL\MEDIA SDK 2012\SAMPLES\SAMPLE_MULTI_TRANSCODE\DEBUG\OBJ\SAMPLE_MULTI_TRANSCODE\TRANSCODE_UTILS.OBJ|C:\PROGRAM FILES (X86)\INTEL\MEDIA SDK 2012\SAMPLES\_BUILD\WIN32\DEBUG\LIB\SAMPLE_COMMON.LIB|C:\PROGRAM FILES (X86)\INTEL\MEDIA SDK 2012\SAMPLES\_BUILD\WIN32\DEBUG\LIB\VPP_PLUGIN.LIB
/ERRORREPORT:PROMPT /OUT:"..\_build\Win32\Debug\sample_multi_transcode.exe" /INCREMENTAL /NOLOGO /LIBPATH:..\..\lib\Win32 libmfx.lib dxva2.lib d3d9.lib psapi.lib kernel32.lib user32.lib gdi32.lib winspool.lib comdlg32.lib advapi32.lib shell32.lib ole32.lib oleaut32.lib uuid.lib odbc32.lib odbccp32.lib /NODEFAULTLIB:msvcrt.lib /NODEFAULTLIB:msvcrtd.lib /MANIFEST /ManifestFile:"C:\Program Files (x86)\Intel\Media SDK 2012\samples\sample_multi_transcode\Debug\obj\sample_multi_transcode\sample_multi_transcode.exe.intermediate.manifest" /MANIFESTUAC:"level='asInvoker' uiAccess='false'" /DEBUG /PDB:"C:\Program Files (x86)\Intel\Media SDK 2012\samples\_build\Win32\Debug\sample_multi_transcode.pdb" /SUBSYSTEM:CONSOLE /TLBID:1 /DYNAMICBASE /NXCOMPAT /IMPLIB:"..\_build\Win32\Debug\sample_multi_transcode.lib" /MACHINE:X86 "C:\Program Files (x86)\Intel\Media SDK 2012\samples\sample_multi_transcode\Debug\obj\sample_multi_transcode\sample_multi_transcode.exe.embed.manifest.res"
"C:\Program Files (x86)\Intel\Media SDK 2012\samples\sample_multi_transcode\Debug\obj\sample_multi_transcode\pipeline_transcode.obj"
"C:\Program Files (x86)\Intel\Media SDK 2012\samples\sample_multi_transcode\Debug\obj\sample_multi_transcode\sample_multi_transcode.obj"
"C:\Program Files (x86)\Intel\Media SDK 2012\samples\sample_multi_transcode\Debug\obj\sample_multi_transcode\transcode_utils.obj"
"C:\Program Files (x86)\Intel\Media SDK 2012\samples\_build\Win32\Debug\lib\sample_common.lib"
"C:\Program Files (x86)\Intel\Media SDK 2012\samples\_build\Win32\Debug\lib\vpp_plugin.lib"
